xof 0303txt 0032
template Frame {
 <3d82ab46-62da-11cf-ab39-0020af71e433>
 [...]
}

template Matrix4x4 {
 <f6f23f45-7686-11cf-8f52-0040333594a3>
 array FLOAT matrix[16];
}

template FrameTransformMatrix {
 <f6f23f41-7686-11cf-8f52-0040333594a3>
 Matrix4x4 frameMatrix;
}

template ObjectMatrixComment {
 <95a48e28-7ef4-4419-a16a-ba9dbdf0d2bc>
 Matrix4x4 objectMatrix;
}

template Vector {
 <3d82ab5e-62da-11cf-ab39-0020af71e433>
 FLOAT x;
 FLOAT y;
 FLOAT z;
}

template MeshFace {
 <3d82ab5f-62da-11cf-ab39-0020af71e433>
 DWORD nFaceVertexIndices;
 array DWORD faceVertexIndices[nFaceVertexIndices];
}

template Mesh {
 <3d82ab44-62da-11cf-ab39-0020af71e433>
 DWORD nVertices;
 array Vector vertices[nVertices];
 DWORD nFaces;
 array MeshFace faces[nFaces];
 [...]
}

template MeshNormals {
 <f6f23f43-7686-11cf-8f52-0040333594a3>
 DWORD nNormals;
 array Vector normals[nNormals];
 DWORD nFaceNormals;
 array MeshFace faceNormals[nFaceNormals];
}

template Coords2d {
 <f6f23f44-7686-11cf-8f52-0040333594a3>
 FLOAT u;
 FLOAT v;
}

template MeshTextureCoords {
 <f6f23f40-7686-11cf-8f52-0040333594a3>
 DWORD nTextureCoords;
 array Coords2d textureCoords[nTextureCoords];
}

template ColorRGBA {
 <35ff44e0-6c7c-11cf-8f52-0040333594a3>
 FLOAT red;
 FLOAT green;
 FLOAT blue;
 FLOAT alpha;
}

template ColorRGB {
 <d3e16e81-7835-11cf-8f52-0040333594a3>
 FLOAT red;
 FLOAT green;
 FLOAT blue;
}

template Material {
 <3d82ab4d-62da-11cf-ab39-0020af71e433>
 ColorRGBA faceColor;
 FLOAT power;
 ColorRGB specularColor;
 ColorRGB emissiveColor;
 [...]
}

template MeshMaterialList {
 <f6f23f42-7686-11cf-8f52-0040333594a3>
 DWORD nMaterials;
 DWORD nFaceIndexes;
 array DWORD faceIndexes[nFaceIndexes];
 [Material <3d82ab4d-62da-11cf-ab39-0020af71e433>]
}

template TextureFilename {
 <a42790e1-7810-11cf-8f52-0040333594a3>
 STRING filename;
}


Frame building_residential_03 {
 

 FrameTransformMatrix relative {
  1.000000,0.000000,0.000000,0.000000,0.000000,1.000000,0.000000,0.000000,0.000000,0.000000,1.000000,0.000000,0.000000,0.000000,0.000000,1.000000;;
 }

 ObjectMatrixComment object {
  1.000000,0.000000,0.000000,0.000000,0.000000,1.000000,0.000000,0.000000,0.000000,0.000000,1.000000,0.000000,0.000000,0.000000,0.000000,1.000000;;
 }

 Mesh mesh_b {
  81;
  -12.809756;8.859981;8.607745;,
  -12.809758;8.859981;-0.000014;,
  0.000002;8.859980;-0.000014;,
  0.000000;8.859980;8.607742;,
  0.000001;0.000000;8.607748;,
  -12.809756;0.000000;8.607750;,
  -12.809756;4.599542;8.607745;,
  0.000001;4.599541;8.607742;,
  -12.809756;4.599541;-0.000014;,
  -12.809756;4.599542;8.607745;,
  -12.809756;0.000000;8.607750;,
  -12.809756;0.000000;-0.000014;,
  -12.809756;4.599542;8.607745;,
  -12.809756;4.599541;-0.000014;,
  -12.809758;8.859981;-0.000014;,
  -12.809758;8.859981;-0.000014;,
  -12.809756;8.859981;8.607745;,
  -12.809756;4.599542;8.607745;,
  0.000001;4.599541;8.607742;,
  -12.809756;4.599542;8.607745;,
  -12.809756;8.859981;8.607745;,
  -12.809756;8.859981;8.607745;,
  0.000000;8.859980;8.607742;,
  0.000001;4.599541;8.607742;,
  12.809763;8.859981;-0.000012;,
  12.809759;8.859981;8.607739;,
  12.809759;0.000000;8.607743;,
  12.809759;4.599542;8.607739;,
  12.809759;4.599542;8.607739;,
  12.809763;4.599542;-0.000012;,
  12.809759;0.000000;8.607743;,
  12.809763;0.000000;-0.000012;,
  12.809763;4.599542;-0.000012;,
  12.809759;4.599542;8.607739;,
  12.809763;8.859981;-0.000012;,
  12.809759;8.859981;8.607739;,
  12.809763;8.859981;-0.000012;,
  12.809759;4.599542;8.607739;,
  12.809759;4.599542;8.607739;,
  0.000001;4.599541;8.607742;,
  12.809759;8.859981;8.607739;,
  0.000000;8.859980;8.607742;,
  12.809759;8.859981;8.607739;,
  0.000001;4.599541;8.607742;,
  -12.809755;8.859981;-8.607776;,
  0.000002;8.859980;-8.607769;,
  -12.809755;0.000000;-8.607779;,
  0.000003;0.000000;-8.607776;,
  -12.809755;4.599541;-8.607776;,
  0.000003;4.599541;-8.607769;,
  -12.809755;4.599541;-8.607776;,
  -12.809755;0.000000;-8.607779;,
  -12.809756;4.599541;-0.000014;,
  -12.809755;4.599541;-8.607776;,
  -12.809758;8.859981;-0.000014;,
  -12.809755;8.859981;-8.607776;,
  -12.809758;8.859981;-0.000014;,
  -12.809755;4.599541;-8.607776;,
  -12.809755;4.599541;-8.607776;,
  0.000003;4.599541;-8.607769;,
  -12.809755;8.859981;-8.607776;,
  0.000002;8.859980;-8.607769;,
  -12.809755;8.859981;-8.607776;,
  0.000003;4.599541;-8.607769;,
  12.809764;8.859981;-8.607765;,
  12.809764;0.000000;-8.607769;,
  12.809764;4.599541;-8.607765;,
  12.809764;4.599541;-8.607765;,
  12.809764;0.000000;-8.607769;,
  12.809764;4.599541;-8.607765;,
  12.809763;4.599542;-0.000012;,
  12.809763;8.859981;-0.000012;,
  12.809763;8.859981;-0.000012;,
  12.809764;8.859981;-8.607765;,
  12.809764;4.599541;-8.607765;,
  0.000003;4.599541;-8.607769;,
  12.809764;4.599541;-8.607765;,
  12.809764;8.859981;-8.607765;,
  12.809764;8.859981;-8.607765;,
  0.000002;8.859980;-8.607769;,
  0.000003;4.599541;-8.607769;;
  40;
  3;0,2,1;,
  3;2,0,3;,
  3;4,6,5;,
  3;6,4,7;,
  3;8,10,9;,
  3;10,8,11;,
  3;12,14,13;,
  3;15,17,16;,
  3;18,20,19;,
  3;21,23,22;,
  3;24,2,25;,
  3;3,25,2;,
  3;26,27,4;,
  3;7,4,27;,
  3;28,30,29;,
  3;31,29,30;,
  3;32,34,33;,
  3;35,37,36;,
  3;38,40,39;,
  3;41,43,42;,
  3;1,2,44;,
  3;45,44,2;,
  3;46,48,47;,
  3;49,47,48;,
  3;50,51,8;,
  3;11,8,51;,
  3;52,54,53;,
  3;55,57,56;,
  3;58,60,59;,
  3;61,63,62;,
  3;64,2,24;,
  3;2,64,45;,
  3;47,66,65;,
  3;66,47,49;,
  3;29,68,67;,
  3;68,29,31;,
  3;69,71,70;,
  3;72,74,73;,
  3;75,77,76;,
  3;78,80,79;;

  MeshNormals normals {
   81;
   0.000000;1.000000;-0.000000;,
   0.000000;1.000000;0.000000;,
   0.000000;1.000000;-0.000000;,
   0.000000;1.000000;0.000000;,
   0.000000;0.000001;1.000000;,
   0.000000;0.000001;1.000000;,
   0.000000;0.000001;1.000000;,
   0.000000;0.000001;1.000000;,
   -1.000000;0.000000;-0.000000;,
   -1.000000;0.000000;0.000000;,
   -1.000000;0.000000;0.000000;,
   -1.000000;0.000000;-0.000000;,
   -1.000000;-0.000000;0.000000;,
   -1.000000;-0.000000;0.000000;,
   -1.000000;-0.000000;0.000000;,
   -1.000000;0.000000;0.000000;,
   -1.000000;0.000000;0.000000;,
   -1.000000;0.000000;0.000000;,
   0.000000;0.000000;1.000000;,
   0.000000;0.000000;1.000000;,
   0.000000;0.000000;1.000000;,
   0.000000;0.000000;1.000000;,
   0.000000;0.000000;1.000000;,
   0.000000;0.000000;1.000000;,
   -0.000000;1.000000;-0.000000;,
   -0.000000;1.000000;-0.000000;,
   0.000000;0.000001;1.000000;,
   0.000000;0.000001;1.000000;,
   1.000000;0.000000;0.000000;,
   1.000000;0.000000;0.000000;,
   1.000000;0.000000;0.000000;,
   1.000000;0.000000;0.000000;,
   1.000000;0.000000;0.000000;,
   1.000000;0.000000;0.000000;,
   1.000000;0.000000;0.000000;,
   1.000000;0.000000;0.000000;,
   1.000000;0.000000;0.000000;,
   1.000000;0.000000;0.000000;,
   0.000000;0.000000;1.000000;,
   0.000000;0.000000;1.000000;,
   0.000000;0.000000;1.000000;,
   0.000000;0.000000;1.000000;,
   0.000000;0.000000;1.000000;,
   0.000000;0.000000;1.000000;,
   0.000000;1.000000;0.000000;,
   0.000000;1.000000;0.000000;,
   0.000000;0.000001;-1.000000;,
   0.000000;0.000001;-1.000000;,
   0.000000;0.000001;-1.000000;,
   0.000000;0.000001;-1.000000;,
   -1.000000;0.000000;-0.000000;,
   -1.000000;0.000000;-0.000000;,
   -1.000000;-0.000000;-0.000000;,
   -1.000000;-0.000000;-0.000000;,
   -1.000000;-0.000000;-0.000000;,
   -1.000000;0.000000;-0.000000;,
   -1.000000;0.000000;-0.000000;,
   -1.000000;0.000000;-0.000000;,
   0.000001;0.000000;-1.000000;,
   0.000001;0.000000;-1.000000;,
   0.000001;0.000000;-1.000000;,
   0.000001;0.000000;-1.000000;,
   0.000001;0.000000;-1.000000;,
   0.000001;0.000000;-1.000000;,
   -0.000000;1.000000;-0.000000;,
   0.000001;0.000001;-1.000000;,
   0.000000;0.000001;-1.000000;,
   1.000000;-0.000000;0.000000;,
   1.000000;-0.000000;0.000000;,
   1.000000;0.000000;0.000000;,
   1.000000;0.000000;0.000000;,
   1.000000;0.000000;0.000000;,
   1.000000;0.000000;0.000000;,
   1.000000;0.000000;0.000000;,
   1.000000;0.000000;0.000000;,
   0.000000;0.000000;-1.000000;,
   0.000000;0.000000;-1.000000;,
   0.000000;0.000000;-1.000000;,
   0.000000;0.000000;-1.000000;,
   0.000000;0.000000;-1.000000;,
   0.000000;0.000000;-1.000000;;
   40;
   3;0,2,1;,
   3;2,0,3;,
   3;4,6,5;,
   3;6,4,7;,
   3;8,10,9;,
   3;10,8,11;,
   3;12,14,13;,
   3;15,17,16;,
   3;18,20,19;,
   3;21,23,22;,
   3;24,2,25;,
   3;3,25,2;,
   3;26,27,4;,
   3;7,4,27;,
   3;28,30,29;,
   3;31,29,30;,
   3;32,34,33;,
   3;35,37,36;,
   3;38,40,39;,
   3;41,43,42;,
   3;1,2,44;,
   3;45,44,2;,
   3;46,48,47;,
   3;49,47,48;,
   3;50,51,8;,
   3;11,8,51;,
   3;52,54,53;,
   3;55,57,56;,
   3;58,60,59;,
   3;61,63,62;,
   3;64,2,24;,
   3;2,64,45;,
   3;47,66,65;,
   3;66,47,49;,
   3;29,68,67;,
   3;68,29,31;,
   3;69,71,70;,
   3;72,74,73;,
   3;75,77,76;,
   3;78,80,79;;
  }

  MeshTextureCoords tc0 {
   81;
   0.056325;0.045108;,
   0.056451;0.121335;,
   0.190022;0.121296;,
   0.189933;0.045108;,
   0.106155;0.743586;,
   0.664968;0.742923;,
   0.664968;0.547879;,
   0.106155;0.548431;,
   0.002990;0.546893;,
   0.307752;0.546893;,
   0.307752;0.741504;,
   0.002990;0.741504;,
   0.002795;0.446428;,
   0.604060;0.445766;,
   0.604060;0.263641;,
   0.604060;0.263641;,
   0.002795;0.264194;,
   0.002795;0.446428;,
   0.002795;0.446428;,
   0.604060;0.445766;,
   0.604060;0.263641;,
   0.604060;0.263641;,
   0.002795;0.264194;,
   0.002795;0.446428;,
   0.056451;0.121335;,
   0.056325;0.045108;,
   0.664968;0.742923;,
   0.664968;0.547879;,
   0.307752;0.546893;,
   0.002990;0.546893;,
   0.307752;0.741504;,
   0.002990;0.741504;,
   0.604060;0.445766;,
   0.002795;0.446428;,
   0.604060;0.263641;,
   0.002795;0.264194;,
   0.604060;0.263641;,
   0.002795;0.446428;,
   0.604060;0.445766;,
   0.002795;0.446428;,
   0.604060;0.263641;,
   0.002795;0.264194;,
   0.604060;0.263641;,
   0.002795;0.446428;,
   0.056325;0.045108;,
   0.189933;0.045108;,
   0.664968;0.742923;,
   0.106155;0.743586;,
   0.664968;0.547879;,
   0.106155;0.548431;,
   0.307752;0.546893;,
   0.307752;0.741504;,
   0.604060;0.445766;,
   0.002795;0.446428;,
   0.604060;0.263641;,
   0.002795;0.264194;,
   0.604060;0.263641;,
   0.002795;0.446428;,
   0.604060;0.445766;,
   0.002795;0.446428;,
   0.604060;0.263641;,
   0.002795;0.264194;,
   0.604060;0.263641;,
   0.002795;0.446428;,
   0.056325;0.045108;,
   0.664968;0.742923;,
   0.664968;0.547879;,
   0.307752;0.546893;,
   0.307752;0.741504;,
   0.002795;0.446428;,
   0.604060;0.445766;,
   0.604060;0.263641;,
   0.604060;0.263641;,
   0.002795;0.264194;,
   0.002795;0.446428;,
   0.002795;0.446428;,
   0.604060;0.445766;,
   0.604060;0.263641;,
   0.604060;0.263641;,
   0.002795;0.264194;,
   0.002795;0.446428;;
  }

  MeshMaterialList mtls {
   1;
   40;
   0,
   0,
   0,
   0,
   0,
   0,
   0,
   0,
   0,
   0,
   0,
   0,
   0,
   0,
   0,
   0,
   0,
   0,
   0,
   0,
   0,
   0,
   0,
   0,
   0,
   0,
   0,
   0,
   0,
   0,
   0,
   0,
   0,
   0,
   0,
   0,
   0,
   0,
   0,
   0;

   Material Dflt_Material {
    0.588235;0.588235;0.588235;1.000000;;
    9.999999;
    0.900000;0.900000;0.900000;;
    0.000000;0.000000;0.000000;;

    TextureFilename Diffuse {
     "buildz6.tga";
    }
   }
  }
 }
}