xof 0303txt 0032
template Frame {
 <3d82ab46-62da-11cf-ab39-0020af71e433>
 [...]
}

template Matrix4x4 {
 <f6f23f45-7686-11cf-8f52-0040333594a3>
 array FLOAT matrix[16];
}

template FrameTransformMatrix {
 <f6f23f41-7686-11cf-8f52-0040333594a3>
 Matrix4x4 frameMatrix;
}

template ObjectMatrixComment {
 <95a48e28-7ef4-4419-a16a-ba9dbdf0d2bc>
 Matrix4x4 objectMatrix;
}

template Vector {
 <3d82ab5e-62da-11cf-ab39-0020af71e433>
 FLOAT x;
 FLOAT y;
 FLOAT z;
}

template MeshFace {
 <3d82ab5f-62da-11cf-ab39-0020af71e433>
 DWORD nFaceVertexIndices;
 array DWORD faceVertexIndices[nFaceVertexIndices];
}

template Mesh {
 <3d82ab44-62da-11cf-ab39-0020af71e433>
 DWORD nVertices;
 array Vector vertices[nVertices];
 DWORD nFaces;
 array MeshFace faces[nFaces];
 [...]
}

template MeshNormals {
 <f6f23f43-7686-11cf-8f52-0040333594a3>
 DWORD nNormals;
 array Vector normals[nNormals];
 DWORD nFaceNormals;
 array MeshFace faceNormals[nFaceNormals];
}

template Coords2d {
 <f6f23f44-7686-11cf-8f52-0040333594a3>
 FLOAT u;
 FLOAT v;
}

template MeshTextureCoords {
 <f6f23f40-7686-11cf-8f52-0040333594a3>
 DWORD nTextureCoords;
 array Coords2d textureCoords[nTextureCoords];
}

template ColorRGBA {
 <35ff44e0-6c7c-11cf-8f52-0040333594a3>
 FLOAT red;
 FLOAT green;
 FLOAT blue;
 FLOAT alpha;
}

template ColorRGB {
 <d3e16e81-7835-11cf-8f52-0040333594a3>
 FLOAT red;
 FLOAT green;
 FLOAT blue;
}

template Material {
 <3d82ab4d-62da-11cf-ab39-0020af71e433>
 ColorRGBA faceColor;
 FLOAT power;
 ColorRGB specularColor;
 ColorRGB emissiveColor;
 [...]
}

template MeshMaterialList {
 <f6f23f42-7686-11cf-8f52-0040333594a3>
 DWORD nMaterials;
 DWORD nFaceIndexes;
 array DWORD faceIndexes[nFaceIndexes];
 [Material <3d82ab4d-62da-11cf-ab39-0020af71e433>]
}

template TextureFilename {
 <a42790e1-7810-11cf-8f52-0040333594a3>
 STRING filename;
}


Frame building_residential_14 {
 

 FrameTransformMatrix relative {
  1.000000,0.000000,0.000000,0.000000,0.000000,1.000000,0.000000,0.000000,0.000000,0.000000,1.000000,0.000000,0.000000,0.000000,0.000000,1.000000;;
 }

 ObjectMatrixComment object {
  1.000000,0.000000,0.000000,0.000000,0.000000,1.000000,0.000000,0.000000,0.000000,0.000000,1.000000,0.000000,0.000000,0.000000,0.000000,1.000000;;
 }

 Mesh mesh_b {
  77;
  -6.180465;24.490554;-0.087410;,
  -8.757766;21.429699;-0.085523;,
  -8.757766;21.429699;-4.499123;,
  8.757757;15.551315;-4.499122;,
  8.757757;10.031871;-4.499122;,
  8.757757;10.031870;4.499150;,
  8.757757;15.551315;4.499150;,
  8.757757;15.551315;4.499150;,
  8.757757;10.031870;4.499150;,
  -8.757766;10.031870;4.499149;,
  -8.757766;15.551315;4.499149;,
  -8.757766;15.551315;4.499149;,
  -8.757766;10.031870;4.499149;,
  -8.757766;10.031870;-4.499123;,
  -8.757766;15.551315;-4.499123;,
  -8.757766;15.551315;-4.499123;,
  -8.757766;10.031870;-4.499123;,
  8.757757;10.031871;-4.499122;,
  8.757757;15.551315;-4.499122;,
  -8.757766;21.429699;4.499149;,
  -6.180465;24.490554;-0.087410;,
  -8.757766;21.429699;-4.499123;,
  8.757757;21.429699;-4.499122;,
  6.393975;24.490554;-0.104553;,
  8.757757;21.429699;4.499150;,
  -8.757766;21.429699;4.499149;,
  8.757757;21.429699;-0.106283;,
  8.757757;21.429699;-0.106283;,
  8.757757;21.429699;-4.499122;,
  8.757757;15.551315;-4.499122;,
  8.757757;15.551315;4.499150;,
  8.757757;21.429699;4.499150;,
  8.757757;15.551315;4.499150;,
  -8.757766;15.551315;4.499149;,
  -8.757766;21.429699;4.499149;,
  8.757757;21.429699;4.499150;,
  -8.757766;21.429699;-0.085523;,
  -8.757766;21.429699;4.499149;,
  -8.757766;15.551315;4.499149;,
  -8.757766;15.551315;-4.499123;,
  -8.757766;21.429699;-4.499123;,
  -8.757766;15.551315;-4.499123;,
  8.757757;15.551315;-4.499122;,
  8.757757;21.429699;-4.499122;,
  -8.757766;21.429699;-4.499123;,
  8.757757;4.966194;4.499150;,
  8.757757;10.050906;4.499150;,
  8.757757;4.966194;-4.499122;,
  8.757757;10.050906;-4.499122;,
  -8.757766;4.966194;4.499149;,
  -8.757766;10.050906;4.499149;,
  8.757757;4.966194;4.499150;,
  8.757757;10.050906;4.499150;,
  -8.757766;4.966194;-4.499123;,
  -8.757766;10.050906;-4.499123;,
  -8.757766;4.966194;4.499149;,
  -8.757766;10.050906;4.499149;,
  8.757757;4.966194;-4.499122;,
  8.757757;10.050906;-4.499122;,
  -8.757766;4.966194;-4.499123;,
  -8.757766;10.050906;-4.499123;,
  8.757757;0.000000;-4.499122;,
  8.757757;0.000000;4.499150;,
  8.757757;4.977501;4.499150;,
  8.757757;4.977502;-4.499122;,
  8.757757;0.000000;4.499150;,
  -8.757766;0.000000;4.499149;,
  -8.757766;4.977501;4.499149;,
  8.757757;4.977501;4.499150;,
  -8.757766;0.000000;4.499149;,
  -8.757766;0.000000;-4.499123;,
  -8.757766;4.977501;-4.499123;,
  -8.757766;4.977501;4.499149;,
  -8.757766;0.000000;-4.499123;,
  8.757757;0.000000;-4.499122;,
  8.757757;4.977502;-4.499122;,
  -8.757766;4.977501;-4.499123;;
  42;
  3;0,2,1;,
  3;3,5,4;,
  3;5,3,6;,
  3;7,9,8;,
  3;9,7,10;,
  3;11,13,12;,
  3;13,11,14;,
  3;15,17,16;,
  3;17,15,18;,
  3;19,0,1;,
  3;20,22,21;,
  3;22,20,23;,
  3;24,20,25;,
  3;20,24,23;,
  3;22,23,26;,
  3;23,24,26;,
  3;27,29,28;,
  3;27,30,29;,
  3;27,31,30;,
  3;32,34,33;,
  3;34,32,35;,
  3;36,38,37;,
  3;36,39,38;,
  3;36,40,39;,
  3;41,43,42;,
  3;43,41,44;,
  3;45,47,46;,
  3;48,46,47;,
  3;49,51,50;,
  3;52,50,51;,
  3;53,55,54;,
  3;56,54,55;,
  3;57,59,58;,
  3;60,58,59;,
  3;61,63,62;,
  3;63,61,64;,
  3;65,67,66;,
  3;67,65,68;,
  3;69,71,70;,
  3;71,69,72;,
  3;73,75,74;,
  3;75,73,76;;

  MeshNormals normals {
   77;
   -0.280600;0.959793;-0.007785;,
   -0.764943;0.644098;0.000000;,
   -0.344200;0.853554;-0.391117;,
   1.000000;0.000000;0.000000;,
   1.000000;0.000000;0.000000;,
   1.000000;0.000000;0.000000;,
   1.000000;0.000000;0.000000;,
   -0.000000;0.000000;1.000000;,
   -0.000000;0.000000;1.000000;,
   -0.000000;0.000000;1.000000;,
   -0.000000;0.000000;1.000000;,
   -1.000000;0.000000;0.000000;,
   -1.000000;0.000000;0.000000;,
   -1.000000;0.000000;0.000000;,
   -1.000000;0.000000;0.000000;,
   0.000000;0.000000;-1.000000;,
   0.000000;0.000000;-1.000000;,
   0.000000;0.000000;-1.000000;,
   0.000000;0.000000;-1.000000;,
   -0.335769;0.859662;0.385021;,
   -0.280600;0.959793;-0.007785;,
   -0.344200;0.853554;-0.391117;,
   0.347814;0.846866;-0.402297;,
   0.300306;0.953793;-0.009765;,
   0.338176;0.854272;0.394787;,
   -0.335769;0.859662;0.385021;,
   0.791463;0.611217;0.000000;,
   1.000000;0.000000;0.000000;,
   1.000000;0.000000;0.000000;,
   1.000000;0.000000;0.000000;,
   1.000000;0.000000;0.000000;,
   1.000000;0.000000;0.000000;,
   -0.000000;0.000000;1.000000;,
   -0.000000;0.000000;1.000000;,
   -0.000000;0.000000;1.000000;,
   -0.000000;0.000000;1.000000;,
   -1.000000;0.000000;0.000000;,
   -1.000000;0.000000;0.000000;,
   -1.000000;0.000000;0.000000;,
   -1.000000;0.000000;0.000000;,
   -1.000000;0.000000;0.000000;,
   0.000000;0.000000;-1.000000;,
   0.000000;0.000000;-1.000000;,
   0.000000;0.000000;-1.000000;,
   0.000000;0.000000;-1.000000;,
   1.000000;0.000000;0.000000;,
   1.000000;0.000000;0.000000;,
   1.000000;0.000000;0.000000;,
   1.000000;0.000000;0.000000;,
   -0.000000;0.000000;1.000000;,
   -0.000000;0.000000;1.000000;,
   -0.000000;0.000000;1.000000;,
   -0.000000;0.000000;1.000000;,
   -1.000000;0.000000;0.000000;,
   -1.000000;0.000000;0.000000;,
   -1.000000;0.000000;0.000000;,
   -1.000000;0.000000;0.000000;,
   0.000000;0.000000;-1.000000;,
   0.000000;0.000000;-1.000000;,
   0.000000;0.000000;-1.000000;,
   0.000000;0.000000;-1.000000;,
   1.000000;0.000000;0.000000;,
   1.000000;0.000000;0.000000;,
   1.000000;0.000000;0.000000;,
   1.000000;0.000000;0.000000;,
   -0.000000;0.000000;1.000000;,
   -0.000000;0.000000;1.000000;,
   -0.000000;0.000000;1.000000;,
   -0.000000;0.000000;1.000000;,
   -1.000000;0.000000;0.000000;,
   -1.000000;0.000000;0.000000;,
   -1.000000;0.000000;0.000000;,
   -1.000000;0.000000;0.000000;,
   0.000000;0.000000;-1.000000;,
   0.000000;0.000000;-1.000000;,
   0.000000;0.000000;-1.000000;,
   0.000000;0.000000;-1.000000;;
   42;
   3;0,2,1;,
   3;3,5,4;,
   3;5,3,6;,
   3;7,9,8;,
   3;9,7,10;,
   3;11,13,12;,
   3;13,11,14;,
   3;15,17,16;,
   3;17,15,18;,
   3;19,0,1;,
   3;20,22,21;,
   3;22,20,23;,
   3;24,20,25;,
   3;20,24,23;,
   3;22,23,26;,
   3;23,24,26;,
   3;27,29,28;,
   3;27,30,29;,
   3;27,31,30;,
   3;32,34,33;,
   3;34,32,35;,
   3;36,38,37;,
   3;36,39,38;,
   3;36,40,39;,
   3;41,43,42;,
   3;43,41,44;,
   3;45,47,46;,
   3;48,46,47;,
   3;49,51,50;,
   3;52,50,51;,
   3;53,55,54;,
   3;56,54,55;,
   3;57,59,58;,
   3;60,58,59;,
   3;61,63,62;,
   3;63,61,64;,
   3;65,67,66;,
   3;67,65,68;,
   3;69,71,70;,
   3;71,69,72;,
   3;73,75,74;,
   3;75,73,76;;
  }

  MeshTextureCoords tc0 {
   77;
   0.849442;0.643104;,
   0.849420;0.663582;,
   0.901780;0.663581;,
   0.505357;0.372840;,
   0.505357;0.514872;,
   0.676545;0.514872;,
   0.676545;0.372840;,
   0.001711;0.372840;,
   0.001711;0.514872;,
   0.429221;0.514872;,
   0.429221;0.372840;,
   0.505357;0.372840;,
   0.505357;0.514872;,
   0.676545;0.514872;,
   0.676545;0.372840;,
   0.001711;0.372840;,
   0.001711;0.514872;,
   0.429221;0.514872;,
   0.429221;0.372840;,
   0.795030;0.663583;,
   0.849442;0.625601;,
   0.901780;0.645125;,
   0.901780;0.511148;,
   0.849645;0.532252;,
   0.795029;0.511149;,
   0.795030;0.645126;,
   0.849666;0.511149;,
   0.258548;0.376531;,
   0.171285;0.376531;,
   0.171285;0.519389;,
   0.349856;0.519389;,
   0.349856;0.376531;,
   0.678390;0.515698;,
   0.250881;0.515698;,
   0.250881;0.372840;,
   0.678390;0.372840;,
   0.262198;0.376531;,
   0.171285;0.376531;,
   0.171285;0.519389;,
   0.349856;0.519389;,
   0.349856;0.376531;,
   0.678390;0.515698;,
   0.250881;0.515698;,
   0.250881;0.372840;,
   0.678390;0.372840;,
   0.676545;0.654125;,
   0.676545;0.511873;,
   0.505357;0.654125;,
   0.505357;0.511873;,
   0.672853;0.654125;,
   0.672853;0.511873;,
   0.278566;0.654125;,
   0.278566;0.511873;,
   0.676545;0.654125;,
   0.676545;0.511873;,
   0.505357;0.654125;,
   0.505357;0.511873;,
   0.672853;0.654125;,
   0.672853;0.511873;,
   0.278566;0.654125;,
   0.278566;0.511873;,
   0.505357;0.654125;,
   0.676545;0.654125;,
   0.676545;0.514872;,
   0.505357;0.514872;,
   0.001711;0.654125;,
   0.438449;0.654125;,
   0.438449;0.514872;,
   0.001711;0.514872;,
   0.505357;0.654125;,
   0.676545;0.654125;,
   0.676545;0.514872;,
   0.505357;0.514872;,
   0.001711;0.654125;,
   0.438449;0.654125;,
   0.438449;0.514872;,
   0.001711;0.514872;;
  }

  MeshMaterialList mtls {
   1;
   42;
   0,
   0,
   0,
   0,
   0,
   0,
   0,
   0,
   0,
   0,
   0,
   0,
   0,
   0,
   0,
   0,
   0,
   0,
   0,
   0,
   0,
   0,
   0,
   0,
   0,
   0,
   0,
   0,
   0,
   0,
   0,
   0,
   0,
   0,
   0,
   0,
   0,
   0,
   0,
   0,
   0,
   0;

   Material Dflt_Material {
    0.588235;0.588235;0.588235;1.000000;;
    9.999999;
    0.900000;0.900000;0.900000;;
    0.000000;0.000000;0.000000;;

    TextureFilename Diffuse {
     "buildz3.tga";
    }
   }
  }
 }
}