xof 0303txt 0032
template Frame {
 <3d82ab46-62da-11cf-ab39-0020af71e433>
 [...]
}

template Matrix4x4 {
 <f6f23f45-7686-11cf-8f52-0040333594a3>
 array FLOAT matrix[16];
}

template FrameTransformMatrix {
 <f6f23f41-7686-11cf-8f52-0040333594a3>
 Matrix4x4 frameMatrix;
}

template ObjectMatrixComment {
 <95a48e28-7ef4-4419-a16a-ba9dbdf0d2bc>
 Matrix4x4 objectMatrix;
}

template Vector {
 <3d82ab5e-62da-11cf-ab39-0020af71e433>
 FLOAT x;
 FLOAT y;
 FLOAT z;
}

template MeshFace {
 <3d82ab5f-62da-11cf-ab39-0020af71e433>
 DWORD nFaceVertexIndices;
 array DWORD faceVertexIndices[nFaceVertexIndices];
}

template Mesh {
 <3d82ab44-62da-11cf-ab39-0020af71e433>
 DWORD nVertices;
 array Vector vertices[nVertices];
 DWORD nFaces;
 array MeshFace faces[nFaces];
 [...]
}

template MeshNormals {
 <f6f23f43-7686-11cf-8f52-0040333594a3>
 DWORD nNormals;
 array Vector normals[nNormals];
 DWORD nFaceNormals;
 array MeshFace faceNormals[nFaceNormals];
}

template Coords2d {
 <f6f23f44-7686-11cf-8f52-0040333594a3>
 FLOAT u;
 FLOAT v;
}

template MeshTextureCoords {
 <f6f23f40-7686-11cf-8f52-0040333594a3>
 DWORD nTextureCoords;
 array Coords2d textureCoords[nTextureCoords];
}

template ColorRGBA {
 <35ff44e0-6c7c-11cf-8f52-0040333594a3>
 FLOAT red;
 FLOAT green;
 FLOAT blue;
 FLOAT alpha;
}

template ColorRGB {
 <d3e16e81-7835-11cf-8f52-0040333594a3>
 FLOAT red;
 FLOAT green;
 FLOAT blue;
}

template Material {
 <3d82ab4d-62da-11cf-ab39-0020af71e433>
 ColorRGBA faceColor;
 FLOAT power;
 ColorRGB specularColor;
 ColorRGB emissiveColor;
 [...]
}

template MeshMaterialList {
 <f6f23f42-7686-11cf-8f52-0040333594a3>
 DWORD nMaterials;
 DWORD nFaceIndexes;
 array DWORD faceIndexes[nFaceIndexes];
 [Material <3d82ab4d-62da-11cf-ab39-0020af71e433>]
}

template TextureFilename {
 <a42790e1-7810-11cf-8f52-0040333594a3>
 STRING filename;
}


Frame building_historical_23 {
 

 FrameTransformMatrix relative {
  1.000000,0.000000,0.000000,0.000000,0.000000,1.000000,0.000000,0.000000,0.000000,0.000000,1.000000,0.000000,0.000000,0.000000,0.000000,1.000000;;
 }

 ObjectMatrixComment object {
  1.000000,0.000000,0.000000,0.000000,0.000000,1.000000,0.000000,0.000000,0.000000,0.000000,1.000000,0.000000,0.000000,0.000000,0.000000,1.000000;;
 }

 Mesh mesh_b {
  32;
  12.305330;13.031266;0.178925;,
  -12.565092;13.031266;0.178924;,
  -15.743376;9.553978;-5.190940;,
  15.743384;9.553978;-5.190938;,
  15.743384;9.553978;0.178925;,
  15.743384;0.000000;5.190936;,
  15.743384;9.553978;5.190936;,
  15.743384;0.000000;-5.190939;,
  15.743384;9.553978;-5.190938;,
  -15.743376;9.553978;5.190935;,
  15.743384;9.553978;5.190936;,
  15.743384;0.000000;5.190936;,
  -15.743379;0.000000;5.190935;,
  -15.743376;9.553978;0.178924;,
  -15.743379;0.000000;-5.190940;,
  -15.743376;9.553978;-5.190940;,
  -15.743379;0.000000;5.190935;,
  -15.743376;9.553978;5.190935;,
  15.743384;9.553978;-5.190938;,
  -15.743376;9.553978;-5.190940;,
  -15.743379;0.000000;-5.190940;,
  15.743384;0.000000;-5.190939;,
  15.743384;9.553978;5.190936;,
  -15.743376;9.553978;5.190935;,
  -15.743376;9.553978;5.190935;,
  -15.743376;9.553978;0.178924;,
  -12.565092;13.031266;0.178924;,
  -15.743376;9.553978;-5.190940;,
  15.743384;9.553978;-5.190938;,
  15.743384;9.553978;0.178925;,
  12.305330;13.031266;0.178925;,
  15.743384;9.553978;5.190936;;
  18;
  3;0,2,1;,
  3;2,0,3;,
  3;4,6,5;,
  3;7,4,5;,
  3;7,8,4;,
  3;9,11,10;,
  3;11,9,12;,
  3;13,15,14;,
  3;16,13,14;,
  3;16,17,13;,
  3;18,20,19;,
  3;20,18,21;,
  3;22,1,23;,
  3;1,22,0;,
  3;24,26,25;,
  3;26,27,25;,
  3;28,30,29;,
  3;30,31,29;;

  MeshNormals normals {
   32;
   0.244767;0.969481;0.013965;,
   -0.262892;0.964726;0.013841;,
   -0.326212;0.869804;-0.370171;,
   0.322878;0.875273;-0.360066;,
   1.000000;0.000000;0.000000;,
   1.000000;0.000000;0.000000;,
   1.000000;0.000000;0.000000;,
   1.000000;0.000000;0.000000;,
   1.000000;0.000000;0.000000;,
   -0.000000;0.000000;1.000000;,
   -0.000000;0.000000;1.000000;,
   -0.000000;0.000000;1.000000;,
   -0.000000;0.000000;1.000000;,
   -1.000000;0.000000;0.000000;,
   -1.000000;0.000000;0.000000;,
   -1.000000;0.000000;0.000000;,
   -1.000000;0.000000;0.000000;,
   -1.000000;0.000000;0.000000;,
   0.000000;0.000000;-1.000000;,
   0.000000;0.000000;-1.000000;,
   0.000000;0.000000;-1.000000;,
   0.000000;0.000000;-1.000000;,
   0.337023;0.865923;0.369584;,
   -0.340778;0.859752;0.380390;,
   -0.340778;0.859752;0.380390;,
   -0.738129;0.674659;0.000000;,
   -0.262892;0.964726;0.013841;,
   -0.326212;0.869804;-0.370171;,
   0.322878;0.875273;-0.360066;,
   0.711107;0.703084;0.000000;,
   0.244767;0.969481;0.013965;,
   0.337023;0.865923;0.369584;;
   18;
   3;0,2,1;,
   3;2,0,3;,
   3;4,6,5;,
   3;7,4,5;,
   3;7,8,4;,
   3;9,11,10;,
   3;11,9,12;,
   3;13,15,14;,
   3;16,13,14;,
   3;16,17,13;,
   3;18,20,19;,
   3;20,18,21;,
   3;22,1,23;,
   3;1,22,0;,
   3;24,26,25;,
   3;26,27,25;,
   3;28,30,29;,
   3;30,31,29;;
  }

  MeshTextureCoords tc0 {
   32;
   0.992560;0.942537;,
   0.981852;0.564008;,
   0.906162;0.515635;,
   0.906164;0.994865;,
   0.563451;0.711507;,
   0.675797;0.891869;,
   0.675797;0.711507;,
   0.444199;0.891869;,
   0.444199;0.711507;,
   0.675797;0.711507;,
   0.005448;0.711507;,
   0.005448;0.891869;,
   0.675797;0.891869;,
   0.563423;0.711507;,
   0.675797;0.891869;,
   0.675797;0.711507;,
   0.444199;0.891869;,
   0.444199;0.711507;,
   0.675797;0.711507;,
   0.005448;0.711507;,
   0.005448;0.891869;,
   0.675797;0.891869;,
   0.907048;0.994865;,
   0.907046;0.515635;,
   0.908626;0.633963;,
   0.908627;0.721832;,
   0.993396;0.723469;,
   0.908627;0.832704;,
   0.908163;0.626440;,
   0.908163;0.721093;,
   0.992932;0.722864;,
   0.908163;0.824065;;
  }

  MeshMaterialList mtls {
   1;
   18;
   0,
   0,
   0,
   0,
   0,
   0,
   0,
   0,
   0,
   0,
   0,
   0,
   0,
   0,
   0,
   0,
   0,
   0;

   Material Dflt_Material {
    0.588235;0.588235;0.588235;1.000000;;
    9.999999;
    0.900000;0.900000;0.900000;;
    0.000000;0.000000;0.000000;;

    TextureFilename Diffuse {
     "buildz3.tga";
    }
   }
  }
 }
}