xof 0303txt 0032
template Frame {
 <3d82ab46-62da-11cf-ab39-0020af71e433>
 [...]
}

template Matrix4x4 {
 <f6f23f45-7686-11cf-8f52-0040333594a3>
 array FLOAT matrix[16];
}

template FrameTransformMatrix {
 <f6f23f41-7686-11cf-8f52-0040333594a3>
 Matrix4x4 frameMatrix;
}

template ObjectMatrixComment {
 <95a48e28-7ef4-4419-a16a-ba9dbdf0d2bc>
 Matrix4x4 objectMatrix;
}

template Vector {
 <3d82ab5e-62da-11cf-ab39-0020af71e433>
 FLOAT x;
 FLOAT y;
 FLOAT z;
}

template MeshFace {
 <3d82ab5f-62da-11cf-ab39-0020af71e433>
 DWORD nFaceVertexIndices;
 array DWORD faceVertexIndices[nFaceVertexIndices];
}

template Mesh {
 <3d82ab44-62da-11cf-ab39-0020af71e433>
 DWORD nVertices;
 array Vector vertices[nVertices];
 DWORD nFaces;
 array MeshFace faces[nFaces];
 [...]
}

template MeshNormals {
 <f6f23f43-7686-11cf-8f52-0040333594a3>
 DWORD nNormals;
 array Vector normals[nNormals];
 DWORD nFaceNormals;
 array MeshFace faceNormals[nFaceNormals];
}

template Coords2d {
 <f6f23f44-7686-11cf-8f52-0040333594a3>
 FLOAT u;
 FLOAT v;
}

template MeshTextureCoords {
 <f6f23f40-7686-11cf-8f52-0040333594a3>
 DWORD nTextureCoords;
 array Coords2d textureCoords[nTextureCoords];
}

template ColorRGBA {
 <35ff44e0-6c7c-11cf-8f52-0040333594a3>
 FLOAT red;
 FLOAT green;
 FLOAT blue;
 FLOAT alpha;
}

template ColorRGB {
 <d3e16e81-7835-11cf-8f52-0040333594a3>
 FLOAT red;
 FLOAT green;
 FLOAT blue;
}

template Material {
 <3d82ab4d-62da-11cf-ab39-0020af71e433>
 ColorRGBA faceColor;
 FLOAT power;
 ColorRGB specularColor;
 ColorRGB emissiveColor;
 [...]
}

template MeshMaterialList {
 <f6f23f42-7686-11cf-8f52-0040333594a3>
 DWORD nMaterials;
 DWORD nFaceIndexes;
 array DWORD faceIndexes[nFaceIndexes];
 [Material <3d82ab4d-62da-11cf-ab39-0020af71e433>]
}

template TextureFilename {
 <a42790e1-7810-11cf-8f52-0040333594a3>
 STRING filename;
}


Frame building_historical_04 {
 

 FrameTransformMatrix relative {
  1.000000,0.000000,0.000000,0.000000,0.000000,1.000000,0.000000,0.000000,0.000000,0.000000,1.000000,0.000000,0.000000,0.000000,0.000000,1.000000;;
 }

 ObjectMatrixComment object {
  1.000000,0.000000,0.000000,0.000000,0.000000,1.000000,0.000000,0.000000,0.000000,0.000000,1.000000,0.000000,0.000000,0.000000,0.000000,1.000000;;
 }

 Mesh mesh_b {
  32;
  17.294994;18.968178;0.069199;,
  20.306885;15.011954;0.107656;,
  20.306893;15.011952;7.495336;,
  -20.288467;0.000000;7.495314;,
  -20.288459;0.000000;-7.495325;,
  -20.297683;15.011952;-7.495320;,
  -20.288459;15.011952;0.067444;,
  -20.297691;15.011952;7.495321;,
  -20.288459;0.000000;-7.495325;,
  20.306893;0.000001;-7.495304;,
  20.306893;15.011952;-7.495304;,
  -20.297683;15.011952;-7.495320;,
  20.306893;0.000001;-7.495304;,
  20.306885;0.000001;7.495336;,
  20.306893;15.011952;7.495336;,
  20.306885;15.011954;0.107656;,
  20.306893;15.011952;-7.495304;,
  20.306885;0.000001;7.495336;,
  -20.288467;0.000000;7.495314;,
  -20.297691;15.011952;7.495321;,
  20.306893;15.011952;7.495336;,
  20.306893;15.011952;-7.495304;,
  -17.295021;18.968178;0.069190;,
  17.294994;18.968178;0.069199;,
  20.306893;15.011952;7.495336;,
  -20.297691;15.011952;7.495321;,
  -20.297683;15.011952;-7.495320;,
  20.306893;15.011952;-7.495304;,
  -20.306915;15.011957;0.107645;,
  -17.295021;18.968178;0.069190;,
  -20.297691;15.011952;7.495321;,
  -20.297683;15.011952;-7.495320;;
  18;
  3;0,2,1;,
  3;3,5,4;,
  3;3,6,5;,
  3;3,7,6;,
  3;8,10,9;,
  3;10,8,11;,
  3;12,14,13;,
  3;12,15,14;,
  3;12,16,15;,
  3;17,19,18;,
  3;19,17,20;,
  3;21,0,1;,
  3;22,24,23;,
  3;24,22,25;,
  3;26,23,27;,
  3;23,26,22;,
  3;28,30,29;,
  3;28,29,31;;

  MeshNormals normals {
   32;
   0.324094;0.946020;0.003104;,
   0.795662;0.605741;-0.000000;,
   0.289590;0.888522;0.355902;,
   -1.000000;-0.000362;-0.000111;,
   -1.000000;-0.000614;-0.000001;,
   -1.000000;-0.000005;0.000610;,
   -1.000000;0.000173;0.000349;,
   -0.999999;-0.000614;-0.001243;,
   0.000000;0.000000;-1.000000;,
   0.000001;0.000000;-1.000000;,
   0.000000;0.000000;-1.000000;,
   0.000000;0.000000;-1.000000;,
   1.000000;-0.000000;0.000000;,
   1.000000;-0.000001;0.000001;,
   1.000000;0.000000;-0.000000;,
   1.000000;0.000001;-0.000000;,
   1.000000;0.000000;0.000001;,
   -0.000000;-0.000000;1.000000;,
   -0.000001;-0.000000;1.000000;,
   -0.000000;-0.000000;1.000000;,
   -0.000000;0.000000;1.000000;,
   0.285633;0.891206;-0.352371;,
   -0.324315;0.945944;0.003103;,
   0.324094;0.946020;0.003104;,
   0.289590;0.888522;0.355902;,
   -0.289468;0.888419;0.356257;,
   -0.285516;0.891108;-0.352715;,
   0.285633;0.891206;-0.352371;,
   -0.795661;0.605742;0.000018;,
   -0.324315;0.945944;0.003103;,
   -0.289468;0.888419;0.356257;,
   -0.285516;0.891108;-0.352715;;
   18;
   3;0,2,1;,
   3;3,5,4;,
   3;3,6,5;,
   3;3,7,6;,
   3;8,10,9;,
   3;10,8,11;,
   3;12,14,13;,
   3;12,15,14;,
   3;12,16,15;,
   3;17,19,18;,
   3;19,17,20;,
   3;21,0,1;,
   3;22,24,23;,
   3;24,22,25;,
   3;26,23,27;,
   3;23,26,22;,
   3;28,30,29;,
   3;28,29,31;;
  }

  MeshTextureCoords tc0 {
   32;
   0.627512;0.028362;,
   0.627546;0.009005;,
   0.649861;0.009005;,
   0.199338;0.292505;,
   0.602280;0.292505;,
   0.602280;-0.002054;,
   0.395093;-0.002054;,
   0.199338;-0.002054;,
   -0.900265;0.292505;,
   0.013647;0.292505;,
   0.013674;-0.002054;,
   -0.900265;-0.002054;,
   0.199338;0.292505;,
   0.602280;0.292505;,
   0.602280;-0.002054;,
   0.401962;-0.002054;,
   0.199338;-0.002054;,
   -0.900265;0.292505;,
   0.013647;0.292505;,
   0.013674;-0.002054;,
   -0.900265;-0.002054;,
   0.604188;0.009004;,
   1.466710;0.011623;,
   1.229103;0.011109;,
   1.210034;0.027221;,
   1.491432;0.027220;,
   1.491430;0.027520;,
   1.210033;0.027521;,
   0.627546;0.009005;,
   0.627512;0.028362;,
   0.649861;0.009005;,
   0.604188;0.009004;;
  }

  MeshMaterialList mtls {
   1;
   18;
   0,
   0,
   0,
   0,
   0,
   0,
   0,
   0,
   0,
   0,
   0,
   0,
   0,
   0,
   0,
   0,
   0,
   0;

   Material Dflt_Material {
    0.588235;0.588235;0.588235;1.000000;;
    9.999999;
    0.900000;0.900000;0.900000;;
    0.000000;0.000000;0.000000;;

    TextureFilename Diffuse {
     "buildz2.tga";
    }
   }
  }
 }
}