xof 0303txt 0032
template Frame {
 <3d82ab46-62da-11cf-ab39-0020af71e433>
 [...]
}

template Matrix4x4 {
 <f6f23f45-7686-11cf-8f52-0040333594a3>
 array FLOAT matrix[16];
}

template FrameTransformMatrix {
 <f6f23f41-7686-11cf-8f52-0040333594a3>
 Matrix4x4 frameMatrix;
}

template ObjectMatrixComment {
 <95a48e28-7ef4-4419-a16a-ba9dbdf0d2bc>
 Matrix4x4 objectMatrix;
}

template Vector {
 <3d82ab5e-62da-11cf-ab39-0020af71e433>
 FLOAT x;
 FLOAT y;
 FLOAT z;
}

template MeshFace {
 <3d82ab5f-62da-11cf-ab39-0020af71e433>
 DWORD nFaceVertexIndices;
 array DWORD faceVertexIndices[nFaceVertexIndices];
}

template Mesh {
 <3d82ab44-62da-11cf-ab39-0020af71e433>
 DWORD nVertices;
 array Vector vertices[nVertices];
 DWORD nFaces;
 array MeshFace faces[nFaces];
 [...]
}

template MeshNormals {
 <f6f23f43-7686-11cf-8f52-0040333594a3>
 DWORD nNormals;
 array Vector normals[nNormals];
 DWORD nFaceNormals;
 array MeshFace faceNormals[nFaceNormals];
}

template Coords2d {
 <f6f23f44-7686-11cf-8f52-0040333594a3>
 FLOAT u;
 FLOAT v;
}

template MeshTextureCoords {
 <f6f23f40-7686-11cf-8f52-0040333594a3>
 DWORD nTextureCoords;
 array Coords2d textureCoords[nTextureCoords];
}

template ColorRGBA {
 <35ff44e0-6c7c-11cf-8f52-0040333594a3>
 FLOAT red;
 FLOAT green;
 FLOAT blue;
 FLOAT alpha;
}

template ColorRGB {
 <d3e16e81-7835-11cf-8f52-0040333594a3>
 FLOAT red;
 FLOAT green;
 FLOAT blue;
}

template Material {
 <3d82ab4d-62da-11cf-ab39-0020af71e433>
 ColorRGBA faceColor;
 FLOAT power;
 ColorRGB specularColor;
 ColorRGB emissiveColor;
 [...]
}

template MeshMaterialList {
 <f6f23f42-7686-11cf-8f52-0040333594a3>
 DWORD nMaterials;
 DWORD nFaceIndexes;
 array DWORD faceIndexes[nFaceIndexes];
 [Material <3d82ab4d-62da-11cf-ab39-0020af71e433>]
}

template TextureFilename {
 <a42790e1-7810-11cf-8f52-0040333594a3>
 STRING filename;
}


Frame building_residential_17 {
 

 FrameTransformMatrix relative {
  1.000000,0.000000,0.000000,0.000000,0.000000,1.000000,0.000000,0.000000,0.000000,0.000000,1.000000,0.000000,0.000000,0.000000,0.000000,1.000000;;
 }

 ObjectMatrixComment object {
  1.000000,0.000000,0.000000,0.000000,0.000000,1.000000,0.000000,0.000000,0.000000,0.000000,1.000000,0.000000,0.000000,0.000000,0.000000,1.000000;;
 }

 Mesh mesh_b {
  29;
  6.180465;13.103658;0.087408;,
  8.757766;10.066666;0.085521;,
  8.757768;10.066666;4.499121;,
  -8.757756;0.000000;4.499124;,
  -8.757758;0.000000;-4.499149;,
  -8.757758;10.066666;-4.499149;,
  -8.757757;10.066666;0.106284;,
  -8.757756;10.066666;4.499124;,
  8.757766;10.066666;-4.499152;,
  -8.757758;10.066666;-4.499149;,
  -8.757758;0.000000;-4.499149;,
  8.757766;0.000000;-4.499152;,
  8.757766;0.000000;-4.499152;,
  8.757768;0.000000;4.499121;,
  8.757768;10.066666;4.499121;,
  8.757766;10.066666;0.085521;,
  8.757766;10.066666;-4.499152;,
  -8.757756;10.066666;4.499124;,
  8.757768;10.066666;4.499121;,
  8.757768;0.000000;4.499121;,
  -8.757756;0.000000;4.499124;,
  8.757766;10.066666;-4.499152;,
  -8.757756;10.066666;4.499124;,
  -6.393975;13.103658;0.104553;,
  6.180465;13.103658;0.087408;,
  8.757768;10.066666;4.499121;,
  -8.757758;10.066666;-4.499149;,
  8.757766;10.066666;-4.499152;,
  -8.757757;10.066666;0.106284;;
  18;
  3;0,2,1;,
  3;3,5,4;,
  3;3,6,5;,
  3;3,7,6;,
  3;8,10,9;,
  3;10,8,11;,
  3;12,14,13;,
  3;12,15,14;,
  3;12,16,15;,
  3;17,19,18;,
  3;19,17,20;,
  3;21,0,1;,
  3;22,24,23;,
  3;24,22,25;,
  3;24,26,23;,
  3;26,24,27;,
  3;22,23,28;,
  3;23,26,28;;

  MeshNormals normals {
   29;
   0.279418;0.960138;0.007758;,
   0.762452;0.647045;-0.000000;,
   0.342202;0.855362;0.388913;,
   -1.000000;-0.000000;0.000000;,
   -1.000000;0.000000;0.000000;,
   -1.000000;-0.000000;0.000000;,
   -1.000000;-0.000000;0.000000;,
   -1.000000;0.000000;0.000000;,
   -0.000000;0.000000;-1.000000;,
   -0.000000;0.000000;-1.000000;,
   -0.000000;0.000000;-1.000000;,
   -0.000000;0.000000;-1.000000;,
   1.000000;0.000000;-0.000000;,
   1.000000;0.000000;-0.000000;,
   1.000000;0.000000;-0.000000;,
   1.000000;0.000000;-0.000000;,
   1.000000;0.000000;-0.000000;,
   0.000000;0.000000;1.000000;,
   0.000000;0.000000;1.000000;,
   0.000000;0.000000;1.000000;,
   0.000000;0.000000;1.000000;,
   0.333791;0.861413;-0.382820;,
   -0.345817;0.848737;0.400069;,
   -0.299155;0.954155;0.009730;,
   0.279418;0.960138;0.007758;,
   0.342202;0.855362;0.388913;,
   -0.336199;0.856076;-0.392561;,
   0.333791;0.861413;-0.382820;,
   -0.789141;0.614212;0.000000;;
   18;
   3;0,2,1;,
   3;3,5,4;,
   3;3,6,5;,
   3;3,7,6;,
   3;8,10,9;,
   3;10,8,11;,
   3;12,14,13;,
   3;12,15,14;,
   3;12,16,15;,
   3;17,19,18;,
   3;19,17,20;,
   3;21,0,1;,
   3;22,24,23;,
   3;24,22,25;,
   3;24,26,23;,
   3;26,24,27;,
   3;22,23,28;,
   3;23,26,28;;
  }

  MeshTextureCoords tc0 {
   29;
   0.849442;0.643104;,
   0.849420;0.663582;,
   0.901780;0.663581;,
   0.505357;0.654125;,
   0.676545;0.654125;,
   0.676545;0.372840;,
   0.588928;0.372840;,
   0.505357;0.372840;,
   0.429221;0.372840;,
   0.001711;0.372840;,
   0.001711;0.654125;,
   0.429221;0.654125;,
   0.505357;0.654125;,
   0.676545;0.654125;,
   0.676545;0.372840;,
   0.592578;0.372840;,
   0.505357;0.372840;,
   0.429221;0.372840;,
   0.001711;0.372840;,
   0.001711;0.654125;,
   0.429221;0.654125;,
   0.795030;0.663583;,
   0.901780;0.511148;,
   0.849645;0.532252;,
   0.849442;0.625601;,
   0.901780;0.645125;,
   0.795029;0.511149;,
   0.795030;0.645126;,
   0.849666;0.511149;;
  }

  MeshMaterialList mtls {
   1;
   18;
   0,
   0,
   0,
   0,
   0,
   0,
   0,
   0,
   0,
   0,
   0,
   0,
   0,
   0,
   0,
   0,
   0,
   0;

   Material Dflt_Material {
    0.588235;0.588235;0.588235;1.000000;;
    9.999999;
    0.900000;0.900000;0.900000;;
    0.000000;0.000000;0.000000;;

    TextureFilename Diffuse {
     "buildz3.tga";
    }
   }
  }
 }
}