xof 0303txt 0032
template Frame {
 <3d82ab46-62da-11cf-ab39-0020af71e433>
 [...]
}

template Matrix4x4 {
 <f6f23f45-7686-11cf-8f52-0040333594a3>
 array FLOAT matrix[16];
}

template FrameTransformMatrix {
 <f6f23f41-7686-11cf-8f52-0040333594a3>
 Matrix4x4 frameMatrix;
}

template ObjectMatrixComment {
 <95a48e28-7ef4-4419-a16a-ba9dbdf0d2bc>
 Matrix4x4 objectMatrix;
}

template Vector {
 <3d82ab5e-62da-11cf-ab39-0020af71e433>
 FLOAT x;
 FLOAT y;
 FLOAT z;
}

template MeshFace {
 <3d82ab5f-62da-11cf-ab39-0020af71e433>
 DWORD nFaceVertexIndices;
 array DWORD faceVertexIndices[nFaceVertexIndices];
}

template Mesh {
 <3d82ab44-62da-11cf-ab39-0020af71e433>
 DWORD nVertices;
 array Vector vertices[nVertices];
 DWORD nFaces;
 array MeshFace faces[nFaces];
 [...]
}

template MeshNormals {
 <f6f23f43-7686-11cf-8f52-0040333594a3>
 DWORD nNormals;
 array Vector normals[nNormals];
 DWORD nFaceNormals;
 array MeshFace faceNormals[nFaceNormals];
}

template Coords2d {
 <f6f23f44-7686-11cf-8f52-0040333594a3>
 FLOAT u;
 FLOAT v;
}

template MeshTextureCoords {
 <f6f23f40-7686-11cf-8f52-0040333594a3>
 DWORD nTextureCoords;
 array Coords2d textureCoords[nTextureCoords];
}

template ColorRGBA {
 <35ff44e0-6c7c-11cf-8f52-0040333594a3>
 FLOAT red;
 FLOAT green;
 FLOAT blue;
 FLOAT alpha;
}

template ColorRGB {
 <d3e16e81-7835-11cf-8f52-0040333594a3>
 FLOAT red;
 FLOAT green;
 FLOAT blue;
}

template Material {
 <3d82ab4d-62da-11cf-ab39-0020af71e433>
 ColorRGBA faceColor;
 FLOAT power;
 ColorRGB specularColor;
 ColorRGB emissiveColor;
 [...]
}

template MeshMaterialList {
 <f6f23f42-7686-11cf-8f52-0040333594a3>
 DWORD nMaterials;
 DWORD nFaceIndexes;
 array DWORD faceIndexes[nFaceIndexes];
 [Material <3d82ab4d-62da-11cf-ab39-0020af71e433>]
}

template TextureFilename {
 <a42790e1-7810-11cf-8f52-0040333594a3>
 STRING filename;
}


Frame building_historical_20 {
 

 FrameTransformMatrix relative {
  1.000000,0.000000,0.000000,0.000000,0.000000,1.000000,0.000000,0.000000,0.000000,0.000000,1.000000,0.000000,0.000000,0.000000,0.000000,1.000000;;
 }

 ObjectMatrixComment object {
  1.000000,0.000000,0.000000,0.000000,0.000000,1.000000,0.000000,0.000000,0.000000,0.000000,1.000000,0.000000,0.000000,0.000000,0.000000,1.000000;;
 }

 Mesh mesh_b {
  40;
  9.150706;0.000000;4.720314;,
  -9.156873;0.000000;4.713249;,
  -9.156873;7.418776;4.713249;,
  9.156871;7.418775;4.716784;,
  9.156873;11.670678;0.074252;,
  -9.156872;11.670678;0.325454;,
  9.156874;8.978235;-4.719982;,
  -9.156873;8.978235;4.713249;,
  9.150708;0.000000;-4.719636;,
  9.150706;0.000000;4.720314;,
  9.156871;7.418775;4.716784;,
  9.156873;7.418775;-4.719982;,
  -9.156873;7.418776;4.713249;,
  -9.156872;11.670678;0.325454;,
  -9.156873;8.978235;4.713249;,
  -9.156871;7.418776;-4.720332;,
  -9.156871;0.000000;-4.720332;,
  9.150708;0.000000;-4.719636;,
  9.156873;7.418775;-4.719982;,
  -9.156871;7.418776;-4.720332;,
  9.156871;7.418775;4.716784;,
  -9.156873;7.418776;4.713249;,
  -9.156873;8.978235;4.713249;,
  9.156872;8.978235;4.716784;,
  -9.156871;7.418776;-4.720332;,
  -9.156873;7.418776;4.713249;,
  -9.156873;0.000000;4.713249;,
  -9.156871;0.000000;-4.720332;,
  -9.156871;7.418776;-4.720332;,
  9.156873;7.418775;-4.719982;,
  9.156874;8.978235;-4.719982;,
  -9.156871;8.978235;-4.720332;,
  9.156872;8.978235;4.716784;,
  -9.156871;8.978235;-4.720332;,
  -9.156871;8.978235;-4.720332;,
  9.156873;7.418775;-4.719982;,
  9.156873;11.670678;0.074252;,
  9.156874;8.978235;-4.719982;,
  9.156871;7.418775;4.716784;,
  9.156872;8.978235;4.716784;;
  22;
  3;0,2,1;,
  3;2,0,3;,
  3;4,6,5;,
  3;5,7,4;,
  3;8,10,9;,
  3;10,8,11;,
  3;12,14,13;,
  3;13,15,12;,
  3;16,18,17;,
  3;18,16,19;,
  3;20,22,21;,
  3;22,20,23;,
  3;24,26,25;,
  3;26,24,27;,
  3;28,30,29;,
  3;30,28,31;,
  3;4,7,32;,
  3;15,13,33;,
  3;5,6,34;,
  3;35,37,36;,
  3;36,38,35;,
  3;38,36,39;;

  MeshNormals normals {
   40;
   -0.000240;0.000359;1.000000;,
   -0.000386;0.000000;1.000000;,
   -0.000266;0.000058;1.000000;,
   -0.000193;0.000238;1.000000;,
   -0.003228;0.999983;0.004754;,
   0.003457;0.999468;0.032441;,
   -0.005421;0.873922;-0.486035;,
   0.005855;0.854661;0.519153;,
   1.000000;-0.000831;0.000000;,
   1.000000;-0.000831;0.000000;,
   1.000000;-0.000416;0.000000;,
   1.000000;-0.000416;0.000000;,
   -1.000000;0.000000;-0.000000;,
   -1.000000;0.000000;-0.000000;,
   -1.000000;0.000000;-0.000000;,
   -1.000000;0.000000;-0.000000;,
   0.000024;-0.000011;-1.000000;,
   0.000038;-0.000047;-1.000000;,
   0.000026;-0.000018;-1.000000;,
   0.000019;-0.000000;-1.000000;,
   -0.000193;0.000238;1.000000;,
   -0.000266;0.000058;1.000000;,
   -0.000193;0.000000;1.000000;,
   -0.000193;0.000000;1.000000;,
   -1.000000;0.000000;-0.000000;,
   -1.000000;0.000000;-0.000000;,
   -1.000000;0.000000;-0.000000;,
   -1.000000;0.000000;-0.000000;,
   0.000019;-0.000000;-1.000000;,
   0.000026;-0.000018;-1.000000;,
   0.000019;-0.000000;-1.000000;,
   0.000019;0.000000;-1.000000;,
   -0.000097;0.865050;0.501687;,
   -1.000000;0.000000;-0.000000;,
   0.000009;0.882254;-0.470773;,
   1.000000;-0.000416;0.000000;,
   1.000000;-0.000000;0.000000;,
   1.000000;-0.000001;0.000001;,
   1.000000;-0.000416;0.000000;,
   1.000000;-0.000001;-0.000000;;
   22;
   3;0,2,1;,
   3;2,0,3;,
   3;4,6,5;,
   3;5,7,4;,
   3;8,10,9;,
   3;10,8,11;,
   3;12,14,13;,
   3;13,15,12;,
   3;16,18,17;,
   3;18,16,19;,
   3;20,22,21;,
   3;22,20,23;,
   3;24,26,25;,
   3;26,24,27;,
   3;28,30,29;,
   3;30,28,31;,
   3;4,7,32;,
   3;15,13,33;,
   3;5,6,34;,
   3;35,37,36;,
   3;36,38,35;,
   3;38,36,39;;
  }

  MeshTextureCoords tc0 {
   40;
   -0.009646;1.001377;,
   0.448928;1.001377;,
   0.448928;0.818725;,
   -0.009646;0.818725;,
   -0.253204;0.411089;,
   -0.253405;0.565393;,
   -0.195061;0.411089;,
   -0.195061;0.565393;,
   0.997002;1.001377;,
   1.233536;1.001377;,
   1.233536;0.818725;,
   0.997002;0.818725;,
   0.425733;0.589025;,
   0.501032;0.524123;,
   0.425733;0.563393;,
   0.587623;0.589024;,
   0.454981;1.001377;,
   0.001428;1.001377;,
   0.001428;0.818725;,
   0.454981;0.818725;,
   0.076615;0.601763;,
   0.442141;0.601763;,
   0.442141;0.565623;,
   0.076615;0.565623;,
   0.997002;0.818725;,
   1.233536;0.818725;,
   1.233536;1.001377;,
   0.997002;1.001377;,
   0.448194;0.601763;,
   0.087689;0.601763;,
   0.087689;0.565623;,
   0.448194;0.565623;,
   -0.195061;0.411089;,
   0.587624;0.563392;,
   -0.195061;0.565393;,
   0.425733;0.589025;,
   0.501032;0.524123;,
   0.425733;0.563393;,
   0.587623;0.589024;,
   0.587624;0.563392;;
  }

  MeshMaterialList mtls {
   1;
   22;
   0,
   0,
   0,
   0,
   0,
   0,
   0,
   0,
   0,
   0,
   0,
   0,
   0,
   0,
   0,
   0,
   0,
   0,
   0,
   0,
   0,
   0;

   Material Dflt_Material {
    0.588235;0.588235;0.588235;1.000000;;
    9.999999;
    0.900000;0.900000;0.900000;;
    0.000000;0.000000;0.000000;;

    TextureFilename Diffuse {
     "buildz2.tga";
    }
   }
  }
 }
}