xof 0303txt 0032
template Frame {
 <3d82ab46-62da-11cf-ab39-0020af71e433>
 [...]
}

template Matrix4x4 {
 <f6f23f45-7686-11cf-8f52-0040333594a3>
 array FLOAT matrix[16];
}

template FrameTransformMatrix {
 <f6f23f41-7686-11cf-8f52-0040333594a3>
 Matrix4x4 frameMatrix;
}

template ObjectMatrixComment {
 <95a48e28-7ef4-4419-a16a-ba9dbdf0d2bc>
 Matrix4x4 objectMatrix;
}

template Vector {
 <3d82ab5e-62da-11cf-ab39-0020af71e433>
 FLOAT x;
 FLOAT y;
 FLOAT z;
}

template MeshFace {
 <3d82ab5f-62da-11cf-ab39-0020af71e433>
 DWORD nFaceVertexIndices;
 array DWORD faceVertexIndices[nFaceVertexIndices];
}

template Mesh {
 <3d82ab44-62da-11cf-ab39-0020af71e433>
 DWORD nVertices;
 array Vector vertices[nVertices];
 DWORD nFaces;
 array MeshFace faces[nFaces];
 [...]
}

template MeshNormals {
 <f6f23f43-7686-11cf-8f52-0040333594a3>
 DWORD nNormals;
 array Vector normals[nNormals];
 DWORD nFaceNormals;
 array MeshFace faceNormals[nFaceNormals];
}

template Coords2d {
 <f6f23f44-7686-11cf-8f52-0040333594a3>
 FLOAT u;
 FLOAT v;
}

template MeshTextureCoords {
 <f6f23f40-7686-11cf-8f52-0040333594a3>
 DWORD nTextureCoords;
 array Coords2d textureCoords[nTextureCoords];
}

template ColorRGBA {
 <35ff44e0-6c7c-11cf-8f52-0040333594a3>
 FLOAT red;
 FLOAT green;
 FLOAT blue;
 FLOAT alpha;
}

template ColorRGB {
 <d3e16e81-7835-11cf-8f52-0040333594a3>
 FLOAT red;
 FLOAT green;
 FLOAT blue;
}

template Material {
 <3d82ab4d-62da-11cf-ab39-0020af71e433>
 ColorRGBA faceColor;
 FLOAT power;
 ColorRGB specularColor;
 ColorRGB emissiveColor;
 [...]
}

template MeshMaterialList {
 <f6f23f42-7686-11cf-8f52-0040333594a3>
 DWORD nMaterials;
 DWORD nFaceIndexes;
 array DWORD faceIndexes[nFaceIndexes];
 [Material <3d82ab4d-62da-11cf-ab39-0020af71e433>]
}

template TextureFilename {
 <a42790e1-7810-11cf-8f52-0040333594a3>
 STRING filename;
}


Frame building_commercial_17 {
 

 FrameTransformMatrix relative {
  1.000000,0.000000,0.000000,0.000000,0.000000,1.000000,0.000000,0.000000,0.000000,0.000000,1.000000,0.000000,0.000000,0.000000,0.000000,1.000000;;
 }

 ObjectMatrixComment object {
  1.000000,0.000000,0.000000,0.000000,0.000000,1.000000,0.000000,0.000000,0.000000,0.000000,1.000000,0.000000,0.000000,0.000000,0.000000,1.000000;;
 }

 Mesh mesh_b {
  30;
  26.063944;17.970896;-5.190365;,
  26.063946;17.970896;5.190337;,
  -0.000004;17.970896;-5.190362;,
  -0.000005;17.970896;5.190340;,
  -0.000005;17.970896;5.190340;,
  26.063946;17.970896;5.190337;,
  -0.000005;-0.000000;5.190340;,
  26.063946;-0.000000;5.190337;,
  26.063946;17.970896;5.190337;,
  26.063944;17.970896;-5.190365;,
  26.063946;-0.000000;5.190337;,
  26.063944;-0.000000;-5.190365;,
  26.063944;17.970896;-5.190365;,
  -0.000004;17.970896;-5.190362;,
  26.063944;-0.000000;-5.190365;,
  -0.000004;-0.000000;-5.190362;,
  -26.063957;17.970896;5.190334;,
  -26.063955;17.970896;-5.190367;,
  -26.063955;17.970896;-5.190367;,
  -26.063957;17.970896;5.190334;,
  -26.063957;-0.000000;5.190334;,
  -26.063955;-0.000000;-5.190367;,
  -0.000004;17.970896;-5.190362;,
  -26.063955;17.970896;-5.190367;,
  -26.063955;-0.000000;-5.190367;,
  -0.000004;-0.000000;-5.190362;,
  -26.063957;17.970896;5.190334;,
  -0.000005;17.970896;5.190340;,
  -0.000005;-0.000000;5.190340;,
  -26.063957;-0.000000;5.190334;;
  16;
  3;0,2,1;,
  3;3,1,2;,
  3;4,6,5;,
  3;7,5,6;,
  3;8,10,9;,
  3;11,9,10;,
  3;12,14,13;,
  3;15,13,14;,
  3;2,16,3;,
  3;16,2,17;,
  3;18,20,19;,
  3;20,18,21;,
  3;22,24,23;,
  3;24,22,25;,
  3;26,28,27;,
  3;28,26,29;;

  MeshNormals normals {
   30;
   0.000000;1.000000;0.000000;,
   0.000000;1.000000;0.000000;,
   0.000000;1.000000;0.000000;,
   0.000000;1.000000;0.000000;,
   0.000000;0.000000;1.000000;,
   0.000000;0.000000;1.000000;,
   0.000000;0.000000;1.000000;,
   0.000000;0.000000;1.000000;,
   1.000000;0.000000;-0.000000;,
   1.000000;0.000000;-0.000000;,
   1.000000;0.000000;-0.000000;,
   1.000000;0.000000;-0.000000;,
   -0.000000;0.000000;-1.000000;,
   -0.000000;0.000000;-1.000000;,
   -0.000000;0.000000;-1.000000;,
   -0.000000;0.000000;-1.000000;,
   0.000000;1.000000;0.000000;,
   0.000000;1.000000;0.000000;,
   -1.000000;0.000000;-0.000000;,
   -1.000000;0.000000;-0.000000;,
   -1.000000;0.000000;-0.000000;,
   -1.000000;0.000000;-0.000000;,
   0.000000;0.000000;-1.000000;,
   0.000000;0.000000;-1.000000;,
   0.000000;0.000000;-1.000000;,
   0.000000;0.000000;-1.000000;,
   -0.000000;0.000000;1.000000;,
   -0.000000;0.000000;1.000000;,
   -0.000000;0.000000;1.000000;,
   -0.000000;0.000000;1.000000;;
   16;
   3;0,2,1;,
   3;3,1,2;,
   3;4,6,5;,
   3;7,5,6;,
   3;8,10,9;,
   3;11,9,10;,
   3;12,14,13;,
   3;15,13,14;,
   3;2,16,3;,
   3;16,2,17;,
   3;18,20,19;,
   3;20,18,21;,
   3;22,24,23;,
   3;24,22,25;,
   3;26,28,27;,
   3;28,26,29;;
  }

  MeshTextureCoords tc0 {
   30;
   0.882923;0.445347;,
   0.882924;0.538625;,
   0.762712;0.445347;,
   0.762713;0.538625;,
   0.603322;0.551480;,
   0.995800;0.551480;,
   0.603322;1.000000;,
   0.995800;1.000000;,
   0.782910;0.551480;,
   0.995800;0.551480;,
   0.782910;1.000000;,
   0.995800;1.000000;,
   0.995800;0.551480;,
   0.603322;0.551480;,
   0.995800;1.000000;,
   0.603322;1.000000;,
   0.882924;0.538625;,
   0.882923;0.445347;,
   0.995800;0.551480;,
   0.782910;0.551480;,
   0.782910;1.000000;,
   0.995800;1.000000;,
   0.603322;0.551480;,
   0.995800;0.551480;,
   0.995800;1.000000;,
   0.603322;1.000000;,
   0.995800;0.551480;,
   0.603322;0.551480;,
   0.603322;1.000000;,
   0.995800;1.000000;;
  }

  MeshMaterialList mtls {
   1;
   16;
   0,
   0,
   0,
   0,
   0,
   0,
   0,
   0,
   0,
   0,
   0,
   0,
   0,
   0,
   0,
   0;

   Material Dflt_Material {
    0.588235;0.588235;0.588235;1.000000;;
    9.999999;
    0.900000;0.900000;0.900000;;
    0.000000;0.000000;0.000000;;

    TextureFilename Diffuse {
     "buildz1.tga";
    }
   }
  }
 }
}