xof 0303txt 0032
template Frame {
 <3d82ab46-62da-11cf-ab39-0020af71e433>
 [...]
}

template Matrix4x4 {
 <f6f23f45-7686-11cf-8f52-0040333594a3>
 array FLOAT matrix[16];
}

template FrameTransformMatrix {
 <f6f23f41-7686-11cf-8f52-0040333594a3>
 Matrix4x4 frameMatrix;
}

template ObjectMatrixComment {
 <95a48e28-7ef4-4419-a16a-ba9dbdf0d2bc>
 Matrix4x4 objectMatrix;
}

template Vector {
 <3d82ab5e-62da-11cf-ab39-0020af71e433>
 FLOAT x;
 FLOAT y;
 FLOAT z;
}

template MeshFace {
 <3d82ab5f-62da-11cf-ab39-0020af71e433>
 DWORD nFaceVertexIndices;
 array DWORD faceVertexIndices[nFaceVertexIndices];
}

template Mesh {
 <3d82ab44-62da-11cf-ab39-0020af71e433>
 DWORD nVertices;
 array Vector vertices[nVertices];
 DWORD nFaces;
 array MeshFace faces[nFaces];
 [...]
}

template MeshNormals {
 <f6f23f43-7686-11cf-8f52-0040333594a3>
 DWORD nNormals;
 array Vector normals[nNormals];
 DWORD nFaceNormals;
 array MeshFace faceNormals[nFaceNormals];
}

template Coords2d {
 <f6f23f44-7686-11cf-8f52-0040333594a3>
 FLOAT u;
 FLOAT v;
}

template MeshTextureCoords {
 <f6f23f40-7686-11cf-8f52-0040333594a3>
 DWORD nTextureCoords;
 array Coords2d textureCoords[nTextureCoords];
}

template ColorRGBA {
 <35ff44e0-6c7c-11cf-8f52-0040333594a3>
 FLOAT red;
 FLOAT green;
 FLOAT blue;
 FLOAT alpha;
}

template ColorRGB {
 <d3e16e81-7835-11cf-8f52-0040333594a3>
 FLOAT red;
 FLOAT green;
 FLOAT blue;
}

template Material {
 <3d82ab4d-62da-11cf-ab39-0020af71e433>
 ColorRGBA faceColor;
 FLOAT power;
 ColorRGB specularColor;
 ColorRGB emissiveColor;
 [...]
}

template MeshMaterialList {
 <f6f23f42-7686-11cf-8f52-0040333594a3>
 DWORD nMaterials;
 DWORD nFaceIndexes;
 array DWORD faceIndexes[nFaceIndexes];
 [Material <3d82ab4d-62da-11cf-ab39-0020af71e433>]
}

template TextureFilename {
 <a42790e1-7810-11cf-8f52-0040333594a3>
 STRING filename;
}


Frame building_industrial_13 {
 

 FrameTransformMatrix relative {
  1.000000,0.000000,0.000000,0.000000,0.000000,1.000000,0.000000,0.000000,0.000000,0.000000,1.000000,0.000000,0.000000,0.000000,0.000000,1.000000;;
 }

 ObjectMatrixComment object {
  1.000000,0.000000,0.000000,0.000000,0.000000,1.000000,0.000000,0.000000,0.000000,0.000000,1.000000,0.000000,0.000000,0.000000,0.000000,1.000000;;
 }

 Mesh mesh_b {
  26;
  -9.577239;8.759845;-8.707442;,
  9.577256;8.759845;-8.707438;,
  9.577255;8.759845;-0.000004;,
  -9.577240;8.759845;-0.000005;,
  -9.577240;0.000000;-0.000004;,
  -9.577239;0.000000;-8.707442;,
  -9.577239;8.759845;-8.707442;,
  -9.577240;8.759845;-0.000005;,
  9.577256;8.759845;-8.707438;,
  -9.577239;8.759845;-8.707442;,
  -9.577239;0.000000;-8.707442;,
  9.577257;0.000000;-8.707438;,
  9.577257;0.000000;-8.707438;,
  9.577255;0.000000;-0.000004;,
  9.577255;8.759845;-0.000004;,
  9.577256;8.759845;-8.707438;,
  9.577257;8.759845;8.707432;,
  -9.577238;8.759845;8.707433;,
  -9.577238;0.000000;8.707433;,
  -9.577238;8.759845;8.707433;,
  -9.577238;8.759845;8.707433;,
  9.577257;8.759845;8.707432;,
  -9.577238;0.000000;8.707433;,
  9.577257;0.000000;8.707432;,
  9.577257;0.000000;8.707432;,
  9.577257;8.759845;8.707432;;
  16;
  3;0,2,1;,
  3;2,0,3;,
  3;4,6,5;,
  3;6,4,7;,
  3;8,10,9;,
  3;10,8,11;,
  3;12,14,13;,
  3;14,12,15;,
  3;16,2,17;,
  3;3,17,2;,
  3;18,19,4;,
  3;7,4,19;,
  3;20,22,21;,
  3;23,21,22;,
  3;13,14,24;,
  3;25,24,14;;

  MeshNormals normals {
   26;
   0.000000;1.000000;0.000000;,
   0.000000;1.000000;0.000000;,
   0.000000;1.000000;0.000000;,
   0.000000;1.000000;0.000000;,
   -1.000000;0.000000;0.000000;,
   -1.000000;0.000000;-0.000000;,
   -1.000000;-0.000000;-0.000000;,
   -1.000000;0.000000;0.000000;,
   0.000000;0.000000;-1.000000;,
   0.000000;0.000000;-1.000000;,
   0.000000;0.000000;-1.000000;,
   0.000000;0.000000;-1.000000;,
   1.000000;0.000000;0.000000;,
   1.000000;0.000000;0.000000;,
   1.000000;0.000000;-0.000000;,
   1.000000;0.000000;0.000000;,
   0.000000;1.000000;0.000000;,
   0.000000;1.000000;0.000000;,
   -1.000000;0.000000;0.000000;,
   -1.000000;0.000000;0.000000;,
   0.000000;0.000000;1.000000;,
   0.000000;0.000000;1.000000;,
   0.000000;0.000000;1.000000;,
   0.000000;0.000000;1.000000;,
   1.000000;0.000000;-0.000000;,
   1.000000;0.000000;-0.000000;;
   16;
   3;0,2,1;,
   3;2,0,3;,
   3;4,6,5;,
   3;6,4,7;,
   3;8,10,9;,
   3;10,8,11;,
   3;12,14,13;,
   3;14,12,15;,
   3;16,2,17;,
   3;3,17,2;,
   3;18,19,4;,
   3;7,4,19;,
   3;20,22,21;,
   3;23,21,22;,
   3;13,14,24;,
   3;25,24,14;;
  }

  MeshTextureCoords tc0 {
   26;
   0.171720;0.699938;,
   0.171633;0.572243;,
   0.084148;0.572243;,
   0.084248;0.699938;,
   0.211520;0.695588;,
   0.408258;0.694937;,
   0.408258;0.402587;,
   0.211520;0.403239;,
   0.437277;0.402587;,
   0.006555;0.402587;,
   0.006555;0.694937;,
   0.437277;0.694937;,
   0.269830;0.695588;,
   0.073093;0.694937;,
   0.073093;0.402587;,
   0.269830;0.403239;,
   0.171633;0.572243;,
   0.171720;0.699938;,
   0.408258;0.694937;,
   0.408258;0.402587;,
   0.006555;0.402587;,
   0.437277;0.402587;,
   0.006555;0.694937;,
   0.437277;0.694937;,
   0.269830;0.695588;,
   0.269830;0.403239;;
  }

  MeshMaterialList mtls {
   1;
   16;
   0,
   0,
   0,
   0,
   0,
   0,
   0,
   0,
   0,
   0,
   0,
   0,
   0,
   0,
   0,
   0;

   Material Dflt_Material {
    0.588235;0.588235;0.588235;1.000000;;
    9.999999;
    0.900000;0.900000;0.900000;;
    0.000000;0.000000;0.000000;;

    TextureFilename Diffuse {
     "buildz5.tga";
    }
   }
  }
 }
}