xof 0303txt 0032
template Frame {
 <3d82ab46-62da-11cf-ab39-0020af71e433>
 [...]
}

template Matrix4x4 {
 <f6f23f45-7686-11cf-8f52-0040333594a3>
 array FLOAT matrix[16];
}

template FrameTransformMatrix {
 <f6f23f41-7686-11cf-8f52-0040333594a3>
 Matrix4x4 frameMatrix;
}

template ObjectMatrixComment {
 <95a48e28-7ef4-4419-a16a-ba9dbdf0d2bc>
 Matrix4x4 objectMatrix;
}

template Vector {
 <3d82ab5e-62da-11cf-ab39-0020af71e433>
 FLOAT x;
 FLOAT y;
 FLOAT z;
}

template MeshFace {
 <3d82ab5f-62da-11cf-ab39-0020af71e433>
 DWORD nFaceVertexIndices;
 array DWORD faceVertexIndices[nFaceVertexIndices];
}

template Mesh {
 <3d82ab44-62da-11cf-ab39-0020af71e433>
 DWORD nVertices;
 array Vector vertices[nVertices];
 DWORD nFaces;
 array MeshFace faces[nFaces];
 [...]
}

template MeshNormals {
 <f6f23f43-7686-11cf-8f52-0040333594a3>
 DWORD nNormals;
 array Vector normals[nNormals];
 DWORD nFaceNormals;
 array MeshFace faceNormals[nFaceNormals];
}

template Coords2d {
 <f6f23f44-7686-11cf-8f52-0040333594a3>
 FLOAT u;
 FLOAT v;
}

template MeshTextureCoords {
 <f6f23f40-7686-11cf-8f52-0040333594a3>
 DWORD nTextureCoords;
 array Coords2d textureCoords[nTextureCoords];
}

template ColorRGBA {
 <35ff44e0-6c7c-11cf-8f52-0040333594a3>
 FLOAT red;
 FLOAT green;
 FLOAT blue;
 FLOAT alpha;
}

template ColorRGB {
 <d3e16e81-7835-11cf-8f52-0040333594a3>
 FLOAT red;
 FLOAT green;
 FLOAT blue;
}

template Material {
 <3d82ab4d-62da-11cf-ab39-0020af71e433>
 ColorRGBA faceColor;
 FLOAT power;
 ColorRGB specularColor;
 ColorRGB emissiveColor;
 [...]
}

template MeshMaterialList {
 <f6f23f42-7686-11cf-8f52-0040333594a3>
 DWORD nMaterials;
 DWORD nFaceIndexes;
 array DWORD faceIndexes[nFaceIndexes];
 [Material <3d82ab4d-62da-11cf-ab39-0020af71e433>]
}

template TextureFilename {
 <a42790e1-7810-11cf-8f52-0040333594a3>
 STRING filename;
}


Frame building_commercial_19 {
 

 FrameTransformMatrix relative {
  1.000000,0.000000,0.000000,0.000000,0.000000,1.000000,0.000000,0.000000,0.000000,0.000000,1.000000,0.000000,0.000000,0.000000,0.000000,1.000000;;
 }

 ObjectMatrixComment object {
  1.000000,0.000000,0.000000,0.000000,0.000000,1.000000,0.000000,0.000000,0.000000,0.000000,1.000000,0.000000,0.000000,0.000000,0.000000,1.000000;;
 }

 Mesh mesh_b {
  50;
  8.430932;18.356501;-5.344949;,
  8.472422;18.356501;5.285845;,
  -8.223280;18.356501;5.340761;,
  -8.223277;18.356501;-5.344949;,
  -8.223277;18.356501;-5.344949;,
  -8.223280;18.356501;5.340761;,
  -8.223280;5.012792;5.340761;,
  -8.223277;5.012794;-5.344949;,
  8.430932;18.356501;-5.344949;,
  -8.223277;18.356501;-5.344949;,
  -8.223277;5.012794;-5.344949;,
  8.430932;5.012794;-5.344944;,
  -8.223280;18.356501;5.340761;,
  8.472422;18.356501;5.285845;,
  8.383451;5.011493;5.327776;,
  -8.223280;5.012792;5.340761;,
  8.383451;5.011493;5.327776;,
  8.472422;18.356501;5.285845;,
  8.430932;18.356501;-5.344949;,
  8.430932;5.012794;-5.344944;,
  4.328938;5.015368;-6.892290;,
  9.612330;5.015368;6.821453;,
  -9.612345;5.015368;6.892294;,
  -9.612330;5.015368;-6.892290;,
  -4.010845;5.015368;-6.892290;,
  9.563912;0.000000;-6.892283;,
  9.585482;0.000000;6.835443;,
  9.612330;5.015368;6.821453;,
  9.563912;5.015368;-6.892289;,
  -9.612330;5.015368;-6.892290;,
  -9.612345;5.015368;6.892294;,
  -9.612345;0.000000;6.892294;,
  -9.612330;0.000000;-6.892290;,
  -4.010845;5.015368;-6.892290;,
  -9.612330;5.015368;-6.892290;,
  -9.612330;0.000000;-6.892290;,
  4.248438;0.000000;-6.892286;,
  9.563912;0.000000;-6.892283;,
  9.563912;5.015368;-6.892289;,
  -9.612345;5.015368;6.892294;,
  9.612330;5.015368;6.821453;,
  9.585482;0.000000;6.835443;,
  -9.612345;0.000000;6.892294;,
  -4.116940;0.000000;-6.892288;,
  4.328938;5.015368;-6.892290;,
  -4.010845;5.015368;-6.892290;,
  9.563912;5.015368;-6.892289;,
  4.248438;0.000000;-6.892286;,
  -4.116940;0.000000;-6.892288;,
  4.328938;5.015368;-6.892290;;
  26;
  3;0,2,1;,
  3;2,0,3;,
  3;4,6,5;,
  3;6,4,7;,
  3;8,10,9;,
  3;10,8,11;,
  3;12,14,13;,
  3;14,12,15;,
  3;16,18,17;,
  3;18,16,19;,
  3;20,22,21;,
  3;22,24,23;,
  3;25,27,26;,
  3;27,25,28;,
  3;29,31,30;,
  3;31,29,32;,
  3;33,35,34;,
  3;36,38,37;,
  3;39,41,40;,
  3;41,39,42;,
  3;43,45,44;,
  3;21,46,20;,
  3;44,47,43;,
  3;22,20,24;,
  3;48,35,33;,
  3;49,38,36;;

  MeshNormals normals {
   50;
   0.000000;1.000000;0.000000;,
   0.000000;1.000000;0.000000;,
   0.000000;1.000000;0.000000;,
   0.000000;1.000000;0.000000;,
   -1.000000;0.000000;-0.000000;,
   -1.000000;0.000000;-0.000000;,
   -1.000000;0.000000;-0.000000;,
   -1.000000;0.000000;-0.000000;,
   0.000000;-0.000000;-1.000000;,
   0.000000;0.000000;-1.000000;,
   0.000000;-0.000000;-1.000000;,
   0.000000;-0.000000;-1.000000;,
   0.001862;0.001345;0.999997;,
   0.003289;0.003120;0.999990;,
   0.002213;0.001781;0.999996;,
   0.000782;0.000000;1.000000;,
   0.999996;-0.002861;0.000871;,
   0.999970;-0.006679;-0.003903;,
   0.999993;-0.003811;-0.000316;,
   0.999990;0.000000;0.004449;,
   0.000000;1.000000;0.000000;,
   0.000000;1.000000;0.000000;,
   0.000000;1.000000;0.000000;,
   0.000000;1.000000;0.000000;,
   0.000000;1.000000;0.000000;,
   0.999995;-0.001196;-0.003093;,
   0.999984;-0.005357;-0.001571;,
   0.999989;-0.004164;-0.002008;,
   0.999994;-0.000000;-0.003531;,
   -1.000000;0.000000;-0.000001;,
   -1.000000;0.000000;-0.000001;,
   -1.000000;0.000000;-0.000001;,
   -1.000000;0.000000;-0.000001;,
   0.000000;-0.000000;-1.000000;,
   0.000000;0.000000;-1.000000;,
   0.000000;-0.000000;-1.000000;,
   0.000000;-0.000001;-1.000000;,
   0.000000;-0.000001;-1.000000;,
   0.000000;-0.000001;-1.000000;,
   0.003079;0.000451;0.999995;,
   0.003685;0.002770;0.999989;,
   0.003568;0.002321;0.999991;,
   0.002961;0.000000;0.999996;,
   0.000000;-0.000000;-1.000000;,
   0.000000;-0.000001;-1.000000;,
   0.000000;-0.000000;-1.000000;,
   0.000000;1.000000;0.000000;,
   0.000000;-0.000001;-1.000000;,
   0.000000;-0.000000;-1.000000;,
   0.000000;-0.000001;-1.000000;;
   26;
   3;0,2,1;,
   3;2,0,3;,
   3;4,6,5;,
   3;6,4,7;,
   3;8,10,9;,
   3;10,8,11;,
   3;12,14,13;,
   3;14,12,15;,
   3;16,18,17;,
   3;18,16,19;,
   3;20,22,21;,
   3;22,24,23;,
   3;25,27,26;,
   3;27,25,28;,
   3;29,31,30;,
   3;31,29,32;,
   3;33,35,34;,
   3;36,38,37;,
   3;39,41,40;,
   3;41,39,42;,
   3;43,45,44;,
   3;21,46,20;,
   3;44,47,43;,
   3;22,20,24;,
   3;48,35,33;,
   3;49,38,36;;
  }

  MeshTextureCoords tc0 {
   50;
   0.999788;0.133168;,
   0.999788;0.062434;,
   0.885157;0.062434;,
   0.885129;0.133168;,
   0.659470;0.252410;,
   0.717681;0.252410;,
   0.717314;0.309426;,
   0.659826;0.309426;,
   0.734764;0.252345;,
   0.632054;0.252355;,
   0.632353;0.309310;,
   0.735095;0.309305;,
   0.736847;0.252331;,
   0.632677;0.252114;,
   0.632927;0.309013;,
   0.737251;0.309287;,
   0.718541;0.309135;,
   0.719231;0.252179;,
   0.658137;0.252410;,
   0.658089;0.309427;,
   0.969748;0.133168;,
   0.999788;0.062434;,
   0.885157;0.062434;,
   0.885129;0.133168;,
   0.918622;0.133168;,
   0.658125;0.267159;,
   0.719053;0.266911;,
   0.719231;0.252179;,
   0.658137;0.252410;,
   0.659470;0.252410;,
   0.717681;0.252410;,
   0.717586;0.267159;,
   0.659562;0.267159;,
   0.662056;0.252352;,
   0.632054;0.252355;,
   0.632131;0.267088;,
   0.661568;0.267085;,
   0.632131;0.267088;,
   0.632054;0.252355;,
   0.736847;0.252331;,
   0.632677;0.252114;,
   0.632742;0.266831;,
   0.736951;0.267064;,
   0.246952;1.003025;,
   0.360733;0.904577;,
   0.247002;0.904581;,
   0.999788;0.133168;,
   0.360829;1.003021;,
   0.661568;0.267085;,
   0.662056;0.252352;;
  }

  MeshMaterialList mtls {
   1;
   26;
   0,
   0,
   0,
   0,
   0,
   0,
   0,
   0,
   0,
   0,
   0,
   0,
   0,
   0,
   0,
   0,
   0,
   0,
   0,
   0,
   0,
   0,
   0,
   0,
   0,
   0;

   Material Dflt_Material {
    0.588235;0.588235;0.588235;1.000000;;
    9.999999;
    0.900000;0.900000;0.900000;;
    0.000000;0.000000;0.000000;;

    TextureFilename Diffuse {
     "Skyscrp.tga";
    }
   }
  }
 }
}