xof 0303txt 0032
template Frame {
 <3d82ab46-62da-11cf-ab39-0020af71e433>
 [...]
}

template Matrix4x4 {
 <f6f23f45-7686-11cf-8f52-0040333594a3>
 array FLOAT matrix[16];
}

template FrameTransformMatrix {
 <f6f23f41-7686-11cf-8f52-0040333594a3>
 Matrix4x4 frameMatrix;
}

template ObjectMatrixComment {
 <95a48e28-7ef4-4419-a16a-ba9dbdf0d2bc>
 Matrix4x4 objectMatrix;
}

template Vector {
 <3d82ab5e-62da-11cf-ab39-0020af71e433>
 FLOAT x;
 FLOAT y;
 FLOAT z;
}

template MeshFace {
 <3d82ab5f-62da-11cf-ab39-0020af71e433>
 DWORD nFaceVertexIndices;
 array DWORD faceVertexIndices[nFaceVertexIndices];
}

template Mesh {
 <3d82ab44-62da-11cf-ab39-0020af71e433>
 DWORD nVertices;
 array Vector vertices[nVertices];
 DWORD nFaces;
 array MeshFace faces[nFaces];
 [...]
}

template MeshNormals {
 <f6f23f43-7686-11cf-8f52-0040333594a3>
 DWORD nNormals;
 array Vector normals[nNormals];
 DWORD nFaceNormals;
 array MeshFace faceNormals[nFaceNormals];
}

template Coords2d {
 <f6f23f44-7686-11cf-8f52-0040333594a3>
 FLOAT u;
 FLOAT v;
}

template MeshTextureCoords {
 <f6f23f40-7686-11cf-8f52-0040333594a3>
 DWORD nTextureCoords;
 array Coords2d textureCoords[nTextureCoords];
}

template ColorRGBA {
 <35ff44e0-6c7c-11cf-8f52-0040333594a3>
 FLOAT red;
 FLOAT green;
 FLOAT blue;
 FLOAT alpha;
}

template ColorRGB {
 <d3e16e81-7835-11cf-8f52-0040333594a3>
 FLOAT red;
 FLOAT green;
 FLOAT blue;
}

template Material {
 <3d82ab4d-62da-11cf-ab39-0020af71e433>
 ColorRGBA faceColor;
 FLOAT power;
 ColorRGB specularColor;
 ColorRGB emissiveColor;
 [...]
}

template MeshMaterialList {
 <f6f23f42-7686-11cf-8f52-0040333594a3>
 DWORD nMaterials;
 DWORD nFaceIndexes;
 array DWORD faceIndexes[nFaceIndexes];
 [Material <3d82ab4d-62da-11cf-ab39-0020af71e433>]
}

template TextureFilename {
 <a42790e1-7810-11cf-8f52-0040333594a3>
 STRING filename;
}


Frame building_scyscrapers_26 {
 

 FrameTransformMatrix relative {
  1.000000,0.000000,0.000000,0.000000,0.000000,1.000000,0.000000,0.000000,0.000000,0.000000,1.000000,0.000000,0.000000,0.000000,0.000000,1.000000;;
 }

 ObjectMatrixComment object {
  1.000000,0.000000,0.000000,0.000000,0.000000,1.000000,0.000000,0.000000,0.000000,0.000000,1.000000,0.000000,0.000000,0.000000,0.000000,1.000000;;
 }

 Mesh mesh_b {
  121;
  9.321030;20.660973;-5.555946;,
  -9.453293;20.663851;-5.567945;,
  -9.453293;9.315488;-5.567945;,
  9.321034;9.309731;-5.555946;,
  -9.447605;9.298218;5.915644;,
  -9.447602;20.655216;5.915644;,
  9.332890;20.655216;5.915648;,
  9.332888;9.298218;5.915648;,
  9.332890;20.655216;5.915648;,
  9.321030;20.660973;-5.555946;,
  9.321034;9.309731;-5.555946;,
  9.332888;9.298218;5.915648;,
  -9.453293;9.315488;-5.567945;,
  -9.453293;20.663851;-5.567945;,
  -9.447602;20.655216;5.915644;,
  -9.447605;9.298218;5.915644;,
  -9.453293;20.663851;-5.567945;,
  9.321030;20.660973;-5.555946;,
  9.324985;30.532771;-5.559949;,
  -9.447364;30.530710;-5.561948;,
  9.331471;30.533798;5.915648;,
  9.332890;20.655216;5.915648;,
  -9.447602;20.655216;5.915644;,
  -9.449498;30.532771;5.915644;,
  9.321030;20.660973;-5.555946;,
  9.332890;20.655216;5.915648;,
  9.331471;30.533798;5.915648;,
  9.324985;30.532771;-5.559949;,
  -9.449498;30.532771;5.915644;,
  -9.447602;20.655216;5.915644;,
  -9.453293;20.663851;-5.567945;,
  -9.447364;30.530710;-5.561948;,
  9.332896;40.172614;-5.567941;,
  -9.441430;40.169734;-5.555951;,
  -9.447364;30.530710;-5.561948;,
  9.324985;30.532771;-5.559949;,
  -9.453296;40.163981;5.915644;,
  9.327200;40.163981;5.915648;,
  9.331471;30.533798;5.915648;,
  -9.449498;30.532771;5.915644;,
  -9.441430;40.169734;-5.555951;,
  -9.453296;40.163981;5.915644;,
  -9.449498;30.532771;5.915644;,
  -9.447364;30.530710;-5.561948;,
  -9.441426;50.045654;-5.555951;,
  9.332896;40.172614;-5.567941;,
  9.332896;50.045654;-5.567941;,
  -9.441426;50.045654;-5.555951;,
  9.332896;50.045654;-5.567941;,
  9.327197;50.045654;5.915648;,
  -9.453298;50.045654;5.915644;,
  -9.441430;40.169734;-5.555951;,
  9.327197;50.045654;5.915648;,
  9.327200;40.163981;5.915648;,
  -9.453298;50.045654;5.915644;,
  -9.453296;40.163981;5.915644;,
  -9.453298;50.045654;5.915644;,
  -9.441430;40.169734;-5.555951;,
  -9.441426;50.045654;-5.555951;,
  -9.453296;40.163981;5.915644;,
  9.332896;40.172614;-5.567941;,
  9.327197;50.045654;5.915648;,
  9.332896;50.045654;-5.567941;,
  9.327200;40.163981;5.915648;,
  9.324985;30.532771;-5.559949;,
  9.331471;30.533798;5.915648;,
  9.327200;40.163981;5.915648;,
  9.332896;40.172614;-5.567941;,
  -13.160203;0.031778;-8.922773;,
  -0.061647;0.031781;-8.922766;,
  -0.061647;4.345155;-8.922766;,
  -13.160203;4.347320;-8.922773;,
  -13.160203;4.347320;-8.922773;,
  -13.145921;4.347320;8.918030;,
  -13.129047;-0.000001;8.919095;,
  -13.160203;0.031778;-8.922773;,
  -0.006311;10.398522;-7.398778;,
  0.047290;10.398522;7.393157;,
  -10.874667;10.398522;7.393169;,
  -10.867314;10.398522;-7.398785;,
  13.952566;0.031781;-8.922766;,
  13.952566;4.344689;-8.922766;,
  13.952566;4.344689;-8.922766;,
  13.952566;0.031781;-8.922766;,
  13.945805;0.010823;8.922799;,
  13.945805;4.347320;8.922799;,
  11.608329;10.398522;7.398329;,
  0.047290;10.398522;7.393157;,
  11.613933;10.398522;-7.398780;,
  0.043044;0.000343;8.919079;,
  0.026160;4.347320;8.918018;,
  13.945805;4.347320;8.922799;,
  13.945805;0.010823;8.922799;,
  -13.129047;-0.000001;8.919095;,
  -13.145921;4.347320;8.918030;,
  0.026160;4.347320;8.918018;,
  0.043044;0.000343;8.919079;,
  -0.061647;4.345155;-8.922766;,
  13.952566;4.344689;-8.922766;,
  11.613933;10.398522;-7.398780;,
  -0.006311;10.398522;-7.398778;,
  -0.061647;4.345155;-8.922766;,
  -10.867314;10.398522;-7.398785;,
  -13.160203;4.347320;-8.922773;,
  -0.006311;10.398522;-7.398778;,
  -10.867314;10.398522;-7.398785;,
  -10.874667;10.398522;7.393169;,
  -13.145921;4.347320;8.918030;,
  -13.160203;4.347320;-8.922773;,
  11.608329;10.398522;7.398329;,
  11.613933;10.398522;-7.398780;,
  13.952566;4.344689;-8.922766;,
  13.945805;4.347320;8.922799;,
  0.047290;10.398522;7.393157;,
  11.608329;10.398522;7.398329;,
  13.945805;4.347320;8.922799;,
  0.026160;4.347320;8.918018;,
  -10.874667;10.398522;7.393169;,
  0.047290;10.398522;7.393157;,
  0.026160;4.347320;8.918018;,
  -13.145921;4.347320;8.918030;;
  62;
  3;0,2,1;,
  3;2,0,3;,
  3;4,6,5;,
  3;6,4,7;,
  3;8,10,9;,
  3;10,8,11;,
  3;12,14,13;,
  3;14,12,15;,
  3;16,18,17;,
  3;18,16,19;,
  3;20,22,21;,
  3;22,20,23;,
  3;24,26,25;,
  3;26,24,27;,
  3;28,30,29;,
  3;30,28,31;,
  3;32,34,33;,
  3;34,32,35;,
  3;36,38,37;,
  3;38,36,39;,
  3;40,42,41;,
  3;42,40,43;,
  3;44,46,45;,
  3;47,49,48;,
  3;49,47,50;,
  3;45,51,44;,
  3;52,54,53;,
  3;55,53,54;,
  3;56,58,57;,
  3;57,59,56;,
  3;60,62,61;,
  3;61,63,60;,
  3;64,66,65;,
  3;66,64,67;,
  3;68,70,69;,
  3;68,71,70;,
  3;72,74,73;,
  3;74,72,75;,
  3;76,78,77;,
  3;78,76,79;,
  3;69,81,80;,
  3;81,69,70;,
  3;82,84,83;,
  3;82,85,84;,
  3;86,76,87;,
  3;76,86,88;,
  3;89,91,90;,
  3;91,89,92;,
  3;93,95,94;,
  3;95,93,96;,
  3;97,99,98;,
  3;99,97,100;,
  3;101,103,102;,
  3;102,104,101;,
  3;105,107,106;,
  3;107,105,108;,
  3;109,111,110;,
  3;111,109,112;,
  3;113,115,114;,
  3;115,113,116;,
  3;117,119,118;,
  3;119,117,120;;

  MeshNormals normals {
   121;
   0.000639;-0.000203;-1.000000;,
   0.000455;0.000148;-1.000000;,
   0.000639;0.000000;-1.000000;,
   0.000639;0.000000;-1.000000;,
   -0.000000;0.000000;1.000000;,
   -0.000000;-0.000000;1.000000;,
   -0.000000;-0.000000;1.000000;,
   -0.000000;0.000000;1.000000;,
   1.000000;0.000072;-0.001034;,
   1.000000;-0.000077;-0.000905;,
   0.999999;0.000000;-0.001034;,
   1.000000;-0.000000;-0.001033;,
   -1.000000;0.000000;0.000495;,
   -1.000000;0.000121;0.000309;,
   -1.000000;-0.000096;0.000495;,
   -1.000000;0.000000;0.000495;,
   0.000455;0.000148;-1.000000;,
   0.000639;-0.000203;-1.000000;,
   0.000291;-0.000462;-1.000000;,
   -0.000153;0.000396;-1.000000;,
   -0.000000;-0.000000;1.000000;,
   -0.000000;-0.000000;1.000000;,
   -0.000000;-0.000000;1.000000;,
   -0.000000;-0.000000;1.000000;,
   1.000000;-0.000077;-0.000905;,
   1.000000;0.000072;-0.001034;,
   1.000000;0.000170;-0.000694;,
   1.000000;-0.000330;-0.000270;,
   -1.000000;0.000111;-0.000235;,
   -1.000000;-0.000096;0.000495;,
   -1.000000;0.000121;0.000309;,
   -1.000000;0.000608;-0.000186;,
   -0.000379;-0.000195;-1.000000;,
   -0.000639;0.000311;-1.000000;,
   -0.000153;0.000396;-1.000000;,
   0.000291;-0.000462;-1.000000;,
   -0.000000;-0.000000;1.000000;,
   -0.000000;-0.000000;1.000000;,
   -0.000000;-0.000000;1.000000;,
   -0.000000;-0.000000;1.000000;,
   -1.000000;0.000083;-0.000799;,
   -1.000000;-0.000197;-0.001034;,
   -1.000000;0.000111;-0.000235;,
   -1.000000;0.000608;-0.000186;,
   -0.000639;0.000000;-1.000000;,
   -0.000379;-0.000195;-1.000000;,
   -0.000639;0.000000;-1.000000;,
   0.000000;1.000000;0.000000;,
   0.000000;1.000000;0.000000;,
   0.000000;1.000000;0.000000;,
   0.000000;1.000000;0.000000;,
   -0.000639;0.000311;-1.000000;,
   -0.000000;-0.000000;1.000000;,
   -0.000000;-0.000000;1.000000;,
   -0.000000;-0.000000;1.000000;,
   -0.000000;-0.000000;1.000000;,
   -1.000000;0.000000;-0.001035;,
   -1.000000;0.000083;-0.000799;,
   -1.000000;0.000000;-0.001035;,
   -1.000000;-0.000197;-0.001034;,
   1.000000;-0.000410;0.000496;,
   1.000000;0.000000;0.000496;,
   1.000000;0.000000;0.000496;,
   1.000000;-0.000059;0.000201;,
   1.000000;-0.000330;-0.000270;,
   1.000000;0.000170;-0.000694;,
   1.000000;-0.000059;0.000201;,
   1.000000;-0.000410;0.000496;,
   0.000001;0.000000;-1.000000;,
   0.000000;0.000000;-1.000000;,
   0.000004;0.123004;-0.992406;,
   0.000018;0.107508;-0.994204;,
   -0.986232;0.165365;0.001229;,
   -0.986690;0.162610;0.000382;,
   -0.999994;-0.003294;0.000944;,
   -0.999999;0.000000;0.001746;,
   0.000000;1.000000;0.000000;,
   0.000000;1.000000;0.000000;,
   0.000000;1.000000;0.000000;,
   0.000000;1.000000;0.000000;,
   -0.000000;0.000000;-1.000000;,
   0.000003;0.107140;-0.994244;,
   0.985669;0.168693;0.000366;,
   1.000000;0.000000;0.000379;,
   1.000000;0.000000;0.000379;,
   0.985654;0.168779;0.000349;,
   0.000000;1.000000;0.000000;,
   0.000000;1.000000;0.000000;,
   0.000000;1.000000;0.000000;,
   -0.000164;0.000220;1.000000;,
   -0.000170;0.123236;0.992377;,
   -0.000336;0.107206;0.994237;,
   -0.000268;0.000000;1.000000;,
   0.000001;0.000245;1.000000;,
   0.000001;0.107999;0.994151;,
   -0.000170;0.123236;0.992377;,
   -0.000164;0.000220;1.000000;,
   0.000004;0.123004;-0.992406;,
   0.000003;0.107140;-0.994244;,
   0.000006;0.244129;-0.969743;,
   0.000000;0.244140;-0.969740;,
   0.000004;0.123004;-0.992406;,
   0.000030;0.244190;-0.969728;,
   0.000018;0.107508;-0.994204;,
   0.000000;0.244140;-0.969740;,
   -0.935410;0.353566;0.000495;,
   -0.936263;0.351299;-0.000465;,
   -0.986690;0.162610;0.000382;,
   -0.986232;0.165365;0.001229;,
   0.932808;0.360374;0.000311;,
   0.932846;0.360275;0.000353;,
   0.985669;0.168693;0.000366;,
   0.985654;0.168779;0.000349;,
   -0.000180;0.244325;0.969693;,
   -0.000434;0.244138;0.969741;,
   -0.000336;0.107206;0.994237;,
   -0.000170;0.123236;0.992377;,
   0.000001;0.244354;0.969686;,
   -0.000180;0.244325;0.969693;,
   -0.000170;0.123236;0.992377;,
   0.000001;0.107999;0.994151;;
   62;
   3;0,2,1;,
   3;2,0,3;,
   3;4,6,5;,
   3;6,4,7;,
   3;8,10,9;,
   3;10,8,11;,
   3;12,14,13;,
   3;14,12,15;,
   3;16,18,17;,
   3;18,16,19;,
   3;20,22,21;,
   3;22,20,23;,
   3;24,26,25;,
   3;26,24,27;,
   3;28,30,29;,
   3;30,28,31;,
   3;32,34,33;,
   3;34,32,35;,
   3;36,38,37;,
   3;38,36,39;,
   3;40,42,41;,
   3;42,40,43;,
   3;44,46,45;,
   3;47,49,48;,
   3;49,47,50;,
   3;45,51,44;,
   3;52,54,53;,
   3;55,53,54;,
   3;56,58,57;,
   3;57,59,56;,
   3;60,62,61;,
   3;61,63,60;,
   3;64,66,65;,
   3;66,64,67;,
   3;68,70,69;,
   3;68,71,70;,
   3;72,74,73;,
   3;74,72,75;,
   3;76,78,77;,
   3;78,76,79;,
   3;69,81,80;,
   3;81,69,70;,
   3;82,84,83;,
   3;82,85,84;,
   3;86,76,87;,
   3;76,86,88;,
   3;89,91,90;,
   3;91,89,92;,
   3;93,95,94;,
   3;95,93,96;,
   3;97,99,98;,
   3;99,97,100;,
   3;101,103,102;,
   3;102,104,101;,
   3;105,107,106;,
   3;107,105,108;,
   3;109,111,110;,
   3;111,109,112;,
   3;113,115,114;,
   3;115,113,116;,
   3;117,119,118;,
   3;119,117,120;;
  }

  MeshTextureCoords tc0 {
   121;
   0.422533;0.456972;,
   0.175524;0.456972;,
   0.175369;0.625918;,
   0.422533;0.625918;,
   0.421027;0.625522;,
   0.421530;0.456840;,
   0.176353;0.456917;,
   0.176353;0.625520;,
   0.341322;0.456972;,
   0.217279;0.456972;,
   0.217124;0.625918;,
   0.341322;0.625918;,
   0.217124;0.625918;,
   0.217279;0.456972;,
   0.341322;0.456972;,
   0.341322;0.625918;,
   0.341400;0.600078;,
   0.094236;0.600078;,
   0.094236;0.456972;,
   0.341245;0.456972;,
   0.113599;0.456917;,
   0.113599;0.599680;,
   0.361965;0.599682;,
   0.362468;0.456840;,
   0.012251;0.600078;,
   0.136450;0.600078;,
   0.136450;0.456972;,
   0.012406;0.456972;,
   0.341322;0.456972;,
   0.341322;0.600078;,
   0.217124;0.600078;,
   0.217279;0.456972;,
   0.175524;0.456972;,
   0.422533;0.456972;,
   0.422533;0.600526;,
   0.175392;0.600606;,
   0.176353;0.456917;,
   0.421530;0.456840;,
   0.421103;0.600011;,
   0.176353;0.600022;,
   0.217279;0.456972;,
   0.341322;0.456972;,
   0.341322;0.600368;,
   0.217147;0.600526;,
   0.094236;0.456972;,
   0.341400;0.600078;,
   0.341245;0.456972;,
   0.674992;0.886457;,
   0.763598;0.886457;,
   0.763598;0.973318;,
   0.674992;0.973318;,
   0.094236;0.600078;,
   0.362468;0.456840;,
   0.361965;0.599682;,
   0.113599;0.456917;,
   0.113599;0.599680;,
   0.136450;0.456972;,
   0.012251;0.600078;,
   0.012406;0.456972;,
   0.136450;0.600078;,
   0.217124;0.600078;,
   0.341322;0.456972;,
   0.217279;0.456972;,
   0.341322;0.600078;,
   0.217147;0.600606;,
   0.341322;0.600368;,
   0.341322;0.456972;,
   0.217279;0.456972;,
   0.211540;0.923182;,
   0.387035;0.922590;,
   0.387035;0.999683;,
   0.211540;0.999680;,
   0.573566;0.703884;,
   0.942705;0.703513;,
   0.942705;0.796545;,
   0.573566;0.796548;,
   0.330185;0.804682;,
   0.328844;0.906838;,
   0.233834;0.907110;,
   0.233250;0.804857;,
   0.211540;0.923182;,
   0.211540;0.999680;,
   0.573566;0.707238;,
   0.573566;0.796548;,
   0.924248;0.796545;,
   0.924248;0.703638;,
   0.408726;0.906728;,
   0.330913;0.906770;,
   0.409457;0.804588;,
   0.817262;0.796545;,
   0.817262;0.703517;,
   0.566183;0.703641;,
   0.566183;0.796548;,
   0.817262;0.796545;,
   0.817262;0.703513;,
   0.566183;0.703520;,
   0.566183;0.796548;,
   0.973577;0.447091;,
   0.807228;0.447088;,
   0.807228;0.364060;,
   0.946846;0.364062;,
   0.973523;0.447550;,
   0.807228;0.364060;,
   0.807228;0.447088;,
   0.946084;0.364062;,
   0.824956;0.364062;,
   0.968156;0.364060;,
   0.982476;0.446835;,
   0.810636;0.447091;,
   0.968043;0.364060;,
   0.825069;0.364062;,
   0.810636;0.447091;,
   0.982476;0.446921;,
   0.945828;0.364060;,
   0.807649;0.364062;,
   0.807649;0.446923;,
   0.975543;0.446837;,
   0.807154;0.364060;,
   0.944837;0.364062;,
   0.975047;0.446840;,
   0.807154;0.446835;;
  }

  MeshMaterialList mtls {
   1;
   62;
   0,
   0,
   0,
   0,
   0,
   0,
   0,
   0,
   0,
   0,
   0,
   0,
   0,
   0,
   0,
   0,
   0,
   0,
   0,
   0,
   0,
   0,
   0,
   0,
   0,
   0,
   0,
   0,
   0,
   0,
   0,
   0,
   0,
   0,
   0,
   0,
   0,
   0,
   0,
   0,
   0,
   0,
   0,
   0,
   0,
   0,
   0,
   0,
   0,
   0,
   0,
   0,
   0,
   0,
   0,
   0,
   0,
   0,
   0,
   0,
   0,
   0;

   Material Dflt_Material {
    0.588235;0.588235;0.588235;1.000000;;
    9.999999;
    0.900000;0.900000;0.900000;;
    0.000000;0.000000;0.000000;;

    TextureFilename Diffuse {
     "Skyscrp.tga";
    }
   }
  }
 }
}