xof 0303txt 0032
template Frame {
 <3d82ab46-62da-11cf-ab39-0020af71e433>
 [...]
}

template Matrix4x4 {
 <f6f23f45-7686-11cf-8f52-0040333594a3>
 array FLOAT matrix[16];
}

template FrameTransformMatrix {
 <f6f23f41-7686-11cf-8f52-0040333594a3>
 Matrix4x4 frameMatrix;
}

template ObjectMatrixComment {
 <95a48e28-7ef4-4419-a16a-ba9dbdf0d2bc>
 Matrix4x4 objectMatrix;
}

template Vector {
 <3d82ab5e-62da-11cf-ab39-0020af71e433>
 FLOAT x;
 FLOAT y;
 FLOAT z;
}

template MeshFace {
 <3d82ab5f-62da-11cf-ab39-0020af71e433>
 DWORD nFaceVertexIndices;
 array DWORD faceVertexIndices[nFaceVertexIndices];
}

template Mesh {
 <3d82ab44-62da-11cf-ab39-0020af71e433>
 DWORD nVertices;
 array Vector vertices[nVertices];
 DWORD nFaces;
 array MeshFace faces[nFaces];
 [...]
}

template MeshNormals {
 <f6f23f43-7686-11cf-8f52-0040333594a3>
 DWORD nNormals;
 array Vector normals[nNormals];
 DWORD nFaceNormals;
 array MeshFace faceNormals[nFaceNormals];
}

template Coords2d {
 <f6f23f44-7686-11cf-8f52-0040333594a3>
 FLOAT u;
 FLOAT v;
}

template MeshTextureCoords {
 <f6f23f40-7686-11cf-8f52-0040333594a3>
 DWORD nTextureCoords;
 array Coords2d textureCoords[nTextureCoords];
}

template ColorRGBA {
 <35ff44e0-6c7c-11cf-8f52-0040333594a3>
 FLOAT red;
 FLOAT green;
 FLOAT blue;
 FLOAT alpha;
}

template ColorRGB {
 <d3e16e81-7835-11cf-8f52-0040333594a3>
 FLOAT red;
 FLOAT green;
 FLOAT blue;
}

template Material {
 <3d82ab4d-62da-11cf-ab39-0020af71e433>
 ColorRGBA faceColor;
 FLOAT power;
 ColorRGB specularColor;
 ColorRGB emissiveColor;
 [...]
}

template MeshMaterialList {
 <f6f23f42-7686-11cf-8f52-0040333594a3>
 DWORD nMaterials;
 DWORD nFaceIndexes;
 array DWORD faceIndexes[nFaceIndexes];
 [Material <3d82ab4d-62da-11cf-ab39-0020af71e433>]
}

template TextureFilename {
 <a42790e1-7810-11cf-8f52-0040333594a3>
 STRING filename;
}


Frame building_historical_01 {
 

 FrameTransformMatrix relative {
  1.000000,0.000000,0.000000,0.000000,0.000000,1.000000,0.000000,0.000000,0.000000,0.000000,1.000000,0.000000,0.000000,0.000000,0.000000,1.000000;;
 }

 ObjectMatrixComment object {
  1.000000,0.000000,0.000000,0.000000,0.000000,1.000000,0.000000,0.000000,0.000000,0.000000,1.000000,0.000000,0.000000,0.000000,0.000000,1.000000;;
 }

 Mesh mesh_b {
  32;
  -57.276966;22.146466;-0.062936;,
  -60.017299;18.546942;-0.097925;,
  -60.017306;18.546939;-6.819519;,
  60.000512;0.000000;-6.819522;,
  60.000512;0.000000;6.819537;,
  60.008902;18.546942;6.819532;,
  60.000512;18.546942;-0.061360;,
  60.008909;18.546942;-6.819526;,
  -60.017306;18.546939;6.819539;,
  60.008902;18.546942;6.819532;,
  60.000512;0.000000;6.819537;,
  -60.017306;0.000000;6.819539;,
  -60.017306;0.000000;6.819539;,
  -60.017306;0.000000;-6.819519;,
  -60.017306;18.546939;-6.819519;,
  -60.017299;18.546942;-0.097925;,
  -60.017306;18.546939;6.819539;,
  60.008909;18.546942;-6.819526;,
  -60.017306;18.546939;-6.819519;,
  -60.017306;0.000000;-6.819519;,
  60.000512;0.000000;-6.819522;,
  -60.017306;18.546939;6.819539;,
  -60.017306;18.546939;-6.819519;,
  60.008909;18.546942;-6.819526;,
  57.276960;22.146466;-0.062948;,
  -57.276966;22.146466;-0.062936;,
  60.008902;18.546942;6.819532;,
  -60.017306;18.546939;6.819539;,
  60.017299;18.546946;-0.097936;,
  57.276960;22.146466;-0.062948;,
  60.008909;18.546942;-6.819526;,
  60.008902;18.546942;6.819532;;
  18;
  3;0,2,1;,
  3;3,5,4;,
  3;3,6,5;,
  3;3,7,6;,
  3;8,10,9;,
  3;10,8,11;,
  3;12,14,13;,
  3;12,15,14;,
  3;12,16,15;,
  3;17,19,18;,
  3;19,17,20;,
  3;21,0,1;,
  3;22,24,23;,
  3;24,22,25;,
  3;25,26,24;,
  3;26,25,27;,
  3;28,30,29;,
  3;28,29,31;;

  MeshNormals normals {
   32;
   -0.324094;0.946020;-0.003104;,
   -0.795662;0.605741;0.000000;,
   -0.289590;0.888522;-0.355902;,
   1.000000;-0.000290;0.000056;,
   1.000000;-0.000452;0.000000;,
   1.000000;0.000082;-0.000727;,
   1.000000;0.000096;-0.000262;,
   0.999999;-0.000452;0.001242;,
   0.000000;0.000000;1.000000;,
   0.000000;0.000000;1.000000;,
   0.000000;0.000000;1.000000;,
   0.000000;0.000000;1.000000;,
   -1.000000;0.000000;-0.000000;,
   -1.000000;-0.000000;-0.000000;,
   -1.000000;0.000000;0.000001;,
   -1.000000;0.000001;0.000000;,
   -1.000000;0.000000;-0.000001;,
   -0.000000;-0.000000;-1.000000;,
   -0.000000;-0.000000;-1.000000;,
   -0.000000;-0.000000;-1.000000;,
   -0.000000;-0.000000;-1.000000;,
   -0.285633;0.891206;0.352371;,
   -0.289590;0.888522;-0.355902;,
   0.289468;0.888420;-0.356257;,
   0.324314;0.945944;-0.003104;,
   -0.324094;0.946020;-0.003104;,
   0.285516;0.891108;0.352715;,
   -0.285633;0.891206;0.352371;,
   0.795661;0.605742;-0.000019;,
   0.324314;0.945944;-0.003104;,
   0.289468;0.888420;-0.356257;,
   0.285516;0.891108;0.352715;;
   18;
   3;0,2,1;,
   3;3,5,4;,
   3;3,6,5;,
   3;3,7,6;,
   3;8,10,9;,
   3;10,8,11;,
   3;12,14,13;,
   3;12,15,14;,
   3;12,16,15;,
   3;17,19,18;,
   3;19,17,20;,
   3;21,0,1;,
   3;22,24,23;,
   3;24,22,25;,
   3;25,26,24;,
   3;26,25,27;,
   3;28,30,29;,
   3;28,29,31;;
  }

  MeshTextureCoords tc0 {
   32;
   0.627512;0.028362;,
   0.627546;0.009005;,
   0.649861;0.009005;,
   0.199338;0.397931;,
   0.602280;0.397931;,
   0.602280;-0.002054;,
   0.395093;-0.002054;,
   0.199338;-0.002054;,
   1.503222;-0.002054;,
   -0.900265;-0.002054;,
   -0.900265;0.397931;,
   1.503222;0.397931;,
   0.199338;0.397931;,
   0.602280;0.397931;,
   0.602280;-0.002054;,
   0.401962;-0.002054;,
   0.199338;-0.002054;,
   1.503222;-0.002054;,
   -0.900265;-0.002054;,
   -0.900265;0.397931;,
   1.503222;0.397931;,
   0.604188;0.009004;,
   0.656241;0.027536;,
   1.491432;0.027536;,
   1.466710;0.012525;,
   0.675310;0.013904;,
   1.491430;0.027277;,
   0.656240;0.027277;,
   0.627546;0.009005;,
   0.627512;0.028362;,
   0.649861;0.009005;,
   0.604188;0.009004;;
  }

  MeshMaterialList mtls {
   1;
   18;
   0,
   0,
   0,
   0,
   0,
   0,
   0,
   0,
   0,
   0,
   0,
   0,
   0,
   0,
   0,
   0,
   0,
   0;

   Material Dflt_Material {
    0.588235;0.588235;0.588235;1.000000;;
    9.999999;
    0.900000;0.900000;0.900000;;
    0.000000;0.000000;0.000000;;

    TextureFilename Diffuse {
     "buildz2.tga";
    }
   }
  }
 }
}