xof 0303txt 0032
template Frame {
 <3d82ab46-62da-11cf-ab39-0020af71e433>
 [...]
}

template Matrix4x4 {
 <f6f23f45-7686-11cf-8f52-0040333594a3>
 array FLOAT matrix[16];
}

template FrameTransformMatrix {
 <f6f23f41-7686-11cf-8f52-0040333594a3>
 Matrix4x4 frameMatrix;
}

template ObjectMatrixComment {
 <95a48e28-7ef4-4419-a16a-ba9dbdf0d2bc>
 Matrix4x4 objectMatrix;
}

template Vector {
 <3d82ab5e-62da-11cf-ab39-0020af71e433>
 FLOAT x;
 FLOAT y;
 FLOAT z;
}

template MeshFace {
 <3d82ab5f-62da-11cf-ab39-0020af71e433>
 DWORD nFaceVertexIndices;
 array DWORD faceVertexIndices[nFaceVertexIndices];
}

template Mesh {
 <3d82ab44-62da-11cf-ab39-0020af71e433>
 DWORD nVertices;
 array Vector vertices[nVertices];
 DWORD nFaces;
 array MeshFace faces[nFaces];
 [...]
}

template MeshNormals {
 <f6f23f43-7686-11cf-8f52-0040333594a3>
 DWORD nNormals;
 array Vector normals[nNormals];
 DWORD nFaceNormals;
 array MeshFace faceNormals[nFaceNormals];
}

template Coords2d {
 <f6f23f44-7686-11cf-8f52-0040333594a3>
 FLOAT u;
 FLOAT v;
}

template MeshTextureCoords {
 <f6f23f40-7686-11cf-8f52-0040333594a3>
 DWORD nTextureCoords;
 array Coords2d textureCoords[nTextureCoords];
}

template ColorRGBA {
 <35ff44e0-6c7c-11cf-8f52-0040333594a3>
 FLOAT red;
 FLOAT green;
 FLOAT blue;
 FLOAT alpha;
}

template ColorRGB {
 <d3e16e81-7835-11cf-8f52-0040333594a3>
 FLOAT red;
 FLOAT green;
 FLOAT blue;
}

template Material {
 <3d82ab4d-62da-11cf-ab39-0020af71e433>
 ColorRGBA faceColor;
 FLOAT power;
 ColorRGB specularColor;
 ColorRGB emissiveColor;
 [...]
}

template MeshMaterialList {
 <f6f23f42-7686-11cf-8f52-0040333594a3>
 DWORD nMaterials;
 DWORD nFaceIndexes;
 array DWORD faceIndexes[nFaceIndexes];
 [Material <3d82ab4d-62da-11cf-ab39-0020af71e433>]
}

template TextureFilename {
 <a42790e1-7810-11cf-8f52-0040333594a3>
 STRING filename;
}


Frame building_historical_24 {
 

 FrameTransformMatrix relative {
  1.000000,0.000000,0.000000,0.000000,0.000000,1.000000,0.000000,0.000000,0.000000,0.000000,1.000000,0.000000,0.000000,0.000000,0.000000,1.000000;;
 }

 ObjectMatrixComment object {
  1.000000,0.000000,0.000000,0.000000,0.000000,1.000000,0.000000,0.000000,0.000000,0.000000,1.000000,0.000000,0.000000,0.000000,0.000000,1.000000;;
 }

 Mesh mesh_b {
  34;
  -10.516198;12.962800;-5.190940;,
  10.516205;12.962800;-5.190938;,
  7.078150;17.073147;0.178925;,
  -7.337912;17.073147;0.178924;,
  10.516205;12.962800;0.178925;,
  10.516205;12.962800;-5.190938;,
  10.516205;0.000000;-5.190939;,
  10.516205;0.000000;5.190936;,
  10.516205;12.962800;5.190936;,
  10.516205;0.000000;5.190936;,
  -10.516198;0.000001;5.190935;,
  -10.516198;12.962800;5.190935;,
  10.516205;12.962800;5.190936;,
  -10.516198;12.962800;0.178924;,
  -10.516198;12.962800;5.190935;,
  -10.516198;0.000001;5.190935;,
  -10.516198;0.000001;-5.190940;,
  -10.516198;12.962800;-5.190940;,
  -10.516198;0.000001;-5.190940;,
  10.516205;0.000000;-5.190939;,
  10.516205;12.962800;-5.190938;,
  -10.516198;12.962800;-5.190940;,
  -7.337912;17.073147;0.178924;,
  7.078150;17.073147;0.178925;,
  10.516205;12.962800;5.190936;,
  -10.516198;12.962800;5.190935;,
  -10.516198;12.962800;5.190935;,
  -10.516198;12.962800;0.178924;,
  -7.337912;17.073147;0.178924;,
  -10.516198;12.962800;-5.190940;,
  10.516205;12.962800;-5.190938;,
  10.516205;12.962800;0.178925;,
  7.078150;17.073147;0.178925;,
  10.516205;12.962800;5.190936;;
  18;
  3;0,2,1;,
  3;2,0,3;,
  3;4,6,5;,
  3;4,7,6;,
  3;4,8,7;,
  3;9,11,10;,
  3;11,9,12;,
  3;13,15,14;,
  3;13,16,15;,
  3;13,17,16;,
  3;18,20,19;,
  3;20,18,21;,
  3;22,24,23;,
  3;24,22,25;,
  3;26,28,27;,
  3;28,29,27;,
  3;30,32,31;,
  3;32,33,31;;

  MeshNormals normals {
   34;
   0.000000;0.794074;-0.607822;,
   0.819014;0.455619;-0.348752;,
   0.000000;0.794074;-0.607821;,
   0.000000;0.794074;-0.607822;,
   1.000000;0.000000;0.000000;,
   0.819014;0.455619;-0.348752;,
   1.000000;0.000000;0.000000;,
   1.000000;0.000000;0.000000;,
   1.000000;0.000000;0.000000;,
   -0.000000;0.000000;1.000000;,
   -0.000000;0.000000;1.000000;,
   -0.000000;0.000000;1.000000;,
   -0.000000;0.000000;1.000000;,
   -1.000000;0.000000;0.000000;,
   -1.000000;0.000000;0.000000;,
   -1.000000;0.000000;0.000000;,
   -1.000000;0.000000;0.000000;,
   -1.000000;0.000000;0.000000;,
   0.000000;0.000000;-1.000000;,
   0.000000;0.000000;-1.000000;,
   0.000000;0.000000;-1.000000;,
   0.000000;0.000000;-1.000000;,
   -0.000000;0.773230;0.634126;,
   -0.000000;0.773230;0.634125;,
   -0.000000;0.773230;0.634125;,
   -0.000000;0.773230;0.634125;,
   -0.791089;0.611702;0.000000;,
   -0.791089;0.611702;0.000000;,
   -0.791089;0.611702;0.000000;,
   -0.791089;0.611702;0.000000;,
   0.767048;0.641589;0.000000;,
   0.767048;0.641589;0.000000;,
   0.767048;0.641589;0.000000;,
   0.767048;0.641589;0.000000;;
   18;
   3;0,2,1;,
   3;2,0,3;,
   3;4,6,5;,
   3;4,7,6;,
   3;4,8,7;,
   3;9,11,10;,
   3;11,9,12;,
   3;13,15,14;,
   3;13,16,15;,
   3;13,17,16;,
   3;18,20,19;,
   3;20,18,21;,
   3;22,24,23;,
   3;24,22,25;,
   3;26,28,27;,
   3;28,29,27;,
   3;30,32,31;,
   3;32,33,31;;
  }

  MeshTextureCoords tc0 {
   34;
   0.906162;0.668828;,
   0.906164;0.994865;,
   0.992560;0.942537;,
   0.992926;0.717202;,
   0.563451;0.646908;,
   0.444199;0.646908;,
   0.444199;0.893251;,
   0.675797;0.893251;,
   0.675797;0.646908;,
   0.005448;0.893251;,
   0.450622;0.893251;,
   0.450622;0.646908;,
   0.005448;0.646908;,
   0.563423;0.646908;,
   0.444199;0.646908;,
   0.444199;0.893251;,
   0.675797;0.893251;,
   0.675797;0.646908;,
   0.005448;0.893251;,
   0.450622;0.893251;,
   0.450622;0.646908;,
   0.005448;0.646908;,
   0.992926;0.717202;,
   0.992560;0.942537;,
   0.907048;0.994865;,
   0.907046;0.668828;,
   0.908626;0.633963;,
   0.908627;0.721832;,
   0.993396;0.723469;,
   0.908627;0.832704;,
   0.908163;0.626440;,
   0.908163;0.721093;,
   0.992932;0.722864;,
   0.908163;0.824065;;
  }

  MeshMaterialList mtls {
   1;
   18;
   0,
   0,
   0,
   0,
   0,
   0,
   0,
   0,
   0,
   0,
   0,
   0,
   0,
   0,
   0,
   0,
   0,
   0;

   Material Dflt_Material {
    0.588235;0.588235;0.588235;1.000000;;
    9.999999;
    0.900000;0.900000;0.900000;;
    0.000000;0.000000;0.000000;;

    TextureFilename Diffuse {
     "buildz3.tga";
    }
   }
  }
 }
}