xof 0303txt 0032
template Frame {
 <3d82ab46-62da-11cf-ab39-0020af71e433>
 [...]
}

template Matrix4x4 {
 <f6f23f45-7686-11cf-8f52-0040333594a3>
 array FLOAT matrix[16];
}

template FrameTransformMatrix {
 <f6f23f41-7686-11cf-8f52-0040333594a3>
 Matrix4x4 frameMatrix;
}

template ObjectMatrixComment {
 <95a48e28-7ef4-4419-a16a-ba9dbdf0d2bc>
 Matrix4x4 objectMatrix;
}

template Vector {
 <3d82ab5e-62da-11cf-ab39-0020af71e433>
 FLOAT x;
 FLOAT y;
 FLOAT z;
}

template MeshFace {
 <3d82ab5f-62da-11cf-ab39-0020af71e433>
 DWORD nFaceVertexIndices;
 array DWORD faceVertexIndices[nFaceVertexIndices];
}

template Mesh {
 <3d82ab44-62da-11cf-ab39-0020af71e433>
 DWORD nVertices;
 array Vector vertices[nVertices];
 DWORD nFaces;
 array MeshFace faces[nFaces];
 [...]
}

template MeshNormals {
 <f6f23f43-7686-11cf-8f52-0040333594a3>
 DWORD nNormals;
 array Vector normals[nNormals];
 DWORD nFaceNormals;
 array MeshFace faceNormals[nFaceNormals];
}

template Coords2d {
 <f6f23f44-7686-11cf-8f52-0040333594a3>
 FLOAT u;
 FLOAT v;
}

template MeshTextureCoords {
 <f6f23f40-7686-11cf-8f52-0040333594a3>
 DWORD nTextureCoords;
 array Coords2d textureCoords[nTextureCoords];
}

template ColorRGBA {
 <35ff44e0-6c7c-11cf-8f52-0040333594a3>
 FLOAT red;
 FLOAT green;
 FLOAT blue;
 FLOAT alpha;
}

template ColorRGB {
 <d3e16e81-7835-11cf-8f52-0040333594a3>
 FLOAT red;
 FLOAT green;
 FLOAT blue;
}

template Material {
 <3d82ab4d-62da-11cf-ab39-0020af71e433>
 ColorRGBA faceColor;
 FLOAT power;
 ColorRGB specularColor;
 ColorRGB emissiveColor;
 [...]
}

template MeshMaterialList {
 <f6f23f42-7686-11cf-8f52-0040333594a3>
 DWORD nMaterials;
 DWORD nFaceIndexes;
 array DWORD faceIndexes[nFaceIndexes];
 [Material <3d82ab4d-62da-11cf-ab39-0020af71e433>]
}

template TextureFilename {
 <a42790e1-7810-11cf-8f52-0040333594a3>
 STRING filename;
}


Frame Garage_03 {
 

 FrameTransformMatrix relative {
  1.000000,0.000000,0.000000,0.000000,0.000000,1.000000,0.000000,0.000000,0.000000,0.000000,1.000000,0.000000,0.000000,0.000000,0.000000,1.000000;;
 }

 ObjectMatrixComment object {
  1.000000,0.000000,0.000000,0.000000,0.000000,1.000000,0.000000,0.000000,0.000000,0.000000,1.000000,0.000000,0.000000,0.000000,0.000000,1.000000;;
 }

 Mesh mesh_G {
  28;
  4.663943;4.833963;-8.561598;,
  4.663940;4.833963;8.568100;,
  -0.159175;6.759637;8.524762;,
  -0.165515;6.759637;-8.568091;,
  -4.663957;4.833963;8.568099;,
  4.663940;4.833963;8.568100;,
  4.663941;-0.000000;8.568100;,
  -4.663957;-0.000000;8.568099;,
  -4.663957;-0.000000;8.568099;,
  -4.663954;-0.000000;-8.561601;,
  -4.663954;4.833963;-8.561601;,
  -4.663957;4.833963;8.568099;,
  4.663943;4.833963;-8.561598;,
  -4.663954;4.833963;-8.561601;,
  -4.663954;-0.000000;-8.561601;,
  4.663944;-0.000000;-8.561598;,
  4.663944;-0.000000;-8.561598;,
  4.663941;-0.000000;8.568100;,
  4.663940;4.833963;8.568100;,
  4.663943;4.833963;-8.561598;,
  -4.663957;4.833963;8.568099;,
  -4.663954;4.833963;-8.561601;,
  -0.165515;6.759637;-8.568091;,
  -4.663954;4.833963;-8.561601;,
  4.663943;4.833963;-8.561598;,
  4.663940;4.833963;8.568100;,
  -4.663957;4.833963;8.568099;,
  -0.159175;6.759637;8.524762;;
  14;
  3;0,2,1;,
  3;2,0,3;,
  3;4,6,5;,
  3;6,4,7;,
  3;8,10,9;,
  3;10,8,11;,
  3;12,14,13;,
  3;14,12,15;,
  3;16,18,17;,
  3;18,16,19;,
  3;3,20,2;,
  3;20,3,21;,
  3;22,24,23;,
  3;25,27,26;;

  MeshNormals normals {
   28;
   0.360365;0.902755;-0.234885;,
   0.358581;0.903407;0.235107;,
   -0.009285;0.783472;0.621358;,
   -0.009765;0.775103;-0.631759;,
   -0.000000;-0.000000;1.000000;,
   -0.000000;-0.000000;1.000000;,
   -0.000000;-0.000000;1.000000;,
   -0.000000;0.000000;1.000000;,
   -1.000000;0.000000;-0.000000;,
   -1.000000;0.000000;-0.000000;,
   -1.000000;0.000000;-0.000000;,
   -1.000000;0.000000;-0.000000;,
   0.000000;0.000000;-1.000000;,
   0.000000;0.000000;-1.000000;,
   0.000000;0.000000;-1.000000;,
   0.000000;0.000000;-1.000000;,
   1.000000;0.000000;0.000000;,
   1.000000;0.000000;0.000000;,
   1.000000;0.000000;0.000000;,
   1.000000;0.000000;0.000000;,
   -0.378714;0.891322;0.249241;,
   -0.381408;0.890142;-0.249350;,
   -0.009765;0.775103;-0.631759;,
   -0.381408;0.890142;-0.249350;,
   0.360365;0.902755;-0.234885;,
   0.358581;0.903407;0.235107;,
   -0.378714;0.891322;0.249241;,
   -0.009285;0.783472;0.621358;;
   14;
   3;0,2,1;,
   3;2,0,3;,
   3;4,6,5;,
   3;6,4,7;,
   3;8,10,9;,
   3;10,8,11;,
   3;12,14,13;,
   3;14,12,15;,
   3;16,18,17;,
   3;18,16,19;,
   3;3,20,2;,
   3;20,3,21;,
   3;22,24,23;,
   3;25,27,26;;
  }

  MeshTextureCoords tc0 {
   28;
   0.718913;0.541338;,
   0.718910;0.277083;,
   0.602919;0.276607;,
   0.603961;0.544009;,
   0.644697;0.791975;,
   0.645096;0.998971;,
   0.785799;0.998971;,
   0.785400;0.791975;,
   0.802367;0.994272;,
   0.802367;0.754851;,
   0.575278;0.754851;,
   0.575278;0.994272;,
   0.853540;0.790130;,
   0.853939;0.997125;,
   0.994641;0.997125;,
   0.994242;0.790130;,
   0.802367;0.994272;,
   0.802367;0.754851;,
   0.575278;0.754851;,
   0.575278;0.994272;,
   0.717761;0.277083;,
   0.717764;0.541338;,
   0.810568;0.890383;,
   0.853201;0.999973;,
   0.853201;0.792010;,
   0.853201;0.999973;,
   0.853201;0.792010;,
   0.810568;0.890383;;
  }

  MeshMaterialList mtls {
   1;
   14;
   0,
   0,
   0,
   0,
   0,
   0,
   0,
   0,
   0,
   0,
   0,
   0,
   0,
   0;

   Material Dflt_Material {
    0.588235;0.588235;0.588235;1.000000;;
    9.999999;
    0.900000;0.900000;0.900000;;
    0.000000;0.000000;0.000000;;

    TextureFilename Diffuse {
     "buildz6.tga";
    }
   }
  }
 }
}