xof 0303txt 0032
template Frame {
 <3d82ab46-62da-11cf-ab39-0020af71e433>
 [...]
}

template Matrix4x4 {
 <f6f23f45-7686-11cf-8f52-0040333594a3>
 array FLOAT matrix[16];
}

template FrameTransformMatrix {
 <f6f23f41-7686-11cf-8f52-0040333594a3>
 Matrix4x4 frameMatrix;
}

template ObjectMatrixComment {
 <95a48e28-7ef4-4419-a16a-ba9dbdf0d2bc>
 Matrix4x4 objectMatrix;
}

template Vector {
 <3d82ab5e-62da-11cf-ab39-0020af71e433>
 FLOAT x;
 FLOAT y;
 FLOAT z;
}

template MeshFace {
 <3d82ab5f-62da-11cf-ab39-0020af71e433>
 DWORD nFaceVertexIndices;
 array DWORD faceVertexIndices[nFaceVertexIndices];
}

template Mesh {
 <3d82ab44-62da-11cf-ab39-0020af71e433>
 DWORD nVertices;
 array Vector vertices[nVertices];
 DWORD nFaces;
 array MeshFace faces[nFaces];
 [...]
}

template MeshNormals {
 <f6f23f43-7686-11cf-8f52-0040333594a3>
 DWORD nNormals;
 array Vector normals[nNormals];
 DWORD nFaceNormals;
 array MeshFace faceNormals[nFaceNormals];
}

template Coords2d {
 <f6f23f44-7686-11cf-8f52-0040333594a3>
 FLOAT u;
 FLOAT v;
}

template MeshTextureCoords {
 <f6f23f40-7686-11cf-8f52-0040333594a3>
 DWORD nTextureCoords;
 array Coords2d textureCoords[nTextureCoords];
}

template ColorRGBA {
 <35ff44e0-6c7c-11cf-8f52-0040333594a3>
 FLOAT red;
 FLOAT green;
 FLOAT blue;
 FLOAT alpha;
}

template ColorRGB {
 <d3e16e81-7835-11cf-8f52-0040333594a3>
 FLOAT red;
 FLOAT green;
 FLOAT blue;
}

template Material {
 <3d82ab4d-62da-11cf-ab39-0020af71e433>
 ColorRGBA faceColor;
 FLOAT power;
 ColorRGB specularColor;
 ColorRGB emissiveColor;
 [...]
}

template MeshMaterialList {
 <f6f23f42-7686-11cf-8f52-0040333594a3>
 DWORD nMaterials;
 DWORD nFaceIndexes;
 array DWORD faceIndexes[nFaceIndexes];
 [Material <3d82ab4d-62da-11cf-ab39-0020af71e433>]
}

template TextureFilename {
 <a42790e1-7810-11cf-8f52-0040333594a3>
 STRING filename;
}


Frame hov_t01_to {
 

 FrameTransformMatrix relative {
  -0.000000,0.000000,-0.100705,0.000000,0.000000,0.100705,0.000000,0.000000,0.100705,0.000000,-0.000000,0.000000,-5.332675,7.598433,-1.277295,1.000000;;
 }

 ObjectMatrixComment object {
  1.000000,0.000000,0.000000,0.000000,0.000000,1.000000,0.000000,0.000000,0.000000,0.000000,1.000000,0.000000,0.000002,0.000000,0.000000,1.000000;;
 }

 Mesh mesh_h {
  384;
  -17.900043;31.421213;-4.653511;,
  -18.508722;31.241568;-21.826592;,
  0.000003;32.921744;-4.617000;,
  -22.207749;31.347664;-18.298538;,
  -21.768157;31.459206;-8.276428;,
  -31.359485;24.924110;-8.310272;,
  -19.865288;25.033843;29.701053;,
  -17.335416;29.661101;9.841961;,
  0.000004;25.170013;31.796685;,
  0.000003;32.921744;-4.617000;,
  0.000002;30.636810;9.983353;,
  -17.335416;29.661101;9.841961;,
  0.000004;12.663536;40.708528;,
  -22.074314;12.716950;37.928186;,
  -19.865288;25.033843;29.701053;,
  0.000004;25.170013;31.796685;,
  -28.027571;12.685822;12.764637;,
  -31.511750;12.685822;-4.823761;,
  -27.425795;22.198112;-4.823750;,
  -23.671010;22.217987;11.235070;,
  -35.260352;16.177651;-8.327797;,
  -35.223331;16.178658;-17.072189;,
  -31.210102;25.115456;-18.323334;,
  -31.359485;24.924110;-8.310272;,
  -23.671010;22.217987;11.235070;,
  -17.623981;28.378173;-4.823753;,
  -16.765590;26.745803;9.130466;,
  -19.865288;25.033843;29.701053;,
  -22.074314;12.716950;37.928186;,
  -33.463706;12.778466;14.477005;,
  -28.246915;24.914208;12.412705;,
  0.000002;32.930214;-21.808442;,
  -17.335416;29.661101;9.841961;,
  -19.865288;25.033843;29.701053;,
  -28.246915;24.914208;12.412705;,
  -31.210102;25.115456;-18.323334;,
  -27.425795;22.198112;-4.823750;,
  -17.900043;31.421213;-4.653511;,
  0.000002;30.636810;9.983353;,
  -27.348602;22.204040;-41.638656;,
  -18.205325;28.017523;-60.607149;,
  -18.211216;27.621558;-41.633491;,
  0.000002;27.661002;-60.599654;,
  0.000003;29.311357;-41.626077;,
  -31.438419;12.689346;-41.643875;,
  -18.202858;18.101768;-60.607149;,
  -18.205325;28.017523;-60.607149;,
  -27.348602;22.204040;-41.638656;,
  -18.202858;18.101768;-60.607149;,
  0.000002;18.101768;-60.599654;,
  0.000002;27.661002;-60.599654;,
  -18.205325;28.017523;-60.607149;,
  0.000003;4.731575;44.848714;,
  -22.245792;5.063438;42.683408;,
  -22.074314;12.716950;37.928186;,
  0.000004;12.663536;40.708528;,
  -28.027571;12.685822;12.764637;,
  -29.888989;6.284645;-4.823761;,
  -31.511750;12.685822;-4.823761;,
  -26.885370;6.284645;10.023914;,
  -29.888989;6.284645;-4.823761;,
  -29.835568;6.284645;-16.291634;,
  -31.449786;12.685822;-20.092736;,
  -31.511750;12.685822;-4.823761;,
  -22.245792;5.063438;42.683408;,
  -34.676099;5.422722;11.734207;,
  -33.463706;12.778466;14.477005;,
  -22.074314;12.716950;37.928186;,
  -29.835568;6.284645;-16.291634;,
  -18.835613;6.284645;-22.110038;,
  -18.220499;11.557014;-25.909766;,
  -31.449786;12.685822;-20.092736;,
  0.000002;6.284645;-22.103706;,
  0.000003;11.057320;-25.902352;,
  -18.220498;28.195069;-21.816925;,
  -27.357565;22.198112;-21.822059;,
  -27.348602;22.204040;-41.638656;,
  -18.211216;27.621558;-41.633491;,
  -27.357565;22.198112;-21.822059;,
  -31.449786;12.685822;-20.092736;,
  -31.438419;12.689346;-41.643875;,
  -27.348602;22.204040;-41.638656;,
  0.000002;29.884864;-21.809509;,
  -18.220498;28.195069;-21.816925;,
  -18.211216;27.621558;-41.633491;,
  0.000003;29.311357;-41.626077;,
  -31.449786;12.685822;-20.092736;,
  -18.220499;11.557014;-25.909766;,
  -18.208950;11.401100;-41.633491;,
  -31.438419;12.689346;-41.643875;,
  -18.220499;11.557014;-25.909766;,
  0.000003;11.057320;-25.902352;,
  0.000003;11.270195;-41.626077;,
  -18.208950;11.401100;-41.633491;,
  -31.438419;12.689346;-41.643875;,
  -18.208950;11.401100;-41.633491;,
  -18.202858;18.101768;-60.607149;,
  0.000003;11.270195;-41.626077;,
  0.000002;18.101768;-60.599654;,
  0.000003;0.740212;14.804890;,
  -17.455758;0.740212;10.234810;,
  -17.455758;4.376137;29.591254;,
  0.000004;3.790329;32.019706;,
  -26.885370;6.284645;10.023914;,
  -17.455758;4.376137;29.591254;,
  -17.455758;0.740212;10.234810;,
  -17.455758;0.740212;-4.382187;,
  -29.888989;6.284645;-4.823761;,
  -26.885370;6.284645;10.023914;,
  0.000002;6.284645;-22.103706;,
  -18.835613;6.284645;-22.110038;,
  0.000004;0.740212;-7.526573;,
  -29.835568;6.284645;-16.291634;,
  -4.069023;19.519027;50.168144;,
  0.000003;20.138802;118.171712;,
  -4.069003;19.519027;118.171712;,
  0.000003;19.679848;50.168160;,
  0.000003;14.443429;50.168144;,
  -4.077388;15.076622;118.171712;,
  0.000003;14.443405;118.171712;,
  -4.077404;15.076622;50.168141;,
  -4.077404;15.076622;50.168141;,
  -4.069003;19.519027;118.171712;,
  -4.077388;15.076622;118.171712;,
  -4.069023;19.519027;50.168144;,
  0.000003;21.333595;141.147187;,
  0.000003;13.246132;141.147187;,
  -6.073889;14.145302;141.147187;,
  -6.057480;20.453499;141.147187;,
  -4.069003;19.519027;118.171712;,
  0.000003;20.138802;118.171712;,
  0.000003;21.333595;121.554112;,
  -7.251068;20.453499;121.554150;,
  0.000003;14.443405;118.171712;,
  -4.077388;15.076622;118.171712;,
  -7.267442;14.145302;121.554150;,
  0.000003;13.246139;121.554112;,
  -7.267442;14.145302;121.554150;,
  -4.069003;19.519027;118.171712;,
  -7.251068;20.453499;121.554150;,
  -7.251068;20.453499;121.554150;,
  0.000003;21.333595;121.554112;,
  0.000003;21.333595;141.147187;,
  -6.057480;20.453499;141.147187;,
  0.000003;13.246139;121.554112;,
  -7.267442;14.145302;121.554150;,
  -6.073889;14.145302;141.147187;,
  0.000003;13.246132;141.147187;,
  -6.057480;20.453499;141.147187;,
  -6.073889;14.145302;141.147187;,
  -7.267442;14.145302;121.554150;,
  -18.220498;28.195069;-21.816925;,
  -17.623981;28.378173;-4.823753;,
  -21.768157;31.459206;-8.276428;,
  -22.207749;31.347664;-18.298538;,
  -17.623981;28.378173;-4.823753;,
  -27.425795;22.198112;-4.823750;,
  -31.359485;24.924110;-8.310272;,
  -21.768157;31.459206;-8.276428;,
  -27.425795;22.198112;-4.823750;,
  -31.511750;12.685822;-4.823761;,
  -35.260352;16.177651;-8.327797;,
  -31.359485;24.924110;-8.310272;,
  -31.511750;12.685822;-4.823761;,
  -31.449786;12.685822;-20.092736;,
  -35.223331;16.178658;-17.072189;,
  -35.260352;16.177651;-8.327797;,
  -31.449786;12.685822;-20.092736;,
  -27.357565;22.198112;-21.822059;,
  -31.210102;25.115456;-18.323334;,
  -35.223331;16.178658;-17.072189;,
  -27.357565;22.198112;-21.822059;,
  -18.220498;28.195069;-21.816925;,
  -22.207749;31.347664;-18.298538;,
  -31.210102;25.115456;-18.323334;,
  -17.623981;28.378173;-4.823753;,
  -18.220498;28.195069;-21.816925;,
  -18.508722;31.241568;-21.826592;,
  -17.900043;31.421213;-4.653511;,
  -28.027571;12.685822;12.764637;,
  -23.671010;22.217987;11.235070;,
  -28.246915;24.914208;12.412705;,
  -33.463706;12.778466;14.477005;,
  -18.220498;28.195069;-21.816925;,
  0.000002;29.884864;-21.809509;,
  0.000002;32.930214;-21.808442;,
  -18.508722;31.241568;-21.826592;,
  -16.765590;26.745803;9.130466;,
  -17.335416;29.661101;9.841961;,
  -16.765590;26.745803;9.130466;,
  -17.335416;29.661101;9.841961;,
  0.000004;3.790329;32.019706;,
  -17.455758;4.376137;29.591254;,
  -22.245792;5.063438;42.683408;,
  0.000003;4.731575;44.848714;,
  -26.885370;6.284645;10.023914;,
  -34.676099;5.422722;11.734207;,
  -26.885370;6.284645;10.023914;,
  -34.676099;5.422722;11.734207;,
  -7.251068;20.453499;121.554150;,
  -4.077388;15.076622;118.171712;,
  -10.645518;22.604890;48.828064;,
  0.000004;22.451691;31.111952;,
  0.000003;22.741051;50.538688;,
  0.000002;10.979034;57.391885;,
  -13.157179;11.032440;54.996538;,
  -10.645518;22.604890;48.828064;,
  0.000003;22.741051;50.538688;,
  -13.747939;22.447456;30.024598;,
  -16.259602;10.874992;39.185014;,
  -13.747939;22.447456;30.024598;,
  -10.645518;22.604890;48.828064;,
  -13.157179;11.032440;54.996538;,
  0.000004;10.979034;40.479370;,
  -16.259602;10.874992;39.185014;,
  -13.157179;11.032440;54.996538;,
  0.000002;10.979034;57.391885;,
  17.900051;31.421213;-4.653511;,
  18.508728;31.241568;-21.826598;,
  22.207757;31.347664;-18.298531;,
  31.359498;24.924110;-8.310272;,
  21.768165;31.459206;-8.276428;,
  19.865296;25.033843;29.701050;,
  17.335419;29.661101;9.841961;,
  17.335419;29.661101;9.841961;,
  19.865296;25.033843;29.701050;,
  22.074322;12.716950;37.928186;,
  28.027581;12.685822;12.764637;,
  27.425808;22.198112;-4.823753;,
  31.511757;12.685822;-4.823765;,
  23.671016;22.217987;11.235070;,
  35.260365;16.177651;-8.327801;,
  31.210109;25.115456;-18.323334;,
  35.223338;16.178658;-17.072197;,
  31.359498;24.924110;-8.310272;,
  23.671016;22.217987;11.235070;,
  16.765602;26.745803;9.130470;,
  17.623989;28.378173;-4.823753;,
  19.865296;25.033843;29.701050;,
  33.463712;12.778466;14.477010;,
  22.074322;12.716950;37.928186;,
  28.246922;24.914208;12.412701;,
  17.335419;29.661101;9.841961;,
  28.246922;24.914208;12.412701;,
  19.865296;25.033843;29.701050;,
  31.210109;25.115456;-18.323334;,
  27.425808;22.198112;-4.823753;,
  17.900051;31.421213;-4.653511;,
  27.348614;22.204040;-41.638656;,
  18.211224;27.621558;-41.633491;,
  18.205330;28.017523;-60.607149;,
  31.438422;12.689346;-41.643875;,
  18.205330;28.017523;-60.607149;,
  18.202862;18.101768;-60.607149;,
  27.348614;22.204040;-41.638656;,
  18.202862;18.101768;-60.607149;,
  18.205330;28.017523;-60.607149;,
  22.074322;12.716950;37.928186;,
  22.245797;5.063438;42.683402;,
  28.027581;12.685822;12.764637;,
  31.511757;12.685822;-4.823765;,
  29.888995;6.284645;-4.823765;,
  26.885376;6.284645;10.023914;,
  29.888995;6.284645;-4.823765;,
  31.449795;12.685822;-20.092736;,
  29.835574;6.284645;-16.291642;,
  31.511757;12.685822;-4.823765;,
  22.245797;5.063438;42.683402;,
  33.463712;12.778466;14.477010;,
  34.676106;5.422722;11.734211;,
  22.074322;12.716950;37.928186;,
  29.835574;6.284645;-16.291642;,
  18.220504;11.557014;-25.909766;,
  18.835621;6.284645;-22.110046;,
  31.449795;12.685822;-20.092736;,
  18.220504;28.195069;-21.816933;,
  27.348614;22.204040;-41.638656;,
  27.357571;22.198112;-21.822059;,
  18.211224;27.621558;-41.633491;,
  27.357571;22.198112;-21.822059;,
  31.438422;12.689346;-41.643875;,
  31.449795;12.685822;-20.092736;,
  27.348614;22.204040;-41.638656;,
  18.211224;27.621558;-41.633491;,
  18.220504;28.195069;-21.816933;,
  31.449795;12.685822;-20.092736;,
  18.208954;11.401100;-41.633491;,
  18.220504;11.557014;-25.909766;,
  31.438422;12.689346;-41.643875;,
  18.220504;11.557014;-25.909766;,
  18.208954;11.401100;-41.633491;,
  31.438422;12.689346;-41.643875;,
  18.202862;18.101768;-60.607149;,
  18.208954;11.401100;-41.633491;,
  17.455765;4.376137;29.591254;,
  17.455765;0.740212;10.234810;,
  26.885376;6.284645;10.023914;,
  17.455765;0.740212;10.234810;,
  17.455765;4.376137;29.591254;,
  17.455768;0.740212;-4.382187;,
  26.885376;6.284645;10.023914;,
  29.888995;6.284645;-4.823765;,
  18.835621;6.284645;-22.110046;,
  29.835574;6.284645;-16.291642;,
  4.069028;19.519027;50.168144;,
  4.069009;19.519027;118.171712;,
  4.077394;15.076622;118.171712;,
  4.077409;15.076622;50.168141;,
  4.077409;15.076622;50.168141;,
  4.077394;15.076622;118.171712;,
  4.069009;19.519027;118.171712;,
  4.069028;19.519027;50.168144;,
  6.073894;14.145302;141.147187;,
  6.057485;20.453499;141.147187;,
  4.069009;19.519027;118.171712;,
  7.251073;20.453499;121.554150;,
  7.267447;14.145302;121.554150;,
  4.077394;15.076622;118.171712;,
  7.267447;14.145302;121.554150;,
  7.251073;20.453499;121.554150;,
  4.069009;19.519027;118.171712;,
  7.251073;20.453499;121.554150;,
  6.057485;20.453499;141.147187;,
  6.073894;14.145302;141.147187;,
  7.267447;14.145302;121.554150;,
  6.057485;20.453499;141.147187;,
  7.267447;14.145302;121.554150;,
  6.073894;14.145302;141.147187;,
  18.220504;28.195069;-21.816933;,
  21.768165;31.459206;-8.276428;,
  17.623989;28.378173;-4.823753;,
  22.207757;31.347664;-18.298531;,
  17.623989;28.378173;-4.823753;,
  31.359498;24.924110;-8.310272;,
  27.425808;22.198112;-4.823753;,
  21.768165;31.459206;-8.276428;,
  27.425808;22.198112;-4.823753;,
  35.260365;16.177651;-8.327801;,
  31.511757;12.685822;-4.823765;,
  31.359498;24.924110;-8.310272;,
  31.511757;12.685822;-4.823765;,
  35.223338;16.178658;-17.072197;,
  31.449795;12.685822;-20.092736;,
  35.260365;16.177651;-8.327801;,
  31.449795;12.685822;-20.092736;,
  31.210109;25.115456;-18.323334;,
  27.357571;22.198112;-21.822059;,
  35.223338;16.178658;-17.072197;,
  27.357571;22.198112;-21.822059;,
  22.207757;31.347664;-18.298531;,
  18.220504;28.195069;-21.816933;,
  31.210109;25.115456;-18.323334;,
  17.623989;28.378173;-4.823753;,
  18.508728;31.241568;-21.826598;,
  18.220504;28.195069;-21.816933;,
  17.900051;31.421213;-4.653511;,
  28.027581;12.685822;12.764637;,
  28.246922;24.914208;12.412701;,
  23.671016;22.217987;11.235070;,
  33.463712;12.778466;14.477010;,
  18.220504;28.195069;-21.816933;,
  18.508728;31.241568;-21.826598;,
  17.335419;29.661101;9.841961;,
  16.765602;26.745803;9.130470;,
  16.765602;26.745803;9.130470;,
  17.335419;29.661101;9.841961;,
  22.245797;5.063438;42.683402;,
  17.455765;4.376137;29.591254;,
  26.885376;6.284645;10.023914;,
  34.676106;5.422722;11.734211;,
  34.676106;5.422722;11.734211;,
  26.885376;6.284645;10.023914;,
  7.251073;20.453499;121.554150;,
  4.077394;15.076622;118.171712;,
  10.645520;22.604890;48.828064;,
  10.645520;22.604890;48.828064;,
  13.157186;11.032440;54.996538;,
  13.747946;22.447456;30.024598;,
  16.259605;10.874992;39.185014;,
  10.645520;22.604890;48.828064;,
  13.747946;22.447456;30.024598;,
  13.157186;11.032440;54.996538;,
  13.157186;11.032440;54.996538;,
  16.259605;10.874992;39.185014;;
  232;
  3;0,2,1;,
  3;3,5,4;,
  3;6,8,7;,
  3;9,11,10;,
  3;12,14,13;,
  3;14,12,15;,
  3;16,18,17;,
  3;18,16,19;,
  3;20,22,21;,
  3;22,20,23;,
  3;24,26,25;,
  3;27,29,28;,
  3;29,27,30;,
  3;1,2,31;,
  3;32,34,33;,
  3;3,35,5;,
  3;36,24,25;,
  3;9,37,11;,
  3;8,38,7;,
  3;39,41,40;,
  3;40,43,42;,
  3;43,40,41;,
  3;44,46,45;,
  3;46,44,47;,
  3;48,50,49;,
  3;50,48,51;,
  3;52,54,53;,
  3;54,52,55;,
  3;56,58,57;,
  3;57,59,56;,
  3;60,62,61;,
  3;62,60,63;,
  3;64,66,65;,
  3;66,64,67;,
  3;68,70,69;,
  3;70,68,71;,
  3;69,73,72;,
  3;73,69,70;,
  3;74,76,75;,
  3;76,74,77;,
  3;78,80,79;,
  3;80,78,81;,
  3;82,84,83;,
  3;84,82,85;,
  3;86,88,87;,
  3;88,86,89;,
  3;90,92,91;,
  3;92,90,93;,
  3;94,96,95;,
  3;95,98,97;,
  3;98,95,96;,
  3;99,101,100;,
  3;101,99,102;,
  3;103,105,104;,
  3;106,108,107;,
  3;108,106,100;,
  3;109,106,110;,
  3;106,109,111;,
  3;106,107,112;,
  3;112,110,106;,
  3;113,115,114;,
  3;113,114,116;,
  3;117,119,118;,
  3;117,118,120;,
  3;121,123,122;,
  3;121,122,124;,
  3;125,127,126;,
  3;125,128,127;,
  3;129,131,130;,
  3;131,129,132;,
  3;133,135,134;,
  3;135,133,136;,
  3;137,139,138;,
  3;140,142,141;,
  3;142,140,143;,
  3;144,146,145;,
  3;146,144,147;,
  3;148,150,149;,
  3;151,153,152;,
  3;153,151,154;,
  3;155,157,156;,
  3;157,155,158;,
  3;159,161,160;,
  3;161,159,162;,
  3;163,165,164;,
  3;165,163,166;,
  3;167,169,168;,
  3;169,167,170;,
  3;171,173,172;,
  3;173,171,174;,
  3;175,177,176;,
  3;177,175,178;,
  3;179,181,180;,
  3;181,179,182;,
  3;183,185,184;,
  3;185,183,186;,
  3;180,188,187;,
  3;188,180,181;,
  3;189,178,175;,
  3;178,189,190;,
  3;191,193,192;,
  3;193,191,194;,
  3;195,182,179;,
  3;182,195,196;,
  3;192,198,197;,
  3;198,192,193;,
  3;150,148,199;,
  3;138,200,137;,
  3;201,203,202;,
  3;204,206,205;,
  3;206,204,207;,
  3;201,202,208;,
  3;209,211,210;,
  3;211,209,212;,
  3;213,215,214;,
  3;215,213,216;,
  3;217,218,2;,
  3;219,221,220;,
  3;222,223,8;,
  3;9,10,224;,
  3;12,226,225;,
  3;225,15,12;,
  3;227,229,228;,
  3;228,230,227;,
  3;231,233,232;,
  3;232,234,231;,
  3;235,237,236;,
  3;238,240,239;,
  3;239,241,238;,
  3;218,31,2;,
  3;242,244,243;,
  3;219,220,245;,
  3;246,237,235;,
  3;9,224,247;,
  3;8,223,38;,
  3;248,250,249;,
  3;250,42,43;,
  3;43,249,250;,
  3;251,253,252;,
  3;252,254,251;,
  3;255,49,50;,
  3;50,256,255;,
  3;52,258,257;,
  3;257,55,52;,
  3;259,261,260;,
  3;261,259,262;,
  3;263,265,264;,
  3;264,266,263;,
  3;267,269,268;,
  3;268,270,267;,
  3;271,273,272;,
  3;272,274,271;,
  3;273,72,73;,
  3;73,272,273;,
  3;275,277,276;,
  3;276,278,275;,
  3;279,281,280;,
  3;280,282,279;,
  3;82,284,283;,
  3;283,85,82;,
  3;285,287,286;,
  3;286,288,285;,
  3;289,91,92;,
  3;92,290,289;,
  3;291,293,292;,
  3;293,97,98;,
  3;98,292,293;,
  3;99,295,294;,
  3;294,102,99;,
  3;296,298,297;,
  3;299,301,300;,
  3;300,295,299;,
  3;109,302,299;,
  3;299,111,109;,
  3;299,303,301;,
  3;303,299,302;,
  3;304,114,305;,
  3;304,116,114;,
  3;117,306,119;,
  3;117,307,306;,
  3;308,310,309;,
  3;308,311,310;,
  3;125,126,312;,
  3;125,312,313;,
  3;314,130,131;,
  3;131,315,314;,
  3;133,317,316;,
  3;316,136,133;,
  3;318,320,319;,
  3;321,141,142;,
  3;142,322,321;,
  3;144,324,323;,
  3;323,147,144;,
  3;325,327,326;,
  3;328,330,329;,
  3;329,331,328;,
  3;332,334,333;,
  3;333,335,332;,
  3;336,338,337;,
  3;337,339,336;,
  3;340,342,341;,
  3;341,343,340;,
  3;344,346,345;,
  3;345,347,344;,
  3;348,350,349;,
  3;349,351,348;,
  3;352,354,353;,
  3;353,355,352;,
  3;356,358,357;,
  3;357,359,356;,
  3;360,184,185;,
  3;185,361,360;,
  3;358,363,362;,
  3;362,357,358;,
  3;364,352,355;,
  3;355,365,364;,
  3;191,367,366;,
  3;366,194,191;,
  3;368,356,359;,
  3;359,369,368;,
  3;367,371,370;,
  3;370,366,367;,
  3;326,372,325;,
  3;320,318,373;,
  3;374,202,203;,
  3;204,376,375;,
  3;375,207,204;,
  3;374,377,202;,
  3;378,380,379;,
  3;379,381,378;,
  3;213,383,382;,
  3;382,216,213;;

  MeshNormals normals {
   384;
   -0.829318;9.879346;0.562240;,
   -0.864807;9.892230;-0.035690;,
   0.000000;9.906475;0.683459;,
   -5.618794;8.186630;0.116690;,
   -5.591050;8.204990;0.153917;,
   -5.623382;8.183563;0.110514;,
   -0.300096;9.674931;2.216077;,
   -0.573215;9.738249;1.855612;,
   -0.000000;9.658686;2.305460;,
   0.000000;9.906475;0.683459;,
   0.000000;9.731476;1.975785;,
   -0.573215;9.738249;1.855612;,
   -0.000000;5.712689;8.122225;,
   -1.010405;5.611592;8.129851;,
   -0.964199;5.660545;8.101476;,
   -0.000000;5.762560;8.086920;,
   -8.811074;4.147378;1.941552;,
   -8.976436;3.855778;1.778189;,
   -8.891536;4.008953;1.863935;,
   -8.712987;4.308206;2.031889;,
   -9.064680;4.053966;-0.048093;,
   -9.060475;4.063465;-0.037896;,
   -9.064869;4.053537;-0.048553;,
   -9.068750;4.044724;-0.058006;,
   -5.179711;8.377378;1.263126;,
   -5.214866;8.358606;1.242687;,
   -5.118308;8.409630;1.298619;,
   -8.128733;4.119152;3.944826;,
   -8.130044;4.102709;3.959233;,
   -8.127310;4.136441;3.929638;,
   -8.125463;4.158089;3.910561;,
   0.000000;9.930022;0.004896;,
   -3.571776;9.113925;1.668577;,
   -3.571776;9.113925;1.668577;,
   -3.571776;9.113926;1.668577;,
   -5.652139;8.164162;0.071688;,
   -5.256062;8.336314;1.218623;,
   -0.829318;9.879346;0.562240;,
   0.000000;9.731476;1.975785;,
   -5.138906;8.496827;-0.030634;,
   -1.535285;9.808144;-0.220394;,
   -3.075643;9.441622;-0.039345;,
   -0.000000;9.892670;-0.860485;,
   0.000000;9.925466;-0.300760;,
   -9.151790;3.463701;-1.689054;,
   -8.142526;-0.002025;-5.683718;,
   -8.461126;0.992884;-5.101852;,
   -8.984301;3.862772;-1.722412;,
   0.004085;0.000001;-9.930023;,
   0.000000;0.000000;-9.930024;,
   -0.000000;0.000000;-9.930024;,
   0.004084;0.000001;-9.930023;,
   0.000000;4.761486;8.713990;,
   -0.739838;5.237907;8.403710;,
   -0.826522;5.076634;8.494117;,
   0.000000;4.594837;8.803002;,
   -9.429941;-2.467207;1.895913;,
   -9.579095;-2.442463;0.938442;,
   -9.184811;-3.708113;0.703209;,
   -9.420174;-2.496825;1.905658;,
   -9.579095;-2.442463;0.938442;,
   -9.622149;-2.453086;-0.044823;,
   -8.547720;-5.053763;-0.036537;,
   -9.184811;-3.708113;0.703209;,
   -8.774142;2.206191;4.092987;,
   -9.213142;0.138161;3.701932;,
   -9.169627;0.486151;3.779809;,
   -8.571467;2.783012;4.170154;,
   -3.811284;-5.279846;-7.496847;,
   -2.375926;-5.489778;-7.926078;,
   -1.857101;-5.609114;-7.980876;,
   -3.740756;-5.375667;-7.464202;,
   0.000000;-6.183874;-7.769498;,
   0.000000;-6.103057;-7.833139;,
   -3.199269;9.398647;-0.188309;,
   -5.448656;8.301658;0.000022;,
   -5.138906;8.496827;-0.030634;,
   -3.075643;9.441622;-0.039345;,
   -9.122263;3.922968;-0.003832;,
   -9.122007;3.923562;-0.004170;,
   -9.151790;3.463701;-1.689054;,
   -8.984301;3.862772;-1.722412;,
   0.000000;9.925861;-0.287490;,
   -3.199269;9.398647;-0.188309;,
   -3.075643;9.441622;-0.039345;,
   0.000000;9.925466;-0.300760;,
   -0.878429;-9.890967;0.049952;,
   -0.519605;-9.916286;0.051334;,
   -0.484525;-9.781152;-1.643070;,
   -0.953003;-9.797274;-1.307878;,
   -0.519605;-9.916286;0.051334;,
   0.000000;-9.929114;-0.134425;,
   0.000000;-9.779936;-1.719949;,
   -0.484525;-9.781152;-1.643070;,
   -0.953003;-9.797274;-1.307878;,
   -0.484525;-9.781152;-1.643070;,
   -0.247537;-9.360348;-3.305747;,
   0.000000;-9.779936;-1.719949;,
   0.000000;-9.353766;-3.333532;,
   0.000000;-9.768099;1.785944;,
   -3.747225;-9.126538;1.126928;,
   -0.895057;-9.862999;0.724895;,
   0.000000;-9.866189;1.124131;,
   -2.751542;-9.541185;0.012921;,
   -0.895057;-9.862999;0.724895;,
   -3.747225;-9.126538;1.126928;,
   -2.641841;-9.473028;-1.373962;,
   -4.052363;-9.058108;0.366597;,
   -2.751542;-9.541185;0.012921;,
   -0.000000;-9.387433;-3.237510;,
   -0.660429;-9.470872;-2.910636;,
   -0.000000;-9.281338;-3.530172;,
   -2.565937;-9.436263;-1.725766;,
   -0.434674;9.920296;-0.064402;,
   -0.000000;9.782292;-1.706495;,
   -1.346264;9.613227;-2.092563;,
   -0.000000;9.929797;-0.067016;,
   0.000000;-9.930023;0.000000;,
   -1.482552;-9.546426;-2.296334;,
   0.000000;-9.766036;-1.797193;,
   -1.523802;-9.812410;0.000000;,
   -9.930006;0.018734;0.000003;,
   -9.930006;0.018742;0.000002;,
   -9.930007;0.018742;0.000002;,
   -9.930006;0.018734;0.000003;,
   0.000000;0.000000;9.930024;,
   0.000000;0.000000;9.930024;,
   0.000000;0.000000;9.930024;,
   0.000000;0.000000;9.930024;,
   -1.346264;9.613227;-2.092563;,
   -0.000000;9.782292;-1.706495;,
   -0.000000;9.778488;-1.728157;,
   -1.215082;9.766042;-1.324141;,
   0.000000;-9.766036;-1.797193;,
   -1.482552;-9.546426;-2.296334;,
   -1.258407;-9.767873;-1.269034;,
   0.000000;-9.795363;-1.629789;,
   -7.227999;0.016305;-6.808901;,
   -7.228315;0.016704;-6.808565;,
   -7.229951;0.018774;-6.806822;,
   -1.215082;9.766042;-1.324141;,
   -0.000000;9.778488;-1.728157;,
   0.000000;9.929791;0.067875;,
   -1.427695;9.826469;0.086974;,
   0.000000;-9.795363;-1.629789;,
   -1.258407;-9.767873;-1.269034;,
   -1.401821;-9.830563;0.016575;,
   0.000000;-9.930023;-0.000000;,
   -9.911616;0.025770;0.603792;,
   -9.911618;0.025781;0.603788;,
   -9.911616;0.025737;0.603802;,
   6.006451;7.900535;-0.330826;,
   6.080633;7.844902;-0.297979;,
   6.060955;7.859778;-0.306721;,
   5.963202;7.932414;-0.349843;,
   -3.260154;4.877378;8.011738;,
   -3.287349;5.213858;7.785526;,
   -3.274957;5.053121;7.895948;,
   -3.246021;4.722070;8.109919;,
   -5.392791;2.363947;7.995933;,
   -5.363238;2.303743;8.033294;,
   -5.377895;2.333537;8.014874;,
   -5.408511;2.396183;7.975694;,
   -9.184811;-3.708113;0.703209;,
   -8.547720;-5.053763;-0.036537;,
   -6.756421;-7.277045;-0.027801;,
   -6.753541;-7.279712;-0.029434;,
   -5.662351;1.256569;-8.060037;,
   -6.103536;1.219135;-7.737309;,
   -5.878939;1.238853;-7.906245;,
   -5.407110;1.275909;-8.230469;,
   -3.350153;4.941423;-7.934998;,
   -3.208266;4.895033;-8.021910;,
   -3.270499;4.915523;-7.984162;,
   -3.413130;4.961638;-7.895446;,
   -9.877881;-0.921080;0.429490;,
   -9.879599;-0.933564;0.356865;,
   -9.879768;-0.931641;0.357198;,
   -9.872139;-0.991101;0.404927;,
   -2.887846;1.461649;-9.387720;,
   -2.606179;0.075106;-9.581626;,
   -2.603414;-0.121526;-9.581902;,
   -2.782835;1.956542;-9.329156;,
   0.011601;-0.026847;-9.929982;,
   0.000000;0.003483;-9.930023;,
   -0.000000;-0.000247;-9.930024;,
   0.012504;-0.030324;-9.929970;,
   -3.740171;1.484507;-9.078146;,
   -3.314278;1.080837;-9.297995;,
   -9.761390;-1.812479;0.188605;,
   -9.737910;-1.938490;0.143931;,
   0.000000;-9.866189;1.124131;,
   -0.895057;-9.862999;0.724895;,
   -0.499292;-9.908833;0.413660;,
   0.000000;-9.903403;0.726599;,
   -2.520390;3.563250;-8.919430;,
   -2.364745;3.709307;-8.902494;,
   -2.751542;-9.541185;0.012921;,
   0.351473;-9.881242;-0.918072;,
   -9.911616;0.025726;0.603806;,
   -7.225891;0.013639;-6.811144;,
   -0.063498;9.929046;-0.124015;,
   0.000000;9.929470;-0.104769;,
   0.000000;9.928922;-0.147892;,
   -0.000000;-4.599213;8.800717;,
   -5.996963;-4.041156;6.805209;,
   -6.729682;4.614466;5.658926;,
   -0.000000;4.999106;8.579879;,
   0.003564;9.929670;-0.083723;,
   -9.356557;-2.864378;1.689841;,
   -9.277786;3.204098;1.503934;,
   -6.729682;4.614466;5.658926;,
   -5.996963;-4.041156;6.805209;,
   -0.000000;-9.929904;0.048617;,
   -9.356557;-2.864378;1.689841;,
   -5.996963;-4.041156;6.805209;,
   -0.000000;-4.599213;8.800717;,
   0.829318;9.879346;0.562240;,
   0.864807;9.892230;-0.035690;,
   5.618794;8.186630;0.116690;,
   5.623382;8.183564;0.110514;,
   5.591050;8.204990;0.153917;,
   0.300096;9.674931;2.216077;,
   0.573215;9.738249;1.855612;,
   0.573215;9.738249;1.855612;,
   0.964199;5.660545;8.101476;,
   1.010405;5.611592;8.129851;,
   8.811074;4.147378;1.941552;,
   8.891536;4.008953;1.863935;,
   8.976436;3.855778;1.778188;,
   8.712987;4.308207;2.031889;,
   9.064679;4.053966;-0.048093;,
   9.064869;4.053538;-0.048553;,
   9.060475;4.063465;-0.037896;,
   9.068750;4.044724;-0.058006;,
   5.179711;8.377378;1.263126;,
   5.118308;8.409630;1.298619;,
   5.214866;8.358605;1.242687;,
   8.128734;4.119152;3.944826;,
   8.127312;4.136441;3.929638;,
   8.130046;4.102710;3.959232;,
   8.125465;4.158089;3.910561;,
   3.571775;9.113925;1.668576;,
   3.571776;9.113926;1.668576;,
   3.571776;9.113926;1.668576;,
   5.652139;8.164163;0.071688;,
   5.256062;8.336314;1.218623;,
   0.829318;9.879346;0.562240;,
   5.138906;8.496827;-0.030634;,
   3.075643;9.441622;-0.039345;,
   1.535285;9.808144;-0.220394;,
   9.151790;3.463700;-1.689055;,
   8.461128;0.992885;-5.101852;,
   8.142527;-0.002024;-5.683716;,
   8.984302;3.862771;-1.722413;,
   -0.004085;0.000001;-9.930023;,
   -0.004084;0.000001;-9.930023;,
   0.826522;5.076634;8.494117;,
   0.739839;5.237907;8.403710;,
   9.429940;-2.467209;1.895913;,
   9.184811;-3.708112;0.703210;,
   9.579095;-2.442463;0.938443;,
   9.420174;-2.496828;1.905660;,
   9.579095;-2.442463;0.938443;,
   8.547721;-5.053760;-0.036535;,
   9.622150;-2.453084;-0.044820;,
   9.184811;-3.708112;0.703210;,
   8.774142;2.206191;4.092986;,
   9.169628;0.486151;3.779809;,
   9.213142;0.138161;3.701932;,
   8.571466;2.783012;4.170154;,
   3.811283;-5.279846;-7.496848;,
   1.857100;-5.609114;-7.980877;,
   2.375925;-5.489778;-7.926077;,
   3.740755;-5.375667;-7.464204;,
   3.199269;9.398647;-0.188309;,
   5.138906;8.496827;-0.030634;,
   5.448656;8.301658;0.000022;,
   3.075643;9.441622;-0.039345;,
   9.122263;3.922969;-0.003834;,
   9.151790;3.463700;-1.689055;,
   9.122006;3.923565;-0.004172;,
   8.984302;3.862771;-1.722413;,
   3.075643;9.441622;-0.039345;,
   3.199269;9.398647;-0.188309;,
   0.878429;-9.890967;0.049952;,
   0.484525;-9.781152;-1.643070;,
   0.519605;-9.916287;0.051334;,
   0.953003;-9.797275;-1.307878;,
   0.519605;-9.916287;0.051334;,
   0.484525;-9.781152;-1.643070;,
   0.953003;-9.797275;-1.307878;,
   0.247537;-9.360348;-3.305747;,
   0.484525;-9.781152;-1.643070;,
   0.895057;-9.862999;0.724895;,
   3.747226;-9.126538;1.126928;,
   2.751543;-9.541185;0.012921;,
   3.747226;-9.126538;1.126928;,
   0.895057;-9.862999;0.724895;,
   2.641840;-9.473028;-1.373961;,
   2.751543;-9.541185;0.012921;,
   4.052363;-9.058108;0.366598;,
   0.660428;-9.470870;-2.910636;,
   2.565937;-9.436264;-1.725766;,
   0.434674;9.920296;-0.064402;,
   1.346264;9.613227;-2.092562;,
   1.482552;-9.546426;-2.296334;,
   1.523802;-9.812410;0.000000;,
   9.930006;0.018734;0.000003;,
   9.930007;0.018741;0.000002;,
   9.930006;0.018741;0.000002;,
   9.930006;0.018734;0.000003;,
   0.000000;0.000000;9.930024;,
   0.000000;0.000000;9.930024;,
   1.346264;9.613227;-2.092562;,
   1.215082;9.766042;-1.324141;,
   1.258407;-9.767873;-1.269035;,
   1.482552;-9.546426;-2.296334;,
   7.228001;0.016305;-6.808899;,
   7.229952;0.018774;-6.806822;,
   7.228316;0.016704;-6.808564;,
   1.215082;9.766042;-1.324141;,
   1.427695;9.826469;0.086974;,
   1.401822;-9.830563;0.016575;,
   1.258407;-9.767873;-1.269035;,
   9.911616;0.025770;0.603791;,
   9.911616;0.025736;0.603802;,
   9.911618;0.025781;0.603788;,
   -6.006451;7.900536;-0.330826;,
   -6.060954;7.859778;-0.306721;,
   -6.080632;7.844902;-0.297979;,
   -5.963202;7.932414;-0.349843;,
   3.260154;4.877379;8.011737;,
   3.274956;5.053121;7.895949;,
   3.287348;5.213859;7.785526;,
   3.246020;4.722069;8.109918;,
   5.392792;2.363948;7.995932;,
   5.377895;2.333537;8.014875;,
   5.363239;2.303743;8.033294;,
   5.408512;2.396183;7.975694;,
   9.184811;-3.708112;0.703210;,
   6.756423;-7.277043;-0.027799;,
   8.547721;-5.053760;-0.036535;,
   6.753540;-7.279712;-0.029434;,
   5.662351;1.256571;-8.060036;,
   5.878938;1.238855;-7.906244;,
   6.103535;1.219137;-7.737309;,
   5.407112;1.275910;-8.230466;,
   3.350153;4.941422;-7.934997;,
   3.270499;4.915523;-7.984162;,
   3.208266;4.895032;-8.021912;,
   3.413130;4.961638;-7.895446;,
   9.877881;-0.921080;0.429490;,
   9.879770;-0.931635;0.357198;,
   9.879601;-0.933558;0.356865;,
   9.872139;-0.991101;0.404927;,
   2.887847;1.461649;-9.387722;,
   2.603414;-0.121525;-9.581902;,
   2.606179;0.075107;-9.581628;,
   2.782835;1.956542;-9.329158;,
   -0.011601;-0.026847;-9.929982;,
   -0.012504;-0.030324;-9.929969;,
   3.314279;1.080839;-9.297997;,
   3.740172;1.484509;-9.078145;,
   9.761390;-1.812474;0.188607;,
   9.737911;-1.938484;0.143933;,
   0.499292;-9.908833;0.413660;,
   0.895057;-9.862999;0.724895;,
   2.520389;3.563250;-8.919433;,
   2.364744;3.709306;-8.902495;,
   -0.351473;-9.881242;-0.918072;,
   2.751543;-9.541185;0.012921;,
   9.911616;0.025725;0.603806;,
   7.225893;0.013638;-6.811142;,
   0.063498;9.929046;-0.124015;,
   6.729682;4.614466;5.658928;,
   5.996962;-4.041157;6.805209;,
   -0.003564;9.929670;-0.083723;,
   9.356557;-2.864377;1.689841;,
   6.729682;4.614466;5.658928;,
   9.277786;3.204099;1.503935;,
   5.996962;-4.041157;6.805209;,
   5.996962;-4.041157;6.805209;,
   9.356557;-2.864377;1.689841;;
   232;
   3;0,2,1;,
   3;3,5,4;,
   3;6,8,7;,
   3;9,11,10;,
   3;12,14,13;,
   3;14,12,15;,
   3;16,18,17;,
   3;18,16,19;,
   3;20,22,21;,
   3;22,20,23;,
   3;24,26,25;,
   3;27,29,28;,
   3;29,27,30;,
   3;1,2,31;,
   3;32,34,33;,
   3;3,35,5;,
   3;36,24,25;,
   3;9,37,11;,
   3;8,38,7;,
   3;39,41,40;,
   3;40,43,42;,
   3;43,40,41;,
   3;44,46,45;,
   3;46,44,47;,
   3;48,50,49;,
   3;50,48,51;,
   3;52,54,53;,
   3;54,52,55;,
   3;56,58,57;,
   3;57,59,56;,
   3;60,62,61;,
   3;62,60,63;,
   3;64,66,65;,
   3;66,64,67;,
   3;68,70,69;,
   3;70,68,71;,
   3;69,73,72;,
   3;73,69,70;,
   3;74,76,75;,
   3;76,74,77;,
   3;78,80,79;,
   3;80,78,81;,
   3;82,84,83;,
   3;84,82,85;,
   3;86,88,87;,
   3;88,86,89;,
   3;90,92,91;,
   3;92,90,93;,
   3;94,96,95;,
   3;95,98,97;,
   3;98,95,96;,
   3;99,101,100;,
   3;101,99,102;,
   3;103,105,104;,
   3;106,108,107;,
   3;108,106,100;,
   3;109,106,110;,
   3;106,109,111;,
   3;106,107,112;,
   3;112,110,106;,
   3;113,115,114;,
   3;113,114,116;,
   3;117,119,118;,
   3;117,118,120;,
   3;121,123,122;,
   3;121,122,124;,
   3;125,127,126;,
   3;125,128,127;,
   3;129,131,130;,
   3;131,129,132;,
   3;133,135,134;,
   3;135,133,136;,
   3;137,139,138;,
   3;140,142,141;,
   3;142,140,143;,
   3;144,146,145;,
   3;146,144,147;,
   3;148,150,149;,
   3;151,153,152;,
   3;153,151,154;,
   3;155,157,156;,
   3;157,155,158;,
   3;159,161,160;,
   3;161,159,162;,
   3;163,165,164;,
   3;165,163,166;,
   3;167,169,168;,
   3;169,167,170;,
   3;171,173,172;,
   3;173,171,174;,
   3;175,177,176;,
   3;177,175,178;,
   3;179,181,180;,
   3;181,179,182;,
   3;183,185,184;,
   3;185,183,186;,
   3;180,188,187;,
   3;188,180,181;,
   3;189,178,175;,
   3;178,189,190;,
   3;191,193,192;,
   3;193,191,194;,
   3;195,182,179;,
   3;182,195,196;,
   3;192,198,197;,
   3;198,192,193;,
   3;150,148,199;,
   3;138,200,137;,
   3;201,203,202;,
   3;204,206,205;,
   3;206,204,207;,
   3;201,202,208;,
   3;209,211,210;,
   3;211,209,212;,
   3;213,215,214;,
   3;215,213,216;,
   3;217,218,2;,
   3;219,221,220;,
   3;222,223,8;,
   3;9,10,224;,
   3;12,226,225;,
   3;225,15,12;,
   3;227,229,228;,
   3;228,230,227;,
   3;231,233,232;,
   3;232,234,231;,
   3;235,237,236;,
   3;238,240,239;,
   3;239,241,238;,
   3;218,31,2;,
   3;242,244,243;,
   3;219,220,245;,
   3;246,237,235;,
   3;9,224,247;,
   3;8,223,38;,
   3;248,250,249;,
   3;250,42,43;,
   3;43,249,250;,
   3;251,253,252;,
   3;252,254,251;,
   3;255,49,50;,
   3;50,256,255;,
   3;52,258,257;,
   3;257,55,52;,
   3;259,261,260;,
   3;261,259,262;,
   3;263,265,264;,
   3;264,266,263;,
   3;267,269,268;,
   3;268,270,267;,
   3;271,273,272;,
   3;272,274,271;,
   3;273,72,73;,
   3;73,272,273;,
   3;275,277,276;,
   3;276,278,275;,
   3;279,281,280;,
   3;280,282,279;,
   3;82,284,283;,
   3;283,85,82;,
   3;285,287,286;,
   3;286,288,285;,
   3;289,91,92;,
   3;92,290,289;,
   3;291,293,292;,
   3;293,97,98;,
   3;98,292,293;,
   3;99,295,294;,
   3;294,102,99;,
   3;296,298,297;,
   3;299,301,300;,
   3;300,295,299;,
   3;109,302,299;,
   3;299,111,109;,
   3;299,303,301;,
   3;303,299,302;,
   3;304,114,305;,
   3;304,116,114;,
   3;117,306,119;,
   3;117,307,306;,
   3;308,310,309;,
   3;308,311,310;,
   3;125,126,312;,
   3;125,312,313;,
   3;314,130,131;,
   3;131,315,314;,
   3;133,317,316;,
   3;316,136,133;,
   3;318,320,319;,
   3;321,141,142;,
   3;142,322,321;,
   3;144,324,323;,
   3;323,147,144;,
   3;325,327,326;,
   3;328,330,329;,
   3;329,331,328;,
   3;332,334,333;,
   3;333,335,332;,
   3;336,338,337;,
   3;337,339,336;,
   3;340,342,341;,
   3;341,343,340;,
   3;344,346,345;,
   3;345,347,344;,
   3;348,350,349;,
   3;349,351,348;,
   3;352,354,353;,
   3;353,355,352;,
   3;356,358,357;,
   3;357,359,356;,
   3;360,184,185;,
   3;185,361,360;,
   3;358,363,362;,
   3;362,357,358;,
   3;364,352,355;,
   3;355,365,364;,
   3;191,367,366;,
   3;366,194,191;,
   3;368,356,359;,
   3;359,369,368;,
   3;367,371,370;,
   3;370,366,367;,
   3;326,372,325;,
   3;320,318,373;,
   3;374,202,203;,
   3;204,376,375;,
   3;375,207,204;,
   3;374,377,202;,
   3;378,380,379;,
   3;379,381,378;,
   3;213,383,382;,
   3;382,216,213;;
  }

  MeshTextureCoords tc0 {
   384;
   0.050794;0.344257;,
   0.052367;0.494981;,
   0.169855;0.344038;,
   0.751386;0.521591;,
   0.673942;0.522135;,
   0.674486;0.595271;,
   0.052367;0.494981;,
   0.050794;0.344257;,
   0.169855;0.494873;,
   0.750260;0.594798;,
   0.674486;0.595271;,
   0.673942;0.522135;,
   0.129224;0.103324;,
   0.281075;0.103324;,
   0.282350;0.210301;,
   0.128654;0.210301;,
   0.615178;0.510783;,
   0.617594;0.419076;,
   0.686179;0.419076;,
   0.685609;0.510783;,
   0.673548;0.523985;,
   0.751775;0.523415;,
   0.750260;0.594798;,
   0.674486;0.595271;,
   0.685609;0.510783;,
   0.617594;0.419076;,
   0.615178;0.510783;,
   0.282350;0.210301;,
   0.128654;0.210301;,
   0.129224;0.081176;,
   0.281075;0.081176;,
   0.169855;0.494873;,
   0.026799;0.344257;,
   0.052367;0.494981;,
   0.169855;0.494873;,
   0.750260;0.594798;,
   0.686179;0.419076;,
   0.751386;0.521591;,
   0.169855;0.344038;,
   0.083892;0.215815;,
   0.007837;0.070404;,
   0.007837;0.215815;,
   0.152183;0.070404;,
   0.152183;0.215815;,
   0.751386;0.521591;,
   0.750260;0.670472;,
   0.674486;0.670944;,
   0.673942;0.522135;,
   0.751386;0.519745;,
   0.750260;0.635404;,
   0.674486;0.635876;,
   0.673942;0.520289;,
   0.128654;0.210301;,
   0.282350;0.210301;,
   0.282920;0.116244;,
   0.131070;0.116244;,
   0.615178;0.510783;,
   0.686179;0.419076;,
   0.617594;0.419076;,
   0.685609;0.510783;,
   0.043962;0.810019;,
   0.041547;0.689975;,
   0.139004;0.689975;,
   0.141419;0.810019;,
   0.282350;0.210301;,
   0.281075;0.081176;,
   0.129224;0.081176;,
   0.128654;0.210301;,
   0.803195;0.663099;,
   0.803889;0.600497;,
   0.751204;0.604789;,
   0.752312;0.659211;,
   0.803195;0.663099;,
   0.752312;0.659211;,
   0.205576;0.538895;,
   0.205576;0.601943;,
   0.045578;0.601373;,
   0.045578;0.538325;,
   0.205576;0.601943;,
   0.205576;0.538895;,
   0.045578;0.538325;,
   0.045578;0.601373;,
   0.848310;0.443884;,
   0.695244;0.443884;,
   0.694418;0.262645;,
   0.850160;0.262645;,
   0.339816;0.691661;,
   0.408401;0.691661;,
   0.405986;0.561195;,
   0.339246;0.561195;,
   0.339816;0.691661;,
   0.408401;0.691661;,
   0.405986;0.561195;,
   0.339246;0.561195;,
   0.083892;0.215815;,
   0.007837;0.215815;,
   0.007837;0.070404;,
   0.152183;0.215815;,
   0.152183;0.070404;,
   0.231351;0.890491;,
   0.227059;0.863647;,
   0.172637;0.864755;,
   0.168749;0.889798;,
   0.227059;0.863647;,
   0.231351;0.890491;,
   0.168749;0.889798;,
   0.231351;0.890491;,
   0.168749;0.889798;,
   0.172637;0.864755;,
   0.172637;0.864755;,
   0.227059;0.863647;,
   0.168749;0.889798;,
   0.172637;0.864755;,
   0.031902;0.943550;,
   0.404934;0.959396;,
   0.404934;0.941266;,
   0.031902;0.961729;,
   0.031902;0.961729;,
   0.404934;0.941266;,
   0.404934;0.959396;,
   0.031902;0.943550;,
   0.031902;0.961729;,
   0.404934;0.941266;,
   0.404934;0.959396;,
   0.031902;0.943550;,
   0.813594;0.623031;,
   0.783157;0.623031;,
   0.784874;0.649015;,
   0.813594;0.656922;,
   0.227059;0.867338;,
   0.183712;0.868446;,
   0.179823;0.908255;,
   0.231351;0.908948;,
   0.183712;0.868446;,
   0.227059;0.867338;,
   0.231351;0.908948;,
   0.179823;0.908255;,
   0.179823;0.908255;,
   0.227059;0.867338;,
   0.231351;0.908948;,
   0.455959;0.669482;,
   0.455959;0.678512;,
   0.541095;0.676474;,
   0.541095;0.669532;,
   0.455959;0.689930;,
   0.455959;0.669482;,
   0.541095;0.669532;,
   0.541095;0.689930;,
   0.541095;0.669532;,
   0.541095;0.676474;,
   0.455959;0.678512;,
   0.937087;0.800123;,
   0.939500;0.712781;,
   0.967145;0.730527;,
   0.965675;0.782039;,
   0.162265;0.940373;,
   0.042386;0.940373;,
   0.039970;0.810019;,
   0.159850;0.810019;,
   0.162265;0.940373;,
   0.042386;0.940373;,
   0.039970;0.810019;,
   0.159850;0.810019;,
   0.700612;0.712781;,
   0.700612;0.791261;,
   0.748606;0.775736;,
   0.748593;0.730791;,
   0.327016;0.822017;,
   0.413897;0.822930;,
   0.412736;0.791356;,
   0.328601;0.790950;,
   0.413897;0.822930;,
   0.327016;0.822017;,
   0.328601;0.790950;,
   0.412736;0.791356;,
   0.327016;0.822017;,
   0.413897;0.822930;,
   0.412736;0.791356;,
   0.328601;0.790950;,
   0.413897;0.822930;,
   0.327016;0.822017;,
   0.328601;0.790950;,
   0.412736;0.791356;,
   0.327016;0.822017;,
   0.413897;0.822930;,
   0.412736;0.791356;,
   0.328601;0.790950;,
   0.413897;0.822930;,
   0.412736;0.791356;,
   0.413897;0.822930;,
   0.412736;0.791356;,
   0.584344;0.544620;,
   0.584344;0.564130;,
   0.568247;0.552865;,
   0.563873;0.531536;,
   0.327016;0.822017;,
   0.328601;0.790950;,
   0.584344;0.636465;,
   0.572983;0.627675;,
   0.455959;0.669482;,
   0.183712;0.868446;,
   0.587203;0.293212;,
   0.495935;0.212688;,
   0.494971;0.292991;,
   0.129224;0.081176;,
   0.281075;0.081176;,
   0.282350;0.210301;,
   0.128654;0.210301;,
   0.552187;0.212681;,
   0.495935;0.212688;,
   0.552187;0.212681;,
   0.587203;0.293212;,
   0.494971;0.292991;,
   0.495935;0.212688;,
   0.552187;0.212681;,
   0.587203;0.293212;,
   0.494971;0.292991;,
   0.050794;0.344257;,
   0.052367;0.494981;,
   0.751386;0.521591;,
   0.674486;0.595271;,
   0.673942;0.522135;,
   0.052367;0.494981;,
   0.050794;0.344257;,
   0.673942;0.522135;,
   0.282350;0.210301;,
   0.281075;0.103324;,
   0.615178;0.510783;,
   0.686179;0.419076;,
   0.617594;0.419076;,
   0.685609;0.510783;,
   0.673548;0.523985;,
   0.750260;0.594798;,
   0.751775;0.523415;,
   0.674486;0.595271;,
   0.685609;0.510783;,
   0.615178;0.510783;,
   0.617594;0.419076;,
   0.282350;0.210301;,
   0.129224;0.081176;,
   0.128654;0.210301;,
   0.281075;0.081176;,
   0.026799;0.344257;,
   0.169855;0.494873;,
   0.052367;0.494981;,
   0.750260;0.594798;,
   0.686179;0.419076;,
   0.751386;0.521591;,
   0.083892;0.215815;,
   0.007837;0.215815;,
   0.007837;0.070404;,
   0.751386;0.521591;,
   0.674486;0.670944;,
   0.750260;0.670472;,
   0.673942;0.522135;,
   0.751386;0.519745;,
   0.673942;0.520289;,
   0.282920;0.116244;,
   0.282350;0.210301;,
   0.615178;0.510783;,
   0.617594;0.419076;,
   0.686179;0.419076;,
   0.685609;0.510783;,
   0.043962;0.810019;,
   0.139004;0.689975;,
   0.041547;0.689975;,
   0.141419;0.810019;,
   0.282350;0.210301;,
   0.129224;0.081176;,
   0.281075;0.081176;,
   0.128654;0.210301;,
   0.803195;0.663099;,
   0.751204;0.604789;,
   0.803889;0.600497;,
   0.752312;0.659211;,
   0.205576;0.538895;,
   0.045578;0.601373;,
   0.205576;0.601943;,
   0.045578;0.538325;,
   0.205576;0.601943;,
   0.045578;0.538325;,
   0.205576;0.538895;,
   0.045578;0.601373;,
   0.694418;0.262645;,
   0.695244;0.443884;,
   0.339816;0.691661;,
   0.405986;0.561195;,
   0.408401;0.691661;,
   0.339246;0.561195;,
   0.339816;0.691661;,
   0.339246;0.561195;,
   0.083892;0.215815;,
   0.007837;0.070404;,
   0.007837;0.215815;,
   0.172637;0.864755;,
   0.227059;0.863647;,
   0.227059;0.863647;,
   0.168749;0.889798;,
   0.231351;0.890491;,
   0.231351;0.890491;,
   0.172637;0.864755;,
   0.168749;0.889798;,
   0.227059;0.863647;,
   0.172637;0.864755;,
   0.031902;0.943550;,
   0.404934;0.941266;,
   0.404934;0.941266;,
   0.031902;0.943550;,
   0.031902;0.961729;,
   0.404934;0.959396;,
   0.404934;0.941266;,
   0.031902;0.943550;,
   0.784874;0.649015;,
   0.813594;0.656922;,
   0.227059;0.867338;,
   0.231351;0.908948;,
   0.231351;0.908948;,
   0.227059;0.867338;,
   0.179823;0.908255;,
   0.231351;0.908948;,
   0.227059;0.867338;,
   0.455959;0.669482;,
   0.541095;0.669532;,
   0.541095;0.669532;,
   0.455959;0.669482;,
   0.541095;0.669532;,
   0.455959;0.678512;,
   0.541095;0.676474;,
   0.937087;0.800123;,
   0.967145;0.730527;,
   0.939500;0.712781;,
   0.965675;0.782039;,
   0.162265;0.940373;,
   0.039970;0.810019;,
   0.042386;0.940373;,
   0.159850;0.810019;,
   0.162265;0.940373;,
   0.039970;0.810019;,
   0.042386;0.940373;,
   0.159850;0.810019;,
   0.700612;0.712781;,
   0.748606;0.775736;,
   0.700612;0.791261;,
   0.748593;0.730791;,
   0.327016;0.822017;,
   0.412736;0.791356;,
   0.413897;0.822930;,
   0.328601;0.790950;,
   0.413897;0.822930;,
   0.328601;0.790950;,
   0.327016;0.822017;,
   0.412736;0.791356;,
   0.327016;0.822017;,
   0.412736;0.791356;,
   0.413897;0.822930;,
   0.328601;0.790950;,
   0.413897;0.822930;,
   0.328601;0.790950;,
   0.327016;0.822017;,
   0.412736;0.791356;,
   0.327016;0.822017;,
   0.328601;0.790950;,
   0.412736;0.791356;,
   0.413897;0.822930;,
   0.413897;0.822930;,
   0.412736;0.791356;,
   0.568247;0.552865;,
   0.584344;0.564130;,
   0.327016;0.822017;,
   0.328601;0.790950;,
   0.572983;0.627675;,
   0.584344;0.636465;,
   0.455959;0.669482;,
   0.183712;0.868446;,
   0.587203;0.293212;,
   0.282350;0.210301;,
   0.281075;0.081176;,
   0.552187;0.212681;,
   0.495935;0.212688;,
   0.587203;0.293212;,
   0.552187;0.212681;,
   0.494971;0.292991;,
   0.587203;0.293212;,
   0.552187;0.212681;;
  }

  MeshMaterialList mtls {
   1;
   232;
   0,
   0,
   0,
   0,
   0,
   0,
   0,
   0,
   0,
   0,
   0,
   0,
   0,
   0,
   0,
   0,
   0,
   0,
   0,
   0,
   0,
   0,
   0,
   0,
   0,
   0,
   0,
   0,
   0,
   0,
   0,
   0,
   0,
   0,
   0,
   0,
   0,
   0,
   0,
   0,
   0,
   0,
   0,
   0,
   0,
   0,
   0,
   0,
   0,
   0,
   0,
   0,
   0,
   0,
   0,
   0,
   0,
   0,
   0,
   0,
   0,
   0,
   0,
   0,
   0,
   0,
   0,
   0,
   0,
   0,
   0,
   0,
   0,
   0,
   0,
   0,
   0,
   0,
   0,
   0,
   0,
   0,
   0,
   0,
   0,
   0,
   0,
   0,
   0,
   0,
   0,
   0,
   0,
   0,
   0,
   0,
   0,
   0,
   0,
   0,
   0,
   0,
   0,
   0,
   0,
   0,
   0,
   0,
   0,
   0,
   0,
   0,
   0,
   0,
   0,
   0,
   0,
   0,
   0,
   0,
   0,
   0,
   0,
   0,
   0,
   0,
   0,
   0,
   0,
   0,
   0,
   0,
   0,
   0,
   0,
   0,
   0,
   0,
   0,
   0,
   0,
   0,
   0,
   0,
   0,
   0,
   0,
   0,
   0,
   0,
   0,
   0,
   0,
   0,
   0,
   0,
   0,
   0,
   0,
   0,
   0,
   0,
   0,
   0,
   0,
   0,
   0,
   0,
   0,
   0,
   0,
   0,
   0,
   0,
   0,
   0,
   0,
   0,
   0,
   0,
   0,
   0,
   0,
   0,
   0,
   0,
   0,
   0,
   0,
   0,
   0,
   0,
   0,
   0,
   0,
   0,
   0,
   0,
   0,
   0,
   0,
   0,
   0,
   0,
   0,
   0,
   0,
   0,
   0,
   0,
   0,
   0,
   0,
   0,
   0,
   0,
   0,
   0,
   0,
   0,
   0,
   0,
   0,
   0,
   0,
   0,
   0,
   0,
   0,
   0,
   0,
   0;

   Material Dflt_Material {
    0.588235;0.588235;0.588235;1.000000;;
    9.999999;
    0.050000;0.050000;0.050000;;
    0.000000;0.000000;0.000000;;

    TextureFilename Diffuse {
     "metal-map.jpg";
    }
   }
  }
 }
}