xof 0303txt 0032
template Frame {
 <3d82ab46-62da-11cf-ab39-0020af71e433>
 [...]
}

template Matrix4x4 {
 <f6f23f45-7686-11cf-8f52-0040333594a3>
 array FLOAT matrix[16];
}

template FrameTransformMatrix {
 <f6f23f41-7686-11cf-8f52-0040333594a3>
 Matrix4x4 frameMatrix;
}

template ObjectMatrixComment {
 <95a48e28-7ef4-4419-a16a-ba9dbdf0d2bc>
 Matrix4x4 objectMatrix;
}

template Vector {
 <3d82ab5e-62da-11cf-ab39-0020af71e433>
 FLOAT x;
 FLOAT y;
 FLOAT z;
}

template MeshFace {
 <3d82ab5f-62da-11cf-ab39-0020af71e433>
 DWORD nFaceVertexIndices;
 array DWORD faceVertexIndices[nFaceVertexIndices];
}

template Mesh {
 <3d82ab44-62da-11cf-ab39-0020af71e433>
 DWORD nVertices;
 array Vector vertices[nVertices];
 DWORD nFaces;
 array MeshFace faces[nFaces];
 [...]
}

template MeshNormals {
 <f6f23f43-7686-11cf-8f52-0040333594a3>
 DWORD nNormals;
 array Vector normals[nNormals];
 DWORD nFaceNormals;
 array MeshFace faceNormals[nFaceNormals];
}

template Coords2d {
 <f6f23f44-7686-11cf-8f52-0040333594a3>
 FLOAT u;
 FLOAT v;
}

template MeshTextureCoords {
 <f6f23f40-7686-11cf-8f52-0040333594a3>
 DWORD nTextureCoords;
 array Coords2d textureCoords[nTextureCoords];
}

template ColorRGBA {
 <35ff44e0-6c7c-11cf-8f52-0040333594a3>
 FLOAT red;
 FLOAT green;
 FLOAT blue;
 FLOAT alpha;
}

template ColorRGB {
 <d3e16e81-7835-11cf-8f52-0040333594a3>
 FLOAT red;
 FLOAT green;
 FLOAT blue;
}

template Material {
 <3d82ab4d-62da-11cf-ab39-0020af71e433>
 ColorRGBA faceColor;
 FLOAT power;
 ColorRGB specularColor;
 ColorRGB emissiveColor;
 [...]
}

template MeshMaterialList {
 <f6f23f42-7686-11cf-8f52-0040333594a3>
 DWORD nMaterials;
 DWORD nFaceIndexes;
 array DWORD faceIndexes[nFaceIndexes];
 [Material <3d82ab4d-62da-11cf-ab39-0020af71e433>]
}

template TextureFilename {
 <a42790e1-7810-11cf-8f52-0040333594a3>
 STRING filename;
}


Frame Sphere001 {
 

 FrameTransformMatrix relative {
  1.000000,0.000000,0.000000,0.000000,0.000000,1.000000,0.000000,0.000000,0.000000,0.000000,1.000000,0.000000,0.000000,0.000000,0.000000,1.000000;;
 }

 ObjectMatrixComment object {
  1.000000,0.000000,0.000000,0.000000,0.000000,1.000000,0.000000,0.000000,0.000000,0.000000,1.000000,0.000000,0.000000,0.000000,0.000000,1.000000;;
 }

 Mesh mesh_S {
  64;
  0.000000;1.000000;0.000000;,
  -0.000000;0.809017;0.587785;,
  -0.345491;0.809017;0.475528;,
  0.000000;1.000000;0.000000;,
  -0.559017;0.809017;0.181636;,
  0.000000;1.000000;0.000000;,
  -0.559017;0.809017;-0.181636;,
  0.000000;1.000000;0.000000;,
  -0.345492;0.809017;-0.475528;,
  0.000000;1.000000;0.000000;,
  0.000000;0.809017;-0.587785;,
  0.000000;1.000000;0.000000;,
  0.345492;0.809017;-0.475528;,
  0.000000;1.000000;0.000000;,
  0.559017;0.809017;-0.181635;,
  0.000000;1.000000;0.000000;,
  0.559017;0.809017;0.181636;,
  0.000000;1.000000;0.000000;,
  0.345491;0.809017;0.475529;,
  0.000000;1.000000;0.000000;,
  -0.000000;0.809017;0.587785;,
  -0.000000;0.309017;0.951057;,
  -0.559017;0.309017;0.769421;,
  -0.904509;0.309017;0.293893;,
  -0.904509;0.309017;-0.293893;,
  -0.559017;0.309017;-0.769421;,
  0.000000;0.309017;-0.951057;,
  0.559017;0.309017;-0.769421;,
  0.904509;0.309017;-0.293892;,
  0.904508;0.309017;0.293893;,
  0.559016;0.309017;0.769421;,
  -0.000000;0.309017;0.951057;,
  -0.000000;-0.309017;0.951057;,
  -0.559017;-0.309017;0.769421;,
  -0.904508;-0.309017;0.293893;,
  -0.904509;-0.309017;-0.293893;,
  -0.559017;-0.309017;-0.769421;,
  0.000000;-0.309017;-0.951057;,
  0.559017;-0.309017;-0.769421;,
  0.904509;-0.309017;-0.293892;,
  0.904508;-0.309017;0.293893;,
  0.559016;-0.309017;0.769421;,
  -0.000000;-0.309017;0.951057;,
  -0.000000;-0.809017;0.587785;,
  -0.345491;-0.809017;0.475528;,
  -0.559017;-0.809017;0.181636;,
  -0.559017;-0.809017;-0.181636;,
  -0.345492;-0.809017;-0.475528;,
  0.000000;-0.809017;-0.587785;,
  0.345492;-0.809017;-0.475528;,
  0.559017;-0.809017;-0.181635;,
  0.559017;-0.809017;0.181636;,
  0.345491;-0.809017;0.475529;,
  -0.000000;-0.809017;0.587785;,
  0.000000;-1.000000;0.000000;,
  0.000000;-1.000000;0.000000;,
  0.000000;-1.000000;0.000000;,
  0.000000;-1.000000;0.000000;,
  0.000000;-1.000000;0.000000;,
  0.000000;-1.000000;0.000000;,
  0.000000;-1.000000;0.000000;,
  0.000000;-1.000000;0.000000;,
  0.000000;-1.000000;0.000000;,
  0.000000;-1.000000;0.000000;;
  80;
  3;0,2,1;,
  3;3,4,2;,
  3;5,6,4;,
  3;7,8,6;,
  3;9,10,8;,
  3;11,12,10;,
  3;13,14,12;,
  3;15,16,14;,
  3;17,18,16;,
  3;19,20,18;,
  3;1,22,21;,
  3;1,2,22;,
  3;2,23,22;,
  3;2,4,23;,
  3;4,24,23;,
  3;4,6,24;,
  3;6,25,24;,
  3;6,8,25;,
  3;8,26,25;,
  3;8,10,26;,
  3;10,27,26;,
  3;10,12,27;,
  3;12,28,27;,
  3;12,14,28;,
  3;14,29,28;,
  3;14,16,29;,
  3;16,30,29;,
  3;16,18,30;,
  3;18,31,30;,
  3;18,20,31;,
  3;21,33,32;,
  3;21,22,33;,
  3;22,34,33;,
  3;22,23,34;,
  3;23,35,34;,
  3;23,24,35;,
  3;24,36,35;,
  3;24,25,36;,
  3;25,37,36;,
  3;25,26,37;,
  3;26,38,37;,
  3;26,27,38;,
  3;27,39,38;,
  3;27,28,39;,
  3;28,40,39;,
  3;28,29,40;,
  3;29,41,40;,
  3;29,30,41;,
  3;30,42,41;,
  3;30,31,42;,
  3;32,44,43;,
  3;32,33,44;,
  3;33,45,44;,
  3;33,34,45;,
  3;34,46,45;,
  3;34,35,46;,
  3;35,47,46;,
  3;35,36,47;,
  3;36,48,47;,
  3;36,37,48;,
  3;37,49,48;,
  3;37,38,49;,
  3;38,50,49;,
  3;38,39,50;,
  3;39,51,50;,
  3;39,40,51;,
  3;40,52,51;,
  3;40,41,52;,
  3;41,53,52;,
  3;41,42,53;,
  3;54,43,44;,
  3;55,44,45;,
  3;56,45,46;,
  3;57,46,47;,
  3;58,47,48;,
  3;59,48,49;,
  3;60,49,50;,
  3;61,50,51;,
  3;62,51,52;,
  3;63,52,53;;

  MeshNormals normals {
   64;
   -0.000000;1.000000;-0.000000;,
   -0.000000;0.780444;0.625226;,
   -0.367498;0.780444;0.505818;,
   -0.000000;1.000000;-0.000000;,
   -0.594625;0.780444;0.193205;,
   -0.000000;1.000000;-0.000000;,
   -0.594625;0.780444;-0.193205;,
   -0.000000;1.000000;-0.000000;,
   -0.367498;0.780444;-0.505818;,
   -0.000000;1.000000;-0.000000;,
   -0.000000;0.780444;-0.625226;,
   -0.000000;1.000000;-0.000000;,
   0.367499;0.780444;-0.505818;,
   -0.000000;1.000000;-0.000000;,
   0.594625;0.780444;-0.193205;,
   -0.000000;1.000000;-0.000000;,
   0.594625;0.780444;0.193206;,
   -0.000000;1.000000;-0.000000;,
   0.367498;0.780444;0.505819;,
   -0.000000;1.000000;-0.000000;,
   -0.000000;0.780444;0.625226;,
   -0.000000;0.292481;0.956271;,
   -0.562082;0.292481;0.773640;,
   -0.909468;0.292481;0.295504;,
   -0.909468;0.292481;-0.295504;,
   -0.562082;0.292481;-0.773640;,
   0.000000;0.292481;-0.956271;,
   0.562082;0.292481;-0.773640;,
   0.909468;0.292481;-0.295504;,
   0.909468;0.292481;0.295505;,
   0.562082;0.292481;0.773640;,
   -0.000000;0.292481;0.956271;,
   -0.000000;-0.292481;0.956271;,
   -0.562082;-0.292481;0.773640;,
   -0.909468;-0.292481;0.295504;,
   -0.909468;-0.292481;-0.295504;,
   -0.562082;-0.292481;-0.773640;,
   -0.000000;-0.292481;-0.956271;,
   0.562082;-0.292481;-0.773640;,
   0.909468;-0.292481;-0.295504;,
   0.909468;-0.292481;0.295505;,
   0.562082;-0.292481;0.773640;,
   -0.000000;-0.292481;0.956271;,
   -0.000000;-0.780444;0.625226;,
   -0.367498;-0.780444;0.505818;,
   -0.594625;-0.780444;0.193205;,
   -0.594625;-0.780444;-0.193205;,
   -0.367499;-0.780444;-0.505818;,
   -0.000000;-0.780444;-0.625226;,
   0.367499;-0.780444;-0.505818;,
   0.594625;-0.780444;-0.193205;,
   0.594625;-0.780444;0.193206;,
   0.367498;-0.780444;0.505819;,
   -0.000000;-0.780444;0.625226;,
   -0.000000;-1.000000;-0.000000;,
   -0.000000;-1.000000;-0.000000;,
   -0.000000;-1.000000;-0.000000;,
   -0.000000;-1.000000;-0.000000;,
   -0.000000;-1.000000;-0.000000;,
   -0.000000;-1.000000;-0.000000;,
   -0.000000;-1.000000;-0.000000;,
   -0.000000;-1.000000;-0.000000;,
   -0.000000;-1.000000;-0.000000;,
   -0.000000;-1.000000;-0.000000;;
   80;
   3;0,2,1;,
   3;3,4,2;,
   3;5,6,4;,
   3;7,8,6;,
   3;9,10,8;,
   3;11,12,10;,
   3;13,14,12;,
   3;15,16,14;,
   3;17,18,16;,
   3;19,20,18;,
   3;1,22,21;,
   3;1,2,22;,
   3;2,23,22;,
   3;2,4,23;,
   3;4,24,23;,
   3;4,6,24;,
   3;6,25,24;,
   3;6,8,25;,
   3;8,26,25;,
   3;8,10,26;,
   3;10,27,26;,
   3;10,12,27;,
   3;12,28,27;,
   3;12,14,28;,
   3;14,29,28;,
   3;14,16,29;,
   3;16,30,29;,
   3;16,18,30;,
   3;18,31,30;,
   3;18,20,31;,
   3;21,33,32;,
   3;21,22,33;,
   3;22,34,33;,
   3;22,23,34;,
   3;23,35,34;,
   3;23,24,35;,
   3;24,36,35;,
   3;24,25,36;,
   3;25,37,36;,
   3;25,26,37;,
   3;26,38,37;,
   3;26,27,38;,
   3;27,39,38;,
   3;27,28,39;,
   3;28,40,39;,
   3;28,29,40;,
   3;29,41,40;,
   3;29,30,41;,
   3;30,42,41;,
   3;30,31,42;,
   3;32,44,43;,
   3;32,33,44;,
   3;33,45,44;,
   3;33,34,45;,
   3;34,46,45;,
   3;34,35,46;,
   3;35,47,46;,
   3;35,36,47;,
   3;36,48,47;,
   3;36,37,48;,
   3;37,49,48;,
   3;37,38,49;,
   3;38,50,49;,
   3;38,39,50;,
   3;39,51,50;,
   3;39,40,51;,
   3;40,52,51;,
   3;40,41,52;,
   3;41,53,52;,
   3;41,42,53;,
   3;54,43,44;,
   3;55,44,45;,
   3;56,45,46;,
   3;57,46,47;,
   3;58,47,48;,
   3;59,48,49;,
   3;60,49,50;,
   3;61,50,51;,
   3;62,51,52;,
   3;63,52,53;;
  }

  MeshTextureCoords tc0 {
   64;
   0.000000;0.000000;,
   0.000000;0.200000;,
   0.100000;0.200000;,
   0.100000;0.000000;,
   0.200000;0.200000;,
   0.200000;0.000000;,
   0.300000;0.200000;,
   0.300000;0.000000;,
   0.400000;0.200000;,
   0.400000;0.000000;,
   0.500000;0.200000;,
   0.500000;0.000000;,
   0.600000;0.200000;,
   0.600000;0.000000;,
   0.700000;0.200000;,
   0.700000;0.000000;,
   0.800000;0.200000;,
   0.800000;0.000000;,
   0.900000;0.200000;,
   0.900000;0.000000;,
   1.000000;0.200000;,
   0.000000;0.400000;,
   0.100000;0.400000;,
   0.200000;0.400000;,
   0.300000;0.400000;,
   0.400000;0.400000;,
   0.500000;0.400000;,
   0.600000;0.400000;,
   0.700000;0.400000;,
   0.800000;0.400000;,
   0.900000;0.400000;,
   1.000000;0.400000;,
   0.000000;0.600000;,
   0.100000;0.600000;,
   0.200000;0.600000;,
   0.300000;0.600000;,
   0.400000;0.600000;,
   0.500000;0.600000;,
   0.600000;0.600000;,
   0.700000;0.600000;,
   0.800000;0.600000;,
   0.900000;0.600000;,
   1.000000;0.600000;,
   0.000000;0.800000;,
   0.100000;0.800000;,
   0.200000;0.800000;,
   0.300000;0.800000;,
   0.400000;0.800000;,
   0.500000;0.800000;,
   0.600000;0.800000;,
   0.700000;0.800000;,
   0.800000;0.800000;,
   0.900000;0.800000;,
   1.000000;0.800000;,
   0.000000;1.000000;,
   0.100000;1.000000;,
   0.200000;1.000000;,
   0.300000;1.000000;,
   0.400000;1.000000;,
   0.500000;1.000000;,
   0.600000;1.000000;,
   0.700000;1.000000;,
   0.800000;1.000000;,
   0.900000;1.000000;;
  }

  MeshMaterialList mtls {
   1;
   80;
   0,
   0,
   0,
   0,
   0,
   0,
   0,
   0,
   0,
   0,
   0,
   0,
   0,
   0,
   0,
   0,
   0,
   0,
   0,
   0,
   0,
   0,
   0,
   0,
   0,
   0,
   0,
   0,
   0,
   0,
   0,
   0,
   0,
   0,
   0,
   0,
   0,
   0,
   0,
   0,
   0,
   0,
   0,
   0,
   0,
   0,
   0,
   0,
   0,
   0,
   0,
   0,
   0,
   0,
   0,
   0,
   0,
   0,
   0,
   0,
   0,
   0,
   0,
   0,
   0,
   0,
   0,
   0,
   0,
   0,
   0,
   0,
   0,
   0,
   0,
   0,
   0,
   0,
   0,
   0;

   Material Dflt_Material {
    0.588000;0.588000;0.588000;1.000000;;
    10.000000;
    0.900000;0.900000;0.900000;;
    0.000000;0.000000;0.000000;;

    TextureFilename Diffuse {
     "red.png";
    }
   }
  }
 }
}